 348 1
 615 2
1799 3
6246 4
10094 5
12080 6
12509 7
12024 8
11299 9
10344 10
8831 11
7590 12
6504 13
5564 14
4958 15
4288 16
3720 17
3343 18
2943 19
2729 20
2510 21
2306 22
2095 23
2053 24
2031 25
1972 26
1906 27
2047 28
2000 29
1997 30
2078 31
2031 32
2099 33
2083 34
2181 35
2326 36
2323 37
2200 38
2343 39
2428 40
2445 41
2515 42
2506 43
2569 44
2568 45
2581 46
2529 47
2619 48
2660 49
2740 50
2799 51
2856 52
2872 53
2810 54
2868 55
3013 56
3005 57
2944 58
2937 59
3003 60
3028 61
3125 62
3086 63
3115 64
3040 65
3155 66
2999 67
3181 68
3176 69
3021 70
3092 71
3151 72
3039 73
3065 74
3072 75
3191 76
3060 77
3200 78
3134 79
3163 80
3077 81
3152 82
3226 83
3270 84
3199 85
3143 86
3130 87
3284 88
3156 89
3197 90
3274 91
3228 92
3206 93
3268 94
3211 95
3239 96
3325 97
3234 98
3241 99
3305 100
3226 101
3251 102
3332 103
3272 104
3252 105
3230 106
3250 107
3445 108
3373 109
3364 110
3311 111
3248 112
3457 113
3166 114
3367 115
3311 116
3419 117
3431 118
3357 119
3329 120
3368 121
3264 122
3329 123
3325 124
3365 125
3512 126
3278 127
3333 128
3350 129
3244 130
3320 131
3431 132
3328 133
3323 134
3389 135
3341 136
3312 137
3291 138
3290 139
3364 140
3346 141
3334 142
3423 143
3293 144
3436 145
3344 146
3364 147
3328 148
3239 149
3300 150
3322 151
3270 152
3276 153
3380 154
3325 155
3269 156
3237 157
3330 158
3232 159
3199 160
3328 161
3212 162
3228 163
3292 164
3309 165
3274 166
3183 167
3183 168
3218 169
3211 170
3180 171
3213 172
3293 173
3259 174
3178 175
3221 176
3153 177
3194 178
3259 179
3259 180
3144 181
3289 182
3099 183
3105 184
3178 185
3165 186
3147 187
3061 188
3174 189
3189 190
3081 191
3228 192
3194 193
3017 194
3151 195
3123 196
3267 197
3123 198
3036 199
3129 200
3015 201
3152 202
3049 203
3091 204
3156 205
3077 206
3167 207
3066 208
3081 209
2955 210
2951 211
3020 212
3011 213
3049 214
3007 215
2949 216
3025 217
3083 218
2893 219
2991 220
3042 221
2975 222
2869 223
2936 224
3047 225
2983 226
3011 227
2985 228
2930 229
3053 230
3002 231
3001 232
3054 233
2845 234
2966 235
2857 236
2961 237
2921 238
3085 239
3003 240
2946 241
2885 242
2928 243
3006 244
2840 245
2964 246
2915 247
2955 248
2918 249
2956 250
2944 251
2851 252
2823 253
2837 254
2823 255
2980 256
2942 257
2889 258
2829 259
2861 260
2944 261
2931 262
2893 263
2649 264
2833 265
2785 266
2795 267
2765 268
2910 269
2826 270
2867 271
2832 272
2673 273
2707 274
2813 275
2826 276
2757 277
2738 278
2786 279
2720 280
2728 281
2749 282
2725 283
2743 284
2691 285
2667 286
2800 287
2660 288
2746 289
2661 290
2679 291
2817 292
2683 293
2824 294
2662 295
2629 296
2720 297
2742 298
2648 299
2664 300
2695 301
2690 302
2623 303
2756 304
2638 305
2653 306
2664 307
2671 308
2635 309
2621 310
2597 311
2568 312
2630 313
2577 314
2580 315
2632 316
2563 317
2599 318
2660 319
2574 320
2550 321
2538 322
2599 323
2621 324
2577 325
2609 326
2603 327
2488 328
2436 329
2588 330
2508 331
2561 332
2476 333
2610 334
2573 335
2490 336
2531 337
2427 338
2551 339
2498 340
2497 341
2422 342
2432 343
2448 344
2416 345
2334 346
2347 347
2424 348
2397 349
2378 350
2408 351
2500 352
2439 353
2468 354
2455 355
2473 356
2380 357
2375 358
2325 359
2399 360
2374 361
2413 362
2391 363
2215 364
2363 365
2346 366
2211 367
2271 368
2325 369
2340 370
2253 371
2291 372
2327 373
2340 374
2279 375
2270 376
2305 377
2334 378
2219 379
2244 380
2220 381
2277 382
2297 383
2302 384
2290 385
2319 386
2311 387
2261 388
2263 389
2256 390
2253 391
2207 392
2169 393
2294 394
2255 395
2126 396
2228 397
2273 398
2122 399
2200 400
2165 401
2174 402
2127 403
2135 404
2207 405
2125 406
2166 407
2161 408
2075 409
2211 410
2215 411
2151 412
2115 413
2132 414
2089 415
2102 416
2105 417
2087 418
1983 419
2058 420
2106 421
2092 422
2158 423
2104 424
2116 425
2132 426
2036 427
2064 428
2119 429
2026 430
2079 431
2103 432
2000 433
2014 434
2027 435
2103 436
1976 437
1980 438
2046 439
2055 440
1960 441
1920 442
1954 443
2093 444
2109 445
2048 446
2007 447
1961 448
1988 449
2040 450
1969 451
1920 452
2003 453
1828 454
1918 455
2027 456
1922 457
1998 458
1959 459
1909 460
1951 461
1938 462
1911 463
1925 464
1943 465
1929 466
1818 467
1991 468
1912 469
1960 470
1926 471
1863 472
1861 473
1894 474
1910 475
1959 476
1962 477
1943 478
1807 479
1893 480
1929 481
1889 482
1898 483
1804 484
1916 485
1913 486
1944 487
1878 488
1846 489
1838 490
1849 491
1782 492
1871 493
1921 494
1883 495
1716 496
1809 497
1858 498
1848 499
1863 500
1768 501
1794 502
1782 503
1827 504
1776 505
1786 506
1754 507
1873 508
1736 509
1808 510
1809 511
1718 512
1757 513
1828 514
1723 515
1737 516
1760 517
1711 518
1811 519
1708 520
1735 521
1749 522
1687 523
1637 524
1725 525
1709 526
1676 527
1751 528
1756 529
1683 530
1667 531
1669 532
1694 533
1722 534
1690 535
1667 536
1689 537
1625 538
1675 539
1643 540
1567 541
1618 542
1668 543
1643 544
1662 545
1583 546
1644 547
1662 548
1656 549
1655 550
1511 551
1607 552
1649 553
1610 554
1651 555
1563 556
1616 557
1559 558
1618 559
1539 560
1599 561
1628 562
1580 563
1627 564
1608 565
1567 566
1576 567
1512 568
1516 569
1583 570
1597 571
1581 572
1557 573
1519 574
1478 575
1533 576
1550 577
1553 578
1582 579
1519 580
1634 581
1603 582
1525 583
1482 584
1520 585
1472 586
1525 587
1526 588
1539 589
1488 590
1487 591
1459 592
1517 593
1503 594
1469 595
1405 596
1512 597
1473 598
1484 599
1485 600
1383 601
1429 602
1473 603
1434 604
1442 605
1480 606
1395 607
1513 608
1469 609
1442 610
1402 611
1410 612
1500 613
1495 614
1423 615
1500 616
1429 617
1409 618
1373 619
1381 620
1389 621
1391 622
1444 623
1402 624
1481 625
1433 626
1363 627
1302 628
1381 629
1334 630
1361 631
1320 632
1377 633
1370 634
1279 635
1389 636
1316 637
1365 638
1337 639
1374 640
1316 641
1319 642
1336 643
1369 644
1324 645
1312 646
1387 647
1328 648
1349 649
1357 650
1359 651
1402 652
1426 653
1331 654
1360 655
1378 656
1291 657
1324 658
1358 659
1287 660
1313 661
1325 662
1291 663
1303 664
1311 665
1311 666
1382 667
1342 668
1335 669
1309 670
1293 671
1258 672
1275 673
1288 674
1246 675
1224 676
1232 677
1264 678
1246 679
1303 680
1218 681
1318 682
1321 683
1245 684
1275 685
1255 686
1262 687
1239 688
1253 689
1231 690
1221 691
1212 692
1276 693
1250 694
1279 695
1250 696
1240 697
1205 698
1249 699
1208 700
1191 701
1230 702
1142 703
1224 704
1241 705
1140 706
1195 707
1179 708
1184 709
1141 710
1222 711
1162 712
1199 713
1161 714
1168 715
1215 716
1188 717
1199 718
1140 719
1184 720
1123 721
1195 722
1132 723
1217 724
1114 725
1143 726
1175 727
1132 728
1200 729
1192 730
1147 731
1180 732
1070 733
1152 734
1232 735
1140 736
1166 737
1143 738
1200 739
1150 740
1147 741
1116 742
1174 743
1147 744
1144 745
1131 746
1158 747
1106 748
1163 749
1148 750
1162 751
1165 752
1103 753
1118 754
1100 755
1117 756
1125 757
1166 758
1094 759
1104 760
1066 761
1080 762
1077 763
1086 764
1105 765
1077 766
1093 767
1124 768
1102 769
1072 770
1105 771
1028 772
 993 773
1124 774
1063 775
1084 776
1098 777
1048 778
 994 779
1006 780
1058 781
1069 782
1107 783
1085 784
1156 785
1096 786
1064 787
1017 788
1105 789
1003 790
1053 791
1037 792
 992 793
1067 794
1009 795
1033 796
1066 797
1048 798
1053 799
1060 800
1021 801
1012 802
1003 803
1009 804
1010 805
1004 806
1070 807
1031 808
 981 809
 994 810
 985 811
1019 812
1001 813
 983 814
1033 815
 974 816
 963 817
1014 818
1000 819
 981 820
1025 821
1022 822
 904 823
 939 824
 962 825
1002 826
1014 827
 920 828
 955 829
 984 830
 991 831
 981 832
 942 833
 949 834
1015 835
 936 836
1031 837
 968 838
 975 839
 903 840
 943 841
 943 842
 991 843
 944 844
 970 845
 982 846
 973 847
 994 848
 931 849
 952 850
 997 851
 901 852
 947 853
 913 854
 909 855
 957 856
 887 857
 936 858
 942 859
 920 860
 893 861
 930 862
 907 863
 911 864
 947 865
 918 866
 929 867
 929 868
 940 869
 928 870
 897 871
 939 872
 859 873
 874 874
 907 875
 919 876
 882 877
 882 878
 907 879
 913 880
 920 881
 891 882
 927 883
 952 884
 848 885
 916 886
 913 887
 932 888
 843 889
 852 890
 915 891
 896 892
 844 893
 868 894
 835 895
 845 896
 869 897
 914 898
 931 899
 860 900
 900 901
 897 902
 860 903
 834 904
 809 905
 869 906
 862 907
 889 908
 837 909
 837 910
 873 911
 866 912
 881 913
 890 914
 855 915
 840 916
 844 917
 840 918
 811 919
 852 920
 780 921
 824 922
 853 923
 811 924
 770 925
 856 926
 796 927
 840 928
 803 929
 829 930
 836 931
 865 932
 822 933
 845 934
 864 935
 772 936
 786 937
 830 938
 813 939
 789 940
 777 941
 772 942
 796 943
 801 944
 765 945
 814 946
 782 947
 730 948
 734 949
 798 950
 762 951
 769 952
 802 953
 797 954
 840 955
 774 956
 754 957
 767 958
 757 959
 778 960
 784 961
 790 962
 779 963
 790 964
 744 965
 687 966
 752 967
 782 968
 759 969
 787 970
 740 971
 770 972
 699 973
 714 974
 728 975
 747 976
 687 977
 752 978
 754 979
 760 980
 729 981
 750 982
 732 983
 712 984
 791 985
 755 986
 703 987
 742 988
 755 989
 703 990
 706 991
 734 992
 770 993
 744 994
 719 995
 731 996
 722 997
 685 998
 718 999
 698 1000
 748 1001
 715 1002
 697 1003
 689 1004
 690 1005
 707 1006
 678 1007
 733 1008
 696 1009
 727 1010
 710 1011
 654 1012
 728 1013
 659 1014
 716 1015
 696 1016
 616 1017
 689 1018
 679 1019
 691 1020
 683 1021
 690 1022
 674 1023
 650 1024
 659 1025
 684 1026
 651 1027
 659 1028
 635 1029
 669 1030
 698 1031
 643 1032
 617 1033
 691 1034
 680 1035
 665 1036
 612 1037
 683 1038
 651 1039
 655 1040
 660 1041
 668 1042
 650 1043
 635 1044
 646 1045
 622 1046
 649 1047
 655 1048
 658 1049
 614 1050
 657 1051
 599 1052
 630 1053
 649 1054
 644 1055
 634 1056
 633 1057
 651 1058
 656 1059
 634 1060
 623 1061
 616 1062
 624 1063
 620 1064
 604 1065
 624 1066
 644 1067
 630 1068
 646 1069
 614 1070
 607 1071
 594 1072
 589 1073
 633 1074
 622 1075
 650 1076
 609 1077
 618 1078
 602 1079
 623 1080
 615 1081
 580 1082
 599 1083
 632 1084
 583 1085
 613 1086
 581 1087
 619 1088
 623 1089
 608 1090
 619 1091
 588 1092
 563 1093
 554 1094
 607 1095
 594 1096
 589 1097
 597 1098
 564 1099
 603 1100
 645 1101
 616 1102
 588 1103
 582 1104
 548 1105
 603 1106
 583 1107
 587 1108
 550 1109
 600 1110
 535 1111
 535 1112
 583 1113
 581 1114
 576 1115
 565 1116
 529 1117
 574 1118
 550 1119
 539 1120
 540 1121
 535 1122
 609 1123
 578 1124
 527 1125
 564 1126
 595 1127
 538 1128
 562 1129
 533 1130
 537 1131
 533 1132
 526 1133
 567 1134
 536 1135
 552 1136
 532 1137
 525 1138
 519 1139
 560 1140
 522 1141
 531 1142
 546 1143
 533 1144
 593 1145
 535 1146
 540 1147
 489 1148
 516 1149
 562 1150
 539 1151
 500 1152
 471 1153
 542 1154
 547 1155
 529 1156
 504 1157
 540 1158
 501 1159
 543 1160
 530 1161
 522 1162
 550 1163
 516 1164
 543 1165
 495 1166
 536 1167
 491 1168
 475 1169
 502 1170
 520 1171
 485 1172
 509 1173
 466 1174
 498 1175
 551 1176
 487 1177
 510 1178
 481 1179
 541 1180
 503 1181
 519 1182
 531 1183
 502 1184
 522 1185
 490 1186
 505 1187
 480 1188
 485 1189
 500 1190
 491 1191
 502 1192
 497 1193
 465 1194
 549 1195
 476 1196
 488 1197
 477 1198
 497 1199
 451 1200
 460 1201
 499 1202
 483 1203
 503 1204
 494 1205
 483 1206
 493 1207
 465 1208
 475 1209
 472 1210
 505 1211
 498 1212
 463 1213
 472 1214
 471 1215
 439 1216
 456 1217
 428 1218
 473 1219
 481 1220
 484 1221
 454 1222
 459 1223
 509 1224
 440 1225
 507 1226
 497 1227
 433 1228
 476 1229
 443 1230
 511 1231
 440 1232
 464 1233
 445 1234
 424 1235
 460 1236
 464 1237
 485 1238
 465 1239
 486 1240
 444 1241
 464 1242
 464 1243
 443 1244
 448 1245
 392 1246
 458 1247
 426 1248
 460 1249
 411 1250
 413 1251
 427 1252
 415 1253
 423 1254
 423 1255
 436 1256
 413 1257
 419 1258
 465 1259
 434 1260
 398 1261
 431 1262
 407 1263
 443 1264
 437 1265
 422 1266
 396 1267
 433 1268
 400 1269
 418 1270
 424 1271
 429 1272
 431 1273
 438 1274
 428 1275
 432 1276
 457 1277
 394 1278
 441 1279
 444 1280
 450 1281
 412 1282
 417 1283
 402 1284
 430 1285
 413 1286
 391 1287
 413 1288
 386 1289
 389 1290
 400 1291
 428 1292
 433 1293
 403 1294
 405 1295
 400 1296
 396 1297
 391 1298
 413 1299
 382 1300
 418 1301
 409 1302
 417 1303
 375 1304
 397 1305
 411 1306
 381 1307
 425 1308
 406 1309
 448 1310
 377 1311
 427 1312
 408 1313
 351 1314
 382 1315
 367 1316
 395 1317
 382 1318
 388 1319
 393 1320
 388 1321
 372 1322
 406 1323
 396 1324
 414 1325
 357 1326
 389 1327
 355 1328
 369 1329
 391 1330
 385 1331
 399 1332
 393 1333
 411 1334
 400 1335
 404 1336
 348 1337
 354 1338
 379 1339
 341 1340
 404 1341
 397 1342
 395 1343
 330 1344
 371 1345
 357 1346
 345 1347
 411 1348
 369 1349
 359 1350
 421 1351
 395 1352
 355 1353
 361 1354
 361 1355
 370 1356
 355 1357
 373 1358
 384 1359
 351 1360
 350 1361
 359 1362
 341 1363
 356 1364
 348 1365
 343 1366
 294 1367
 344 1368
 353 1369
 389 1370
 372 1371
 386 1372
 353 1373
 354 1374
 353 1375
 366 1376
 351 1377
 338 1378
 338 1379
 358 1380
 341 1381
 354 1382
 351 1383
 301 1384
 293 1385
 331 1386
 332 1387
 348 1388
 343 1389
 347 1390
 351 1391
 339 1392
 336 1393
 379 1394
 333 1395
 367 1396
 328 1397
 322 1398
 313 1399
 304 1400
 327 1401
 347 1402
 333 1403
 323 1404
 364 1405
 332 1406
 320 1407
 315 1408
 329 1409
 298 1410
 327 1411
 357 1412
 365 1413
 319 1414
 321 1415
 278 1416
 330 1417
 324 1418
 319 1419
 311 1420
 313 1421
 300 1422
 345 1423
 319 1424
 305 1425
 338 1426
 313 1427
 313 1428
 330 1429
 301 1430
 312 1431
 304 1432
 312 1433
 330 1434
 309 1435
 332 1436
 331 1437
 282 1438
 319 1439
 281 1440
 323 1441
 309 1442
 318 1443
 319 1444
 323 1445
 329 1446
 308 1447
 310 1448
 326 1449
 332 1450
 287 1451
 275 1452
 295 1453
 272 1454
 338 1455
 309 1456
 281 1457
 308 1458
 293 1459
 294 1460
 285 1461
 285 1462
 261 1463
 280 1464
 282 1465
 323 1466
 303 1467
 298 1468
 282 1469
 287 1470
 303 1471
 284 1472
 286 1473
 261 1474
 287 1475
 285 1476
 295 1477
 302 1478
 280 1479
 281 1480
 296 1481
 305 1482
 267 1483
 288 1484
 281 1485
 292 1486
 260 1487
 289 1488
 289 1489
 292 1490
 274 1491
 270 1492
 278 1493
 271 1494
 278 1495
 295 1496
 266 1497
 270 1498
 273 1499
 286 1500
 255 1501
 285 1502
 278 1503
 284 1504
 263 1505
 300 1506
 267 1507
 273 1508
 283 1509
 270 1510
 284 1511
 262 1512
 281 1513
 270 1514
 278 1515
 320 1516
 256 1517
 290 1518
 256 1519
 266 1520
 270 1521
 246 1522
 261 1523
 294 1524
 285 1525
 267 1526
 260 1527
 257 1528
 260 1529
 254 1530
 234 1531
 245 1532
 286 1533
 263 1534
 254 1535
 270 1536
 239 1537
 245 1538
 251 1539
 253 1540
 249 1541
 272 1542
 222 1543
 270 1544
 256 1545
 249 1546
 245 1547
 247 1548
 261 1549
 274 1550
 240 1551
 236 1552
 234 1553
 241 1554
 254 1555
 237 1556
 266 1557
 266 1558
 264 1559
 252 1560
 245 1561
 239 1562
 244 1563
 256 1564
 233 1565
 255 1566
 253 1567
 239 1568
 251 1569
 215 1570
 226 1571
 235 1572
 239 1573
 249 1574
 234 1575
 241 1576
 238 1577
 241 1578
 235 1579
 211 1580
 235 1581
 240 1582
 248 1583
 250 1584
 227 1585
 251 1586
 228 1587
 263 1588
 249 1589
 249 1590
 233 1591
 247 1592
 248 1593
 230 1594
 253 1595
 248 1596
 196 1597
 230 1598
 220 1599
 254 1600
 214 1601
 200 1602
 225 1603
 205 1604
 229 1605
 217 1606
 224 1607
 231 1608
 226 1609
 212 1610
 233 1611
 214 1612
 214 1613
 240 1614
 176 1615
 239 1616
 227 1617
 228 1618
 240 1619
 201 1620
 215 1621
 216 1622
 211 1623
 220 1624
 231 1625
 203 1626
 247 1627
 228 1628
 229 1629
 222 1630
 209 1631
 237 1632
 223 1633
 224 1634
 189 1635
 201 1636
 204 1637
 204 1638
 200 1639
 218 1640
 202 1641
 197 1642
 201 1643
 237 1644
 210 1645
 228 1646
 210 1647
 244 1648
 182 1649
 190 1650
 210 1651
 217 1652
 223 1653
 234 1654
 234 1655
 183 1656
 213 1657
 209 1658
 212 1659
 214 1660
 199 1661
 190 1662
 199 1663
 177 1664
 206 1665
 217 1666
 219 1667
 186 1668
 208 1669
 216 1670
 212 1671
 195 1672
 193 1673
 211 1674
 210 1675
 225 1676
 173 1677
 187 1678
 205 1679
 163 1680
 212 1681
 198 1682
 189 1683
 220 1684
 183 1685
 189 1686
 194 1687
 198 1688
 169 1689
 191 1690
 187 1691
 171 1692
 209 1693
 209 1694
 189 1695
 187 1696
 224 1697
 186 1698
 214 1699
 194 1700
 180 1701
 185 1702
 205 1703
 210 1704
 188 1705
 183 1706
 191 1707
 214 1708
 185 1709
 209 1710
 151 1711
 201 1712
 178 1713
 190 1714
 190 1715
 198 1716
 173 1717
 175 1718
 206 1719
 168 1720
 176 1721
 190 1722
 192 1723
 176 1724
 194 1725
 149 1726
 186 1727
 191 1728
 198 1729
 182 1730
 195 1731
 175 1732
 177 1733
 180 1734
 170 1735
 185 1736
 188 1737
 187 1738
 165 1739
 174 1740
 196 1741
 181 1742
 170 1743
 186 1744
 166 1745
 193 1746
 182 1747
 160 1748
 183 1749
 168 1750
 170 1751
 154 1752
 167 1753
 171 1754
 164 1755
 158 1756
 183 1757
 172 1758
 162 1759
 194 1760
 169 1761
 182 1762
 190 1763
 169 1764
 158 1765
 181 1766
 174 1767
 165 1768
 174 1769
 180 1770
 161 1771
 154 1772
 148 1773
 142 1774
 171 1775
 174 1776
 166 1777
 155 1778
 172 1779
 172 1780
 182 1781
 175 1782
 155 1783
 176 1784
 144 1785
 156 1786
 175 1787
 173 1788
 165 1789
 164 1790
 180 1791
 174 1792
 161 1793
 159 1794
 175 1795
 173 1796
 134 1797
 188 1798
 157 1799
 151 1800
 154 1801
 156 1802
 150 1803
 159 1804
 162 1805
 141 1806
 152 1807
 142 1808
 170 1809
 165 1810
 192 1811
 152 1812
 152 1813
 151 1814
 144 1815
 151 1816
 159 1817
 152 1818
 137 1819
 152 1820
 157 1821
 147 1822
 148 1823
 131 1824
 152 1825
 140 1826
 151 1827
 141 1828
 160 1829
 147 1830
 150 1831
 141 1832
 151 1833
 159 1834
 148 1835
 171 1836
 126 1837
 146 1838
 135 1839
 171 1840
 154 1841
 169 1842
 158 1843
 155 1844
 145 1845
 124 1846
 137 1847
 166 1848
 168 1849
 152 1850
 141 1851
 133 1852
 151 1853
 154 1854
 151 1855
 165 1856
 142 1857
 142 1858
 159 1859
 159 1860
 143 1861
 178 1862
 157 1863
 140 1864
 130 1865
 132 1866
 147 1867
 142 1868
 136 1869
 125 1870
 138 1871
 141 1872
 137 1873
 141 1874
 142 1875
 146 1876
 121 1877
 133 1878
 146 1879
 134 1880
 164 1881
 140 1882
 141 1883
 124 1884
 147 1885
 138 1886
 136 1887
 159 1888
 145 1889
 142 1890
 135 1891
 139 1892
 127 1893
 127 1894
 134 1895
 153 1896
 130 1897
 114 1898
 142 1899
 148 1900
 153 1901
 139 1902
 142 1903
 143 1904
 137 1905
 150 1906
 134 1907
 128 1908
 135 1909
 141 1910
 130 1911
 127 1912
 139 1913
 113 1914
 123 1915
 141 1916
 122 1917
 125 1918
 125 1919
 130 1920
 105 1921
 129 1922
 126 1923
 127 1924
 107 1925
 130 1926
 121 1927
 138 1928
 152 1929
 119 1930
 114 1931
 125 1932
 131 1933
 121 1934
 113 1935
 125 1936
 127 1937
 143 1938
 113 1939
 139 1940
 102 1941
 112 1942
 121 1943
 128 1944
 139 1945
 140 1946
 121 1947
 141 1948
 129 1949
 109 1950
 115 1951
 108 1952
 110 1953
 144 1954
 133 1955
 117 1956
 104 1957
 130 1958
 122 1959
 136 1960
 122 1961
 108 1962
 119 1963
 121 1964
 123 1965
 117 1966
 104 1967
 122 1968
 117 1969
 106 1970
 115 1971
 131 1972
 120 1973
 120 1974
 126 1975
 130 1976
 115 1977
 103 1978
  93 1979
 118 1980
 100 1981
 132 1982
 104 1983
 102 1984
 119 1985
 120 1986
 114 1987
 125 1988
 108 1989
 120 1990
 100 1991
 115 1992
 109 1993
 102 1994
 107 1995
 126 1996
 102 1997
 115 1998
 111 1999
 101 2000
 120 2001
 106 2002
 121 2003
 124 2004
 126 2005
 127 2006
 119 2007
  91 2008
 113 2009
 108 2010
 108 2011
 109 2012
  92 2013
  96 2014
 107 2015
 128 2016
 112 2017
 101 2018
 106 2019
 109 2020
 110 2021
 104 2022
  97 2023
 105 2024
 115 2025
  97 2026
 102 2027
 101 2028
 133 2029
 116 2030
 111 2031
  85 2032
 100 2033
 107 2034
 101 2035
 115 2036
 102 2037
 103 2038
  93 2039
  90 2040
  92 2041
  95 2042
 105 2043
 115 2044
 100 2045
 104 2046
 110 2047
 107 2048
  94 2049
  97 2050
 122 2051
 103 2052
 102 2053
 123 2054
  97 2055
 111 2056
 106 2057
 103 2058
 103 2059
  95 2060
  95 2061
 105 2062
  92 2063
  82 2064
 108 2065
  90 2066
 103 2067
  79 2068
  82 2069
  98 2070
  98 2071
 106 2072
 112 2073
  90 2074
  92 2075
  96 2076
 100 2077
 106 2078
 111 2079
  98 2080
  97 2081
  83 2082
 106 2083
 114 2084
  94 2085
 103 2086
  79 2087
  88 2088
  81 2089
 114 2090
 100 2091
  87 2092
  90 2093
  98 2094
 113 2095
  94 2096
  96 2097
  91 2098
 106 2099
  98 2100
  93 2101
  94 2102
  96 2103
 104 2104
  90 2105
  84 2106
  76 2107
  82 2108
  88 2109
  94 2110
 115 2111
  82 2112
  83 2113
  80 2114
  83 2115
  82 2116
  85 2117
  74 2118
  96 2119
  85 2120
  94 2121
  81 2122
  81 2123
  92 2124
  88 2125
  79 2126
  88 2127
  89 2128
 116 2129
  83 2130
  86 2131
  94 2132
  95 2133
  88 2134
  66 2135
  99 2136
  94 2137
  77 2138
  84 2139
  79 2140
  79 2141
  95 2142
 106 2143
  88 2144
  84 2145
  92 2146
  71 2147
  97 2148
  97 2149
  78 2150
  91 2151
  71 2152
  79 2153
  85 2154
  88 2155
  80 2156
  95 2157
  86 2158
  87 2159
  81 2160
  74 2161
  84 2162
  99 2163
  82 2164
  91 2165
  98 2166
  77 2167
  72 2168
  76 2169
  91 2170
  85 2171
 107 2172
  84 2173
  75 2174
  74 2175
  74 2176
  68 2177
  82 2178
  66 2179
  67 2180
  93 2181
  76 2182
  93 2183
  80 2184
  87 2185
  69 2186
  83 2187
  84 2188
  88 2189
  79 2190
  69 2191
 107 2192
  80 2193
  96 2194
  85 2195
  81 2196
  82 2197
  72 2198
  88 2199
  83 2200
  65 2201
  86 2202
  75 2203
  63 2204
  63 2205
  77 2206
  78 2207
  69 2208
  74 2209
  65 2210
  77 2211
  74 2212
  64 2213
  79 2214
  75 2215
  78 2216
  79 2217
  80 2218
  96 2219
  76 2220
  61 2221
  72 2222
  85 2223
  83 2224
  76 2225
  84 2226
  77 2227
  83 2228
  74 2229
  75 2230
  85 2231
  88 2232
  84 2233
  81 2234
  87 2235
  80 2236
  83 2237
  81 2238
  90 2239
  76 2240
  72 2241
  63 2242
  55 2243
  71 2244
  77 2245
  66 2246
  90 2247
  77 2248
  70 2249
  82 2250
  76 2251
  80 2252
  70 2253
  52 2254
  86 2255
  82 2256
  77 2257
  81 2258
  80 2259
  74 2260
  67 2261
  76 2262
  69 2263
  67 2264
  74 2265
  84 2266
  69 2267
  68 2268
  76 2269
  91 2270
  62 2271
  63 2272
  69 2273
  68 2274
  71 2275
  64 2276
  89 2277
  72 2278
  72 2279
  66 2280
  77 2281
  63 2282
  74 2283
  69 2284
  72 2285
  55 2286
  87 2287
  70 2288
  79 2289
  69 2290
  75 2291
  61 2292
  64 2293
  59 2294
  74 2295
  58 2296
  64 2297
  67 2298
  74 2299
  68 2300
  70 2301
  64 2302
  63 2303
  80 2304
  60 2305
  75 2306
  53 2307
  67 2308
  67 2309
  72 2310
  68 2311
  81 2312
  66 2313
  87 2314
  63 2315
  59 2316
  69 2317
  72 2318
  78 2319
  71 2320
  63 2321
  61 2322
  63 2323
  57 2324
  78 2325
  52 2326
  54 2327
  69 2328
  71 2329
  59 2330
  59 2331
  67 2332
  42 2333
  53 2334
  66 2335
  64 2336
  69 2337
  56 2338
  63 2339
  61 2340
  62 2341
  71 2342
  66 2343
  66 2344
  61 2345
  59 2346
  51 2347
  58 2348
  57 2349
  61 2350
  51 2351
  67 2352
  56 2353
  65 2354
  56 2355
  59 2356
  65 2357
  57 2358
  67 2359
  61 2360
  62 2361
  54 2362
  49 2363
  57 2364
  60 2365
  60 2366
  47 2367
  60 2368
  53 2369
  69 2370
  66 2371
  62 2372
  58 2373
  54 2374
  75 2375
  65 2376
  57 2377
  46 2378
  60 2379
  55 2380
  52 2381
  58 2382
  59 2383
  54 2384
  59 2385
  50 2386
  64 2387
  51 2388
  43 2389
  58 2390
  61 2391
  65 2392
  48 2393
  39 2394
  61 2395
  54 2396
  72 2397
  66 2398
  45 2399
  52 2400
  68 2401
  62 2402
  48 2403
  74 2404
  54 2405
  61 2406
  61 2407
  46 2408
  56 2409
  62 2410
  59 2411
  53 2412
  43 2413
  62 2414
  59 2415
  44 2416
  47 2417
  59 2418
  56 2419
  41 2420
  45 2421
  66 2422
  45 2423
  73 2424
  51 2425
  47 2426
  41 2427
  61 2428
  65 2429
  48 2430
  57 2431
  60 2432
  46 2433
  58 2434
  57 2435
  57 2436
  69 2437
  61 2438
  50 2439
  50 2440
  53 2441
  41 2442
  52 2443
  56 2444
  48 2445
  63 2446
  51 2447
  49 2448
  56 2449
  50 2450
  52 2451
  54 2452
  52 2453
  57 2454
  63 2455
  49 2456
  53 2457
  65 2458
  53 2459
  56 2460
  54 2461
  55 2462
  54 2463
  55 2464
  53 2465
  57 2466
  50 2467
  49 2468
  32 2469
  50 2470
  41 2471
  59 2472
  56 2473
  53 2474
  43 2475
  51 2476
  53 2477
  50 2478
  61 2479
  37 2480
  61 2481
  47 2482
  46 2483
  32 2484
  40 2485
  49 2486
  43 2487
  55 2488
  58 2489
  53 2490
  51 2491
  43 2492
  51 2493
  41 2494
  51 2495
  56 2496
  40 2497
  43 2498
  62 2499
  41 2500
  54 2501
  46 2502
  49 2503
  47 2504
  42 2505
  60 2506
  58 2507
  48 2508
  42 2509
  47 2510
  35 2511
  35 2512
  58 2513
  39 2514
  45 2515
  38 2516
  39 2517
  48 2518
  44 2519
  53 2520
  53 2521
  47 2522
  34 2523
  30 2524
  30 2525
  48 2526
  43 2527
  46 2528
  42 2529
  52 2530
  43 2531
  46 2532
  45 2533
  51 2534
  46 2535
  45 2536
  40 2537
  53 2538
  46 2539
  51 2540
  37 2541
  50 2542
  46 2543
  54 2544
  45 2545
  46 2546
  34 2547
  45 2548
  47 2549
  39 2550
  48 2551
  41 2552
  42 2553
  48 2554
  41 2555
  41 2556
  39 2557
  44 2558
  41 2559
  52 2560
  57 2561
  49 2562
  34 2563
  47 2564
  55 2565
  40 2566
  46 2567
  37 2568
  42 2569
  56 2570
  42 2571
  40 2572
  52 2573
  37 2574
  49 2575
  34 2576
  42 2577
  35 2578
  54 2579
  45 2580
  43 2581
  42 2582
  37 2583
  35 2584
  52 2585
  38 2586
  27 2587
  32 2588
  36 2589
  40 2590
  39 2591
  34 2592
  39 2593
  41 2594
  50 2595
  42 2596
  45 2597
  44 2598
  25 2599
  38 2600
  29 2601
  43 2602
  41 2603
  42 2604
  43 2605
  32 2606
  45 2607
  44 2608
  33 2609
  36 2610
  53 2611
  48 2612
  38 2613
  43 2614
  40 2615
  43 2616
  36 2617
  40 2618
  48 2619
  44 2620
  45 2621
  46 2622
  27 2623
  44 2624
  50 2625
  29 2626
  36 2627
  49 2628
  34 2629
  42 2630
  46 2631
  30 2632
  35 2633
  44 2634
  41 2635
  33 2636
  33 2637
  40 2638
  39 2639
  40 2640
  38 2641
  35 2642
  44 2643
  28 2644
  39 2645
  30 2646
  52 2647
  44 2648
  41 2649
  55 2650
  39 2651
  43 2652
  38 2653
  31 2654
  42 2655
  40 2656
  34 2657
  42 2658
  44 2659
  44 2660
  34 2661
  37 2662
  54 2663
  42 2664
  35 2665
  37 2666
  24 2667
  23 2668
  30 2669
  28 2670
  26 2671
  31 2672
  29 2673
  42 2674
  36 2675
  35 2676
  40 2677
  24 2678
  46 2679
  39 2680
  41 2681
  33 2682
  43 2683
  34 2684
  37 2685
  35 2686
  39 2687
  28 2688
  41 2689
  38 2690
  35 2691
  39 2692
  29 2693
  42 2694
  46 2695
  31 2696
  32 2697
  36 2698
  24 2699
  29 2700
  41 2701
  47 2702
  34 2703
  47 2704
  45 2705
  26 2706
  34 2707
  39 2708
  33 2709
  46 2710
  29 2711
  26 2712
  40 2713
  31 2714
  45 2715
  39 2716
  36 2717
  36 2718
  39 2719
  33 2720
  34 2721
  35 2722
  31 2723
  37 2724
  30 2725
  26 2726
  30 2727
  42 2728
  23 2729
  31 2730
  38 2731
  38 2732
  30 2733
  36 2734
  29 2735
  37 2736
  28 2737
  39 2738
  31 2739
  37 2740
  42 2741
  35 2742
  30 2743
  33 2744
  38 2745
  39 2746
  22 2747
  45 2748
  39 2749
  38 2750
  30 2751
  23 2752
  29 2753
  35 2754
  34 2755
  27 2756
  29 2757
  31 2758
  23 2759
  38 2760
  33 2761
  24 2762
  37 2763
  31 2764
  32 2765
  36 2766
  38 2767
  39 2768
  31 2769
  37 2770
  34 2771
  23 2772
  34 2773
  32 2774
  30 2775
  29 2776
  28 2777
  29 2778
  38 2779
  29 2780
  31 2781
  31 2782
  31 2783
  38 2784
  41 2785
  35 2786
  31 2787
  44 2788
  45 2789
  33 2790
  18 2791
  22 2792
  42 2793
  28 2794
  35 2795
  41 2796
  20 2797
  30 2798
  32 2799
  31 2800
  33 2801
  27 2802
  30 2803
  30 2804
  36 2805
  26 2806
  26 2807
  25 2808
  26 2809
  35 2810
  36 2811
  31 2812
  27 2813
  34 2814
  24 2815
  35 2816
  34 2817
  23 2818
  27 2819
  30 2820
  26 2821
  33 2822
  29 2823
  26 2824
  27 2825
  35 2826
  33 2827
  22 2828
  34 2829
  21 2830
  33 2831
  20 2832
  26 2833
  23 2834
  35 2835
  27 2836
  29 2837
  20 2838
  26 2839
  22 2840
  27 2841
  30 2842
  27 2843
  27 2844
  30 2845
  37 2846
  23 2847
  20 2848
  27 2849
  31 2850
  28 2851
  36 2852
  29 2853
  28 2854
  25 2855
  27 2856
  33 2857
  23 2858
  35 2859
  24 2860
  23 2861
  32 2862
  24 2863
  19 2864
  20 2865
  25 2866
  22 2867
  29 2868
  33 2869
  28 2870
  27 2871
  24 2872
  30 2873
  30 2874
  31 2875
  37 2876
  21 2877
  26 2878
  31 2879
  27 2880
  35 2881
  26 2882
  32 2883
  26 2884
  34 2885
  19 2886
  33 2887
  20 2888
  26 2889
  21 2890
  23 2891
  33 2892
  28 2893
  32 2894
  24 2895
  34 2896
  16 2897
  30 2898
  31 2899
  23 2900
  13 2901
  31 2902
  24 2903
  15 2904
  22 2905
  25 2906
  34 2907
  32 2908
  28 2909
  31 2910
  22 2911
  18 2912
  21 2913
  27 2914
  26 2915
  25 2916
  21 2917
  28 2918
  24 2919
  18 2920
  19 2921
  24 2922
  19 2923
  17 2924
  22 2925
  18 2926
  24 2927
  29 2928
  22 2929
  26 2930
  35 2931
  27 2932
  15 2933
  16 2934
  26 2935
  32 2936
  35 2937
  25 2938
  32 2939
  27 2940
  24 2941
  22 2942
  22 2943
  21 2944
  26 2945
  33 2946
  29 2947
  21 2948
  26 2949
  31 2950
  25 2951
  26 2952
  20 2953
  19 2954
  24 2955
  21 2956
  19 2957
  16 2958
  36 2959
  31 2960
  20 2961
  25 2962
  19 2963
  30 2964
  22 2965
  27 2966
  21 2967
  18 2968
  29 2969
  24 2970
  21 2971
  26 2972
  28 2973
  26 2974
  24 2975
  32 2976
  26 2977
  21 2978
  29 2979
  21 2980
  19 2981
  22 2982
  21 2983
  23 2984
  23 2985
  23 2986
  17 2987
  17 2988
  20 2989
  20 2990
  18 2991
  15 2992
  28 2993
  27 2994
  23 2995
  21 2996
  22 2997
  15 2998
  20 2999
  27 3000
  21 3001
  27 3002
  23 3003
  24 3004
  18 3005
  33 3006
  27 3007
  20 3008
  23 3009
  23 3010
  21 3011
  22 3012
  21 3013
  32 3014
  22 3015
  22 3016
  15 3017
  29 3018
  11 3019
  32 3020
  13 3021
  21 3022
  17 3023
  29 3024
  25 3025
  21 3026
  22 3027
  24 3028
  20 3029
  21 3030
  28 3031
  30 3032
  22 3033
  18 3034
  18 3035
  23 3036
  14 3037
  20 3038
  27 3039
  23 3040
  17 3041
  16 3042
  28 3043
  21 3044
  25 3045
  29 3046
  23 3047
  22 3048
  15 3049
  19 3050
  22 3051
  23 3052
  21 3053
  23 3054
  23 3055
  19 3056
  19 3057
  14 3058
  20 3059
  21 3060
  33 3061
  19 3062
  29 3063
  11 3064
  20 3065
  23 3066
  24 3067
  14 3068
  11 3069
  21 3070
  14 3071
  18 3072
  22 3073
  21 3074
  18 3075
  27 3076
  17 3077
  26 3078
  22 3079
  12 3080
  21 3081
  21 3082
  17 3083
  20 3084
  24 3085
  21 3086
  17 3087
  21 3088
  18 3089
  19 3090
  16 3091
  21 3092
  19 3093
  21 3094
  21 3095
  23 3096
  22 3097
  23 3098
  22 3099
  27 3100
  18 3101
  18 3102
  23 3103
  19 3104
  21 3105
  15 3106
  17 3107
  19 3108
  12 3109
  16 3110
  18 3111
  17 3112
  19 3113
  25 3114
  14 3115
  21 3116
  20 3117
  18 3118
  14 3119
  15 3120
  19 3121
  16 3122
  18 3123
  19 3124
  13 3125
  13 3126
  24 3127
  24 3128
  17 3129
  11 3130
  30 3131
  23 3132
  15 3133
  12 3134
  14 3135
  24 3136
  20 3137
  20 3138
  13 3139
  26 3140
  20 3141
  17 3142
  19 3143
  22 3144
  15 3145
  17 3146
  17 3147
  14 3148
  23 3149
  22 3150
  20 3151
  20 3152
  13 3153
  20 3154
  20 3155
  19 3156
  16 3157
  15 3158
  15 3159
  20 3160
  21 3161
  20 3162
  15 3163
  16 3164
  17 3165
  17 3166
  18 3167
  16 3168
  13 3169
  14 3170
  20 3171
  20 3172
  11 3173
  23 3174
  14 3175
  18 3176
  20 3177
   9 3178
  12 3179
  12 3180
  18 3181
  20 3182
  11 3183
  15 3184
  16 3185
  14 3186
  22 3187
  18 3188
  23 3189
  11 3190
  17 3191
  18 3192
  13 3193
  12 3194
  19 3195
  12 3196
  13 3197
  16 3198
  15 3199
  20 3200
  15 3201
  11 3202
  17 3203
   9 3204
  17 3205
  15 3206
  16 3207
  15 3208
  18 3209
  18 3210
  23 3211
  12 3212
  21 3213
  11 3214
  23 3215
  13 3216
  15 3217
  19 3218
  22 3219
  20 3220
  15 3221
  13 3222
  18 3223
  12 3224
  19 3225
  26 3226
  16 3227
  13 3228
  19 3229
  14 3230
  19 3231
  19 3232
  23 3233
  11 3234
  17 3235
  19 3236
  17 3237
  15 3238
  14 3239
  12 3240
  16 3241
  19 3242
  12 3243
  23 3244
  11 3245
  13 3246
  20 3247
  11 3248
  12 3249
  14 3250
  20 3251
   8 3252
  15 3253
  17 3254
   9 3255
  13 3256
  18 3257
  18 3258
  16 3259
  22 3260
  18 3261
  17 3262
  16 3263
  13 3264
  14 3265
  24 3266
  21 3267
   8 3268
  15 3269
  24 3270
  19 3271
  19 3272
  17 3273
  11 3274
  20 3275
  20 3276
  14 3277
  12 3278
  14 3279
  18 3280
  23 3281
   7 3282
  12 3283
  11 3284
  17 3285
   9 3286
  19 3287
  13 3288
  20 3289
  15 3290
  15 3291
  17 3292
  10 3293
  13 3294
  18 3295
  10 3296
  11 3297
  11 3298
  11 3299
   6 3300
  10 3301
  18 3302
  19 3303
  17 3304
   9 3305
  19 3306
  16 3307
  21 3308
  13 3309
   9 3310
  18 3311
  16 3312
   8 3313
  15 3314
  11 3315
  10 3316
   7 3317
  12 3318
  13 3319
  14 3320
  15 3321
  12 3322
  12 3323
  13 3324
  20 3325
  14 3326
  19 3327
   7 3328
  15 3329
  12 3330
  13 3331
  16 3332
  20 3333
  11 3334
  18 3335
  17 3336
  10 3337
  12 3338
  12 3339
  17 3340
  17 3341
  12 3342
  15 3343
  13 3344
  16 3345
  16 3346
  15 3347
  15 3348
  16 3349
  18 3350
   8 3351
  15 3352
  17 3353
  21 3354
  10 3355
  12 3356
   8 3357
  15 3358
  10 3359
   7 3360
  18 3361
  11 3362
  11 3363
  13 3364
  13 3365
  14 3366
  14 3367
  12 3368
  15 3369
  11 3370
  12 3371
  16 3372
  10 3373
  18 3374
  13 3375
  11 3376
  10 3377
   6 3378
  10 3379
  11 3380
  15 3381
  13 3382
  13 3383
  17 3384
  13 3385
  16 3386
  14 3387
   6 3388
  11 3389
  13 3390
  10 3391
   7 3392
  16 3393
  14 3394
  12 3395
  19 3396
  11 3397
  14 3398
  13 3399
  18 3400
   8 3401
  14 3402
  16 3403
  11 3404
  10 3405
   9 3406
  12 3407
  11 3408
  11 3409
  21 3410
  16 3411
   9 3412
   7 3413
  14 3414
  12 3415
  19 3416
  12 3417
   8 3418
  14 3419
  12 3420
  15 3421
  14 3422
   8 3423
  14 3424
  11 3425
  12 3426
  11 3427
  11 3428
  10 3429
  14 3430
  14 3431
  15 3432
  13 3433
   3 3434
  13 3435
  12 3436
   9 3437
  13 3438
  11 3439
  12 3440
   9 3441
  13 3442
  14 3443
  16 3444
   8 3445
  10 3446
  15 3447
   8 3448
   9 3449
  12 3450
  17 3451
  15 3452
  12 3453
  13 3454
  18 3455
  11 3456
  18 3457
  13 3458
   8 3459
  10 3460
  10 3461
  12 3462
   8 3463
  15 3464
   5 3465
  12 3466
   6 3467
  11 3468
  12 3469
   9 3470
  16 3471
  16 3472
   7 3473
  11 3474
   8 3475
  12 3476
  13 3477
  13 3478
  11 3479
  11 3480
  11 3481
  11 3482
  16 3483
   9 3484
   6 3485
  14 3486
  13 3487
  15 3488
  11 3489
  13 3490
  12 3491
  20 3492
   9 3493
  12 3494
  20 3495
  13 3496
  11 3497
  15 3498
  11 3499
  17 3500
  13 3501
  10 3502
   9 3503
  12 3504
  12 3505
  10 3506
  13 3507
  11 3508
  10 3509
  10 3510
  10 3511
  13 3512
  11 3513
  12 3514
  17 3515
   9 3516
  12 3517
  11 3518
  11 3519
  14 3520
   7 3521
   7 3522
   7 3523
  10 3524
  11 3525
   6 3526
  18 3527
  16 3528
   7 3529
  10 3530
   7 3531
  14 3532
  14 3533
  11 3534
   9 3535
  14 3536
   9 3537
   9 3538
   5 3539
  18 3540
   8 3541
  15 3542
  15 3543
  18 3544
   2 3545
  13 3546
  16 3547
  11 3548
  12 3549
  21 3550
  16 3551
  12 3552
  14 3553
   6 3554
   8 3555
  10 3556
  11 3557
  13 3558
  11 3559
   6 3560
   5 3561
  11 3562
  14 3563
   7 3564
  14 3565
   5 3566
   9 3567
  14 3568
   8 3569
   8 3570
   5 3571
   4 3572
  15 3573
  12 3574
  12 3575
  11 3576
   6 3577
  15 3578
  12 3579
   9 3580
   5 3581
   6 3582
   5 3583
  10 3584
   4 3585
   9 3586
   8 3587
   7 3588
   7 3589
  16 3590
  12 3591
   6 3592
   6 3593
   5 3594
   8 3595
  12 3596
   7 3597
  10 3598
  11 3599
   5 3600
  10 3601
   9 3602
   9 3603
   6 3604
  11 3605
   9 3606
  21 3607
   9 3608
   9 3609
  11 3610
  12 3611
  10 3612
   7 3613
  12 3614
  10 3615
   9 3616
   9 3617
   9 3618
  11 3619
   6 3620
   7 3621
  10 3622
  11 3623
  16 3624
   9 3625
   7 3626
  10 3627
  11 3628
  10 3629
  11 3630
  10 3631
   9 3632
  11 3633
   8 3634
  14 3635
   9 3636
   4 3637
   6 3638
  12 3639
  13 3640
  13 3641
   3 3642
  10 3643
  11 3644
   5 3645
  10 3646
   7 3647
   7 3648
   4 3649
   6 3650
  18 3651
  10 3652
  10 3653
   9 3654
  19 3655
   6 3656
   9 3657
  12 3658
  10 3659
   7 3660
   3 3661
   7 3662
   6 3663
  12 3664
   5 3665
   8 3666
   6 3667
  14 3668
   8 3669
   7 3670
  12 3671
   9 3672
   4 3673
   7 3674
   8 3675
   5 3676
   9 3677
   3 3678
   8 3679
   9 3680
   8 3681
   8 3682
  11 3683
   7 3684
   8 3685
  14 3686
   7 3687
   8 3688
   3 3689
   4 3690
   4 3691
   8 3692
  11 3693
   8 3694
   8 3695
  11 3696
   7 3697
  10 3698
   5 3699
  11 3700
  13 3701
   5 3702
   5 3703
  13 3704
  11 3705
   9 3706
   9 3707
  11 3708
   6 3709
   9 3710
  11 3711
   5 3712
  11 3713
   1 3714
   8 3715
   7 3716
   6 3717
  12 3718
  10 3719
   7 3720
   6 3721
  13 3722
  10 3723
  11 3724
  10 3725
   7 3726
   1 3727
   7 3728
   4 3729
   9 3730
  10 3731
   6 3732
   7 3733
   8 3734
   9 3735
   9 3736
  10 3737
   8 3738
   9 3739
   8 3740
  10 3741
   7 3742
  12 3743
   8 3744
   6 3745
   9 3746
  10 3747
  11 3748
   9 3749
   4 3750
  10 3751
   6 3752
   8 3753
   5 3754
   8 3755
   5 3756
   6 3757
   7 3758
   8 3759
   9 3760
   5 3761
   9 3762
   5 3763
  11 3764
   5 3765
   9 3766
   8 3767
   8 3768
   4 3769
   7 3770
   7 3771
   4 3772
  15 3773
   5 3774
   8 3775
   7 3776
   6 3777
  17 3778
   9 3779
   7 3780
   9 3781
   7 3782
  11 3783
  11 3784
  11 3785
   8 3786
   7 3787
  14 3788
  10 3789
   7 3790
   5 3791
   5 3792
   7 3793
   8 3794
   5 3795
  10 3796
   7 3797
  13 3798
  10 3799
   5 3800
   4 3801
  11 3802
  13 3803
  10 3804
   9 3805
   6 3806
   9 3807
   8 3808
   5 3809
   4 3810
   5 3811
   4 3812
   4 3813
  10 3814
  12 3815
  10 3816
  10 3817
   6 3818
  12 3819
   7 3820
   8 3821
   7 3822
   9 3823
   8 3824
   9 3825
   9 3826
   6 3827
  10 3828
   9 3829
  12 3830
   5 3831
   9 3832
  12 3833
   6 3834
  12 3835
  11 3836
   6 3837
   3 3838
   7 3839
   7 3840
   6 3841
   7 3842
   8 3843
   9 3844
   7 3845
   9 3846
   6 3847
   3 3848
   6 3849
  11 3850
  11 3851
   5 3852
   3 3853
   6 3854
  12 3855
   6 3856
   7 3857
   4 3858
  12 3859
   2 3860
   7 3861
   3 3862
  10 3863
   8 3864
   6 3865
   9 3866
  10 3867
   7 3868
   5 3869
   6 3870
   4 3871
   9 3872
   8 3873
   3 3874
   9 3875
  10 3876
   7 3877
   8 3878
   8 3879
  10 3880
   4 3881
   5 3882
   6 3883
   7 3884
   8 3885
   8 3886
  11 3887
   7 3888
   9 3889
   5 3890
   9 3891
   5 3892
   3 3893
   5 3894
   1 3895
   6 3896
   6 3897
   7 3898
  12 3899
   5 3900
   9 3901
   8 3902
   5 3903
   6 3904
   5 3905
   7 3906
   4 3907
   6 3908
   4 3909
   4 3910
   5 3911
   7 3912
   2 3913
   9 3914
   5 3915
   4 3916
   7 3917
   9 3918
  12 3919
   7 3920
   9 3921
   2 3922
   4 3923
   9 3924
   5 3925
   2 3926
   9 3927
   6 3928
   3 3929
   9 3930
  10 3931
   5 3932
   9 3933
   8 3934
   6 3935
   3 3936
   3 3937
   6 3938
   9 3939
   6 3940
  11 3941
   7 3942
   7 3943
   7 3944
   6 3945
  13 3946
   8 3947
   7 3948
   7 3949
   5 3950
   8 3951
   3 3952
   1 3953
   6 3954
  12 3955
   2 3956
   4 3957
   5 3958
   3 3959
   8 3960
   5 3961
   4 3962
  11 3963
   6 3964
   4 3965
   7 3966
   7 3967
   4 3968
   3 3969
   5 3970
   3 3971
   5 3972
   5 3973
   7 3974
   7 3975
   5 3976
   2 3977
   2 3978
   5 3979
   4 3980
   2 3981
   8 3982
   6 3983
   7 3984
   3 3985
   7 3986
   3 3987
   7 3988
   6 3989
   7 3990
   8 3991
   9 3992
  10 3993
   8 3994
   8 3995
   1 3996
   8 3997
   8 3998
   7 3999
   6 4000
   5 4001
   4 4002
   2 4003
   8 4004
   9 4005
  14 4006
   4 4007
   4 4008
   3 4009
   8 4010
   4 4011
   7 4012
   7 4013
   2 4014
   8 4015
   4 4016
  10 4017
   8 4018
   7 4019
   5 4020
   9 4021
   3 4022
   7 4023
   4 4024
   8 4025
   2 4026
   5 4027
   9 4029
   2 4030
   5 4031
   2 4032
   3 4033
   6 4034
   6 4035
   8 4036
   6 4037
   7 4038
   2 4039
   7 4040
   5 4041
   7 4042
   5 4043
   6 4044
  12 4045
   4 4046
   9 4047
   5 4048
   7 4049
   4 4050
   3 4051
   3 4052
   4 4053
   6 4054
   6 4055
   4 4056
   4 4057
   3 4058
   2 4059
  10 4060
   3 4061
   3 4062
   4 4063
   3 4064
   5 4065
   5 4066
   4 4067
   2 4068
   4 4069
   7 4070
   7 4071
   4 4072
   4 4073
   1 4074
   1 4075
   2 4076
   7 4077
   3 4078
   8 4079
   3 4080
   3 4081
   2 4082
   6 4083
   4 4084
   7 4085
   7 4086
   4 4087
   6 4088
   7 4089
   7 4090
   1 4091
   3 4092
   4 4093
   2 4094
   5 4095
   2 4096
   6 4097
   6 4098
   7 4099
   3 4100
   6 4101
   5 4102
   5 4103
   1 4104
   5 4105
   7 4106
   7 4107
   5 4108
   5 4109
   4 4110
   6 4111
   4 4112
   5 4113
   4 4114
   4 4115
   5 4116
   8 4117
   8 4118
   6 4119
   5 4120
   5 4121
   9 4122
   7 4123
   4 4124
   4 4125
   4 4126
   6 4127
   4 4128
   2 4129
   1 4130
   2 4131
   1 4132
  10 4133
   1 4134
   5 4135
   3 4136
   5 4137
   5 4138
   3 4139
   2 4140
   7 4141
   4 4142
   4 4143
   3 4144
   2 4145
   2 4146
   4 4147
   4 4148
   4 4149
   2 4150
   6 4151
   3 4152
   5 4153
   4 4154
   3 4155
   5 4156
   4 4157
   5 4158
   5 4159
   6 4160
   5 4161
   2 4162
   2 4163
   4 4164
   5 4165
   4 4166
   2 4167
  10 4168
   4 4169
   2 4170
   3 4171
   5 4172
   5 4173
   8 4174
   3 4175
   4 4176
   5 4177
   6 4178
   8 4179
   2 4180
   5 4181
   5 4182
   4 4183
   4 4184
   3 4185
   3 4186
   4 4187
   6 4188
   7 4189
   7 4190
   5 4191
   5 4192
   3 4193
   3 4194
   1 4195
   3 4196
   1 4197
   2 4198
   2 4199
   6 4200
   2 4201
   3 4202
   5 4203
   4 4204
   5 4205
   3 4206
   7 4207
   3 4208
  13 4209
   3 4210
   5 4211
   4 4212
   3 4213
   6 4214
   6 4215
   4 4216
   2 4217
   4 4218
   5 4219
   3 4220
   7 4221
   6 4222
   6 4223
   2 4224
   8 4225
   9 4226
   8 4227
   4 4228
   5 4229
   6 4230
   4 4231
   5 4232
   8 4233
   1 4234
   8 4235
   4 4236
   5 4237
   6 4238
   5 4239
   6 4240
   6 4241
   3 4242
   6 4243
   4 4244
   5 4245
   6 4246
   2 4247
   6 4248
   3 4249
   2 4250
   7 4251
   4 4252
   1 4253
   3 4254
   2 4255
   4 4256
   8 4257
   5 4258
   7 4259
   4 4260
   1 4261
   6 4262
   3 4263
   5 4264
   6 4265
   4 4266
   3 4267
   9 4268
   1 4269
   5 4270
   5 4271
   6 4272
   5 4273
   1 4274
   6 4275
   5 4276
   5 4277
   4 4278
   9 4280
   2 4281
  10 4282
   2 4283
   1 4284
   6 4285
   1 4286
   6 4287
   4 4288
   6 4289
   2 4290
   7 4291
   3 4292
   6 4293
   4 4294
   3 4295
   3 4297
   1 4298
   6 4299
   6 4300
   2 4301
   2 4302
   7 4303
   4 4304
   3 4305
   7 4306
   1 4307
   5 4308
   7 4309
   2 4310
   2 4311
   1 4312
   6 4313
   3 4314
   2 4315
   5 4316
   5 4317
   2 4318
   6 4319
   1 4320
   5 4321
   2 4322
   2 4323
   2 4324
   7 4325
   4 4326
   4 4327
   7 4328
   3 4329
   3 4330
   2 4331
   4 4332
   3 4333
   3 4334
   4 4335
   2 4336
   4 4337
   3 4338
   1 4339
   7 4340
   4 4341
   3 4342
   9 4343
   4 4344
   1 4345
   2 4346
   1 4347
   8 4348
   6 4349
   4 4350
   5 4351
   3 4352
   4 4353
   6 4354
   4 4355
   5 4356
   5 4357
   3 4358
   5 4359
   4 4360
   5 4361
   6 4362
   1 4363
   8 4364
   3 4365
   4 4366
   2 4367
   7 4368
   7 4369
   4 4370
   3 4371
   3 4372
   4 4373
   7 4374
   2 4375
   5 4376
   6 4377
   3 4378
   4 4379
   2 4380
   2 4381
   6 4382
   2 4383
   4 4384
   6 4385
   1 4386
   6 4387
   2 4388
   1 4389
   3 4390
   6 4392
   4 4393
   2 4394
   3 4395
   2 4396
   6 4397
   3 4398
   3 4399
   4 4400
   3 4402
   2 4403
   5 4404
   2 4405
   2 4407
   2 4408
   4 4409
   2 4410
   2 4411
   4 4412
   1 4413
   4 4414
   3 4415
   6 4416
   1 4417
   5 4418
   2 4419
   2 4420
   3 4421
   6 4422
   4 4423
   4 4424
   3 4425
   1 4426
   3 4427
   6 4428
   4 4429
   3 4430
   6 4431
   4 4432
   4 4433
   2 4434
   1 4435
   1 4436
   2 4437
   4 4438
   3 4439
   2 4440
   1 4441
   1 4442
   5 4443
   2 4444
   3 4445
   2 4446
   3 4447
   7 4448
   4 4449
   4 4450
   8 4451
   3 4452
   7 4453
   1 4454
   4 4455
   2 4456
   2 4457
   2 4458
   4 4459
   5 4460
   2 4461
   4 4462
   4 4463
   5 4464
   8 4465
   7 4466
   2 4467
   2 4468
   2 4469
   7 4470
   6 4471
   4 4472
   1 4473
   5 4474
   3 4475
   7 4476
   3 4477
   1 4478
   3 4479
   1 4480
   4 4481
   3 4482
   7 4483
   3 4484
   8 4485
   8 4486
   2 4487
   3 4489
   6 4490
   3 4491
   6 4492
   4 4493
   5 4494
   1 4495
   1 4496
   3 4497
   3 4498
   3 4499
   2 4500
   1 4501
   1 4502
   4 4503
   1 4504
   1 4505
   4 4506
   3 4508
   6 4509
   2 4510
   6 4511
   4 4512
   1 4513
   6 4514
   5 4515
   3 4516
   3 4517
   2 4518
   1 4519
   4 4520
   2 4521
   3 4522
   5 4523
   2 4524
   4 4525
   4 4527
   3 4528
   5 4529
   2 4530
   5 4531
   3 4532
   2 4533
   2 4535
   1 4536
   3 4537
   2 4538
   5 4539
   3 4540
   1 4541
   4 4542
   3 4543
   5 4544
   3 4545
   3 4546
   3 4547
   2 4548
   4 4549
   1 4550
   2 4551
   4 4552
   2 4553
   3 4554
   3 4555
   3 4557
   3 4558
   3 4559
   2 4560
   4 4561
   5 4562
   4 4563
   5 4565
   3 4566
   3 4568
   1 4569
   1 4570
   2 4571
   5 4572
   3 4573
   3 4574
   2 4575
   5 4576
   2 4577
   2 4578
   5 4579
   4 4580
   2 4581
   5 4582
   2 4583
   2 4584
   1 4585
   3 4586
   1 4587
   4 4588
   1 4589
   2 4590
   2 4591
   3 4592
   3 4593
   6 4594
   4 4595
   6 4596
   3 4597
   2 4598
   3 4599
   3 4600
   3 4601
   1 4602
   1 4603
   4 4604
   2 4605
   1 4607
   4 4608
   5 4609
   1 4610
   2 4611
   1 4612
   5 4613
   3 4614
   3 4616
   1 4617
   2 4618
   2 4620
   2 4621
   2 4623
   2 4624
   3 4625
   5 4626
   1 4627
   5 4628
   2 4629
   3 4630
   1 4631
   1 4632
   2 4633
   3 4634
   2 4635
   2 4636
   3 4637
   3 4638
   3 4639
   3 4640
   2 4641
   2 4642
   2 4643
   2 4644
   2 4645
   2 4646
   1 4647
   2 4648
   4 4649
   2 4650
   2 4652
   4 4653
   2 4654
   3 4655
   2 4656
   2 4657
   2 4660
   4 4662
   1 4664
   3 4666
   1 4667
   1 4668
   4 4669
   3 4671
   3 4672
   4 4673
   1 4674
   2 4675
   1 4676
   1 4677
   3 4678
   2 4679
   2 4680
   1 4681
   1 4682
   3 4683
   2 4684
   1 4685
   4 4686
   5 4687
   2 4688
   2 4689
   4 4690
   2 4691
   2 4692
   4 4693
   3 4694
   5 4695
   2 4697
   1 4698
   6 4699
   1 4700
   3 4701
   4 4702
   3 4703
   2 4704
   4 4705
   1 4706
   1 4707
   9 4708
   2 4709
   2 4711
   1 4712
   1 4714
   3 4715
   4 4716
   6 4717
   2 4718
   2 4720
   6 4721
   5 4722
   2 4724
   2 4725
   2 4726
   6 4727
   6 4728
   3 4729
   2 4730
   2 4731
   1 4732
   3 4733
   3 4735
   4 4736
   7 4737
   8 4738
   3 4739
   4 4740
   1 4741
   1 4743
   2 4744
   2 4747
   3 4748
   4 4749
   1 4750
   3 4751
   1 4752
   2 4753
   2 4754
   1 4755
   3 4756
   1 4757
   4 4758
   3 4759
   2 4761
   2 4762
   3 4763
   3 4765
   4 4766
   2 4767
   1 4768
   3 4769
   1 4770
   2 4771
   3 4772
   3 4773
   1 4774
   1 4775
   2 4776
   3 4777
   3 4778
   3 4779
   1 4780
   1 4781
   2 4782
   2 4784
   3 4785
   2 4786
   3 4787
   4 4788
   2 4789
   5 4790
   4 4791
   2 4792
   4 4793
   1 4794
   2 4795
   1 4796
   1 4797
   1 4798
   4 4799
   4 4800
   2 4801
   1 4802
   3 4803
   2 4804
   2 4805
   3 4806
   3 4807
   2 4808
   1 4811
   1 4812
   3 4813
   6 4814
   2 4815
   3 4816
   3 4817
   1 4818
   4 4819
   1 4820
   2 4822
   4 4823
   2 4824
   1 4825
   2 4827
   3 4828
   2 4829
   1 4830
   5 4831
   2 4832
   2 4834
   2 4835
   2 4836
   3 4837
   2 4838
   2 4840
   4 4841
   4 4842
   2 4843
   2 4844
   2 4845
   2 4847
   1 4848
   3 4850
   5 4851
   2 4852
   2 4853
   1 4854
   2 4855
   2 4856
   2 4857
   2 4859
   1 4860
   1 4862
   2 4863
   2 4865
   3 4867
   3 4868
   3 4869
   3 4870
   2 4871
   2 4873
   3 4875
   3 4876
   3 4877
   2 4878
   1 4879
   1 4880
   4 4881
   3 4882
   3 4883
   1 4884
   4 4885
   1 4886
   1 4887
   2 4888
   2 4889
   2 4890
   1 4893
   1 4894
   4 4896
   2 4897
   3 4899
   1 4900
   3 4901
   2 4902
   1 4903
   5 4904
   3 4905
   2 4906
   2 4907
   3 4908
   1 4909
   4 4910
   2 4911
   1 4913
   2 4914
   1 4915
   5 4916
   3 4917
   4 4918
   3 4919
   1 4920
   2 4921
   2 4922
   3 4923
   5 4925
   6 4926
   1 4927
   4 4928
   2 4929
   4 4930
   3 4931
   4 4932
   2 4933
   2 4934
   3 4936
   2 4937
   1 4938
   1 4939
   1 4940
   1 4942
   1 4943
   2 4944
   3 4945
   3 4946
   1 4947
   2 4949
   1 4950
   1 4951
   1 4952
   3 4953
   1 4954
   1 4955
   1 4956
   1 4957
   2 4958
   2 4961
   4 4962
   1 4963
   2 4964
   2 4965
   1 4967
   3 4968
   2 4969
   2 4971
   2 4975
   1 4976
   1 4977
   3 4978
   2 4979
   2 4980
   1 4981
   3 4982
   2 4983
   1 4984
   1 4985
   1 4986
   1 4987
   3 4988
   1 4989
   2 4992
   1 4993
   3 4995
   1 4999
   2 5001
   1 5002
   2 5003
   5 5005
   3 5006
   1 5007
   3 5008
   3 5009
   1 5010
   1 5011
   1 5012
   1 5013
   1 5014
   2 5015
   3 5016
   3 5017
   3 5018
   1 5019
   3 5020
   4 5021
   1 5022
   2 5023
   1 5024
   1 5026
   3 5027
   4 5028
   1 5029
   2 5030
   1 5033
   1 5035
   2 5036
   2 5037
   5 5038
   2 5039
   6 5040
   1 5041
   3 5042
   2 5043
   2 5044
   1 5046
   1 5047
   1 5049
   4 5050
   1 5051
   2 5052
   5 5053
   2 5055
   1 5056
   3 5057
   2 5058
   2 5059
   2 5060
   3 5062
   2 5063
   3 5064
   1 5065
   2 5067
   1 5069
   5 5070
   2 5071
   2 5073
   4 5074
   4 5075
   2 5076
   2 5077
   4 5078
   1 5080
   2 5081
   2 5082
   4 5083
   2 5084
   1 5086
   1 5087
   1 5088
   1 5089
   2 5090
   2 5091
   1 5092
   4 5093
   2 5094
   4 5096
   2 5098
   4 5100
   2 5101
   2 5102
   1 5103
   1 5104
   1 5105
   2 5108
   1 5109
   3 5110
   3 5111
   1 5112
   2 5113
   1 5114
   3 5117
   2 5119
   2 5121
   2 5122
   3 5123
   1 5124
   2 5125
   2 5126
   3 5127
   1 5128
   1 5129
   1 5131
   1 5132
   2 5134
   2 5136
   1 5140
   1 5141
   1 5142
   1 5143
   3 5144
   1 5145
   1 5146
   2 5149
   3 5150
   2 5151
   3 5152
   3 5153
   2 5154
   2 5155
   1 5156
   2 5158
   1 5159
   2 5160
   1 5161
   3 5162
   1 5163
   2 5164
   2 5165
   5 5166
   2 5167
   2 5168
   3 5169
   1 5170
   1 5172
   3 5173
   1 5174
   2 5175
   1 5177
   1 5178
   2 5180
   1 5181
   2 5183
   2 5184
   1 5186
   2 5187
   1 5188
   2 5189
   1 5190
   1 5193
   4 5194
   3 5195
   1 5196
   2 5197
   1 5199
   4 5200
   1 5202
   1 5203
   2 5204
   3 5205
   3 5206
   1 5207
   3 5208
   4 5209
   1 5210
   3 5211
   3 5212
   2 5213
   2 5215
   1 5216
   1 5219
   1 5220
   1 5221
   2 5222
   2 5223
   1 5224
   3 5226
   2 5227
   3 5228
   1 5229
   4 5231
   1 5232
   2 5233
   3 5234
   1 5235
   2 5238
   3 5239
   1 5241
   2 5243
   1 5244
   1 5245
   2 5247
   3 5248
   1 5249
   3 5251
   2 5252
   1 5253
   1 5255
   2 5256
   3 5258
   3 5259
   2 5262
   1 5263
   1 5265
   2 5266
   2 5267
   1 5268
   1 5270
   3 5271
   1 5272
   2 5273
   1 5274
   1 5276
   1 5279
   1 5280
   1 5281
   1 5282
   2 5283
   1 5284
   3 5285
   1 5286
   1 5287
   2 5289
   2 5290
   2 5291
   1 5293
   1 5294
   2 5295
   3 5297
   1 5298
   2 5299
   1 5301
   2 5302
   1 5303
   1 5304
   2 5306
   1 5310
   1 5311
   2 5312
   2 5313
   2 5314
   3 5316
   1 5317
   2 5318
   5 5319
   2 5320
   1 5321
   2 5322
   1 5324
   2 5326
   1 5328
   2 5330
   1 5331
   2 5332
   2 5333
   3 5335
   1 5336
   3 5337
   2 5338
   1 5341
   1 5344
   1 5345
   1 5346
   1 5347
   1 5348
   1 5349
   1 5351
   1 5352
   1 5354
   1 5355
   1 5356
   1 5357
   2 5360
   1 5361
   1 5362
   2 5363
   1 5364
   1 5365
   1 5367
   2 5368
   3 5370
   1 5371
   1 5372
   1 5375
   1 5376
   2 5378
   1 5380
   1 5381
   2 5382
   1 5383
   1 5386
   2 5387
   2 5389
   1 5390
   1 5392
   2 5393
   1 5395
   2 5402
   1 5403
   2 5404
   1 5407
   1 5409
   2 5410
   4 5411
   1 5413
   1 5415
   3 5417
   2 5418
   1 5420
   1 5421
   1 5422
   2 5426
   1 5428
   1 5429
   2 5432
   3 5434
   1 5436
   2 5437
   2 5439
   1 5440
   1 5442
   1 5443
   1 5444
   2 5445
   1 5446
   1 5447
   1 5448
   1 5449
   1 5450
   2 5451
   2 5452
   1 5454
   2 5455
   1 5456
   2 5458
   2 5459
   3 5460
   2 5461
   2 5463
   1 5465
   1 5466
   2 5467
   1 5468
   2 5469
   2 5472
   2 5474
   3 5475
   3 5476
   1 5477
   1 5478
   1 5479
   2 5480
   1 5481
   2 5485
   2 5487
   2 5488
   2 5489
   2 5490
   3 5492
   4 5493
   1 5494
   3 5495
   2 5498
   1 5499
   1 5500
   2 5501
   1 5502
   1 5503
   1 5504
   1 5507
   3 5508
   2 5509
   2 5510
   2 5512
   5 5514
   1 5515
   1 5517
   1 5519
   1 5520
   1 5522
   1 5524
   2 5525
   2 5527
   2 5528
   2 5531
   3 5532
   2 5533
   2 5535
   2 5536
   2 5537
   3 5538
   2 5539
   2 5540
   1 5544
   1 5546
   1 5549
   1 5550
   2 5551
   2 5553
   1 5554
   1 5555
   1 5557
   1 5558
   2 5559
   2 5561
   3 5563
   1 5564
   2 5565
   2 5566
   1 5567
   1 5571
   2 5572
   2 5573
   1 5575
   2 5578
   3 5581
   1 5582
   1 5585
   2 5587
   3 5588
   1 5589
   1 5591
   2 5598
   1 5599
   1 5601
   1 5602
   1 5604
   2 5608
   2 5609
   2 5610
   2 5611
   1 5613
   1 5615
   2 5617
   1 5618
   1 5620
   4 5621
   3 5623
   1 5628
   2 5630
   1 5632
   1 5633
   1 5634
   2 5635
   3 5636
   1 5637
   1 5638
   1 5640
   2 5641
   1 5648
   1 5649
   1 5650
   2 5651
   1 5652
   1 5656
   2 5657
   2 5660
   2 5661
   1 5664
   1 5665
   3 5666
   1 5667
   3 5668
   1 5669
   1 5672
   1 5674
   1 5675
   1 5677
   1 5678
   1 5680
   1 5681
   2 5682
   1 5685
   1 5686
   1 5688
   2 5689
   3 5691
   1 5694
   1 5697
   1 5701
   2 5705
   2 5707
   1 5708
   1 5709
   1 5710
   1 5711
   1 5713
   1 5714
   1 5719
   2 5720
   1 5722
   2 5723
   1 5724
   2 5726
   3 5728
   2 5730
   2 5731
   3 5735
   1 5737
   1 5738
   1 5740
   1 5741
   2 5743
   1 5744
   1 5748
   2 5749
   1 5751
   2 5752
   1 5754
   1 5755
   3 5757
   2 5758
   1 5759
   1 5760
   1 5762
   1 5764
   2 5766
   1 5767
   1 5768
   2 5773
   1 5774
   3 5778
   2 5779
   1 5780
   1 5783
   2 5784
   1 5785
   2 5786
   1 5787
   1 5789
   1 5791
   3 5793
   1 5795
   1 5798
   2 5800
   1 5801
   2 5802
   1 5804
   1 5805
   2 5807
   1 5809
   1 5811
   3 5812
   1 5813
   1 5814
   2 5819
   2 5820
   1 5821
   1 5822
   1 5823
   1 5825
   2 5827
   2 5828
   1 5831
   1 5840
   2 5841
   1 5847
   1 5848
   2 5853
   3 5854
   1 5855
   2 5856
   1 5859
   1 5861
   1 5862
   1 5864
   1 5870
   2 5872
   2 5874
   1 5877
   2 5878
   1 5885
   1 5886
   1 5889
   1 5891
   1 5892
   2 5895
   1 5901
   3 5904
   1 5906
   2 5907
   1 5908
   2 5912
   2 5913
   1 5916
   1 5920
   1 5922
   1 5928
   1 5930
   1 5932
   1 5936
   1 5937
   1 5938
   1 5939
   1 5945
   1 5946
   2 5947
   1 5949
   2 5950
   2 5953
   1 5956
   1 5957
   2 5958
   1 5960
   1 5963
   2 5968
   2 5970
   1 5976
   1 5977
   1 5978
   1 5981
   1 5982
   1 5983
   1 5985
   1 5987
   1 5988
   1 5992
   1 5993
   1 5995
   1 5996
   1 5998
   2 5999
   1 6001
   1 6003
   1 6006
   2 6007
   1 6008
   1 6010
   3 6012
   1 6014
   1 6016
   2 6018
   1 6020
   1 6022
   1 6024
   2 6025
   1 6026
   1 6028
   1 6029
   1 6030
   3 6034
   1 6036
   1 6037
   1 6038
   1 6041
   1 6045
   2 6047
   1 6048
   1 6050
   2 6052
   1 6053
   3 6055
   1 6056
   1 6058
   1 6065
   1 6067
   2 6068
   1 6071
   1 6075
   1 6076
   1 6077
   1 6078
   2 6079
   1 6082
   2 6090
   1 6092
   1 6094
   1 6099
   3 6100
   1 6101
   2 6104
   1 6106
   1 6107
   1 6111
   1 6112
   2 6113
   1 6117
   1 6118
   1 6119
   1 6121
   1 6122
   1 6126
   1 6127
   1 6130
   1 6134
   1 6136
   1 6137
   1 6141
   1 6142
   1 6144
   1 6146
   1 6150
   1 6151
   1 6154
   1 6156
   1 6159
   1 6160
   1 6162
   1 6163
   2 6168
   2 6169
   1 6171
   3 6172
   1 6173
   1 6177
   1 6180
   1 6182
   1 6184
   1 6185
   1 6187
   1 6189
   1 6194
   3 6196
   1 6197
   1 6203
   1 6205
   2 6208
   2 6211
   1 6212
   2 6213
   1 6219
   1 6220
   1 6221
   1 6223
   1 6226
   1 6233
   1 6235
   2 6236
   1 6237
   2 6238
   1 6239
   1 6241
   1 6242
   1 6244
   1 6248
   1 6253
   1 6254
   1 6258
   1 6259
   1 6261
   2 6264
   1 6267
   2 6273
   1 6277
   1 6278
   1 6282
   1 6283
   1 6284
   2 6285
   1 6287
   1 6288
   1 6292
   1 6293
   1 6294
   1 6299
   1 6304
   1 6306
   1 6308
   2 6311
   1 6312
   1 6313
   1 6314
   1 6315
   1 6319
   1 6322
   1 6327
   1 6330
   1 6336
   2 6338
   2 6339
   1 6340
   1 6342
   1 6349
   1 6350
   1 6352
   1 6357
   2 6360
   1 6373
   1 6377
   1 6378
   1 6387
   2 6392
   1 6395
   2 6400
   1 6402
   1 6405
   1 6406
   1 6412
   1 6424
   1 6429
   1 6433
   2 6435
   1 6437
   1 6439
   2 6441
   1 6443
   1 6444
   2 6449
   1 6458
   1 6459
   1 6465
   2 6467
   1 6469
   1 6472
   1 6486
   1 6488
   1 6491
   1 6494
   1 6495
   1 6498
   1 6500
   1 6502
   1 6506
   2 6507
   1 6509
   1 6512
   1 6514
   1 6515
   1 6516
   1 6524
   1 6526
   1 6531
   1 6533
   1 6534
   1 6544
   1 6562
   1 6563
   1 6565
   1 6567
   1 6573
   1 6574
   2 6583
   1 6588
   1 6590
   2 6593
   1 6595
   1 6597
   1 6601
   1 6605
   1 6606
   1 6608
   1 6609
   1 6614
   1 6615
   1 6619
   1 6629
   1 6630
   1 6632
   1 6647
   1 6649
   2 6655
   1 6662
   1 6666
   1 6667
   1 6672
   1 6673
   1 6674
   1 6675
   1 6677
   1 6683
   1 6685
   2 6691
   1 6696
   1 6702
   3 6706
   1 6714
   1 6715
   1 6717
   1 6718
   1 6722
   1 6730
   1 6732
   1 6733
   1 6734
   1 6737
   1 6743
   1 6750
   2 6751
   1 6759
   1 6760
   1 6764
   1 6765
   1 6770
   1 6783
   1 6785
   1 6787
   1 6788
   2 6791
   1 6793
   1 6794
   2 6795
   1 6799
   1 6802
   1 6808
   1 6809
   1 6816
   2 6832
   1 6836
   2 6839
   1 6849
   2 6851
   1 6853
   1 6857
   2 6865
   1 6868
   1 6870
   1 6873
   2 6875
   1 6876
   2 6877
   1 6879
   1 6881
   1 6882
   1 6887
   1 6889
   1 6890
   1 6892
   1 6896
   1 6914
   1 6915
   2 6922
   2 6925
   1 6926
   1 6932
   2 6936
   1 6937
   1 6939
   1 6944
   1 6946
   1 6949
   1 6952
   1 6954
   1 6958
   1 6965
   1 6970
   1 6975
   1 6978
   1 6985
   1 6989
   1 6993
   1 6995
   1 6999
   1 7008
   1 7009
   1 7020
   1 7021
   1 7022
   1 7026
   1 7029
   2 7037
   2 7044
   1 7045
   1 7050
   1 7053
   2 7060
   1 7061
   1 7064
   1 7069
   1 7077
   1 7094
   1 7095
   1 7096
   1 7098
   1 7099
   1 7100
   1 7120
   1 7130
   1 7132
   2 7140
   1 7141
   1 7176
   1 7177
   1 7178
   1 7206
   1 7208
   1 7219
   1 7222
   1 7238
   1 7246
   1 7247
   1 7251
   1 7259
   2 7268
   1 7282
   1 7287
   1 7290
   1 7291
   1 7292
   1 7297
   1 7300
   2 7321
   1 7328
   1 7351
   1 7354
   1 7365
   1 7369
   1 7378
   2 7380
   1 7383
   1 7394
   1 7409
   1 7414
   1 7419
   1 7424
   1 7428
   1 7432
   1 7437
   1 7439
   1 7441
   1 7449
   1 7455
   1 7456
   1 7462
   1 7465
   1 7473
   1 7478
   1 7493
   1 7495
   1 7502
   1 7521
   1 7522
   1 7524
   1 7534
   1 7539
   1 7546
   1 7549
   1 7550
   1 7575
   1 7577
   1 7598
   1 7601
   2 7616
   2 7633
   1 7639
   1 7640
   1 7659
   1 7660
   1 7661
   1 7664
   1 7681
   2 7685
   1 7686
   1 7692
   1 7699
   1 7707
   1 7716
   2 7726
   1 7747
   1 7755
   1 7777
   1 7782
   1 7793
   1 7811
   1 7819
   1 7820
   1 7836
   1 7838
   1 7839
   1 7849
   1 7862
   1 7868
   1 7869
   1 7886
   1 7905
   1 7914
   1 7920
   2 7951
   1 7964
   1 7969
   1 7996
   1 8002
   1 8005
   1 8043
   1 8044
   1 8049
   1 8068
   1 8098
   1 8107
   1 8111
   1 8139
   1 8158
   1 8168
   1 8172
   1 8173
   1 8174
   1 8183
   1 8188
   1 8207
   1 8221
   1 8222
   1 8233
   1 8237
   1 8241
   1 8245
   1 8268
   1 8274
   1 8276
   1 8278
   1 8282
   2 8292
   1 8299
   1 8329
   1 8333
   1 8347
   1 8359
   1 8372
   1 8379
   1 8417
   1 8490
   1 8501
   1 8547
   1 8550
   1 8551
   1 8574
   1 8593
   1 8594
   1 8595
   1 8597
   1 8602
   1 8615
   1 8630
   1 8634
   1 8679
   1 8723
   1 8772
   1 8821
   2 8851
   1 8858
   1 8890
   1 8909
   1 8952
   1 8953
   1 8968
   1 8969
   1 8989
   1 9008
   2 9024
   1 9030
   1 9037
   1 9066
   1 9127
   1 9167
   1 9206
   1 9272
   1 9276
   1 9318
   1 9371
   1 9378
   1 9410
   1 9458
   1 9515
   1 9540
   1 9575
   1 9581
   1 9617
   1 9632
   2 9642
   1 9726
   1 9752
   1 9757
   1 9832
   1 9895
   1 10012
   1 10109
   1 10115
   1 10220
   1 10292
   1 10527
   1 10790
   1 10948
   1 10991
   1 11017
   1 11473
   1 11489
   1 11716
   1 11904
   1 12091
   1 12858
   1 13163
   1 14407
   1 14416
   1 14758
