 130 1
 111 2
 228 3
 620 4
 941 5
1240 6
1295 7
1289 8
1304 9
1216 10
1156 11
1065 12
 977 13
 965 14
 854 15
 774 16
 727 17
 680 18
 651 19
 602 20
 596 21
 492 22
 510 23
 504 24
 497 25
 466 26
 455 27
 475 28
 566 29
 573 30
 578 31
 596 32
 653 33
 748 34
 801 35
 849 36
 925 37
 889 38
1009 39
1016 40
1096 41
1141 42
1181 43
1297 44
1268 45
1354 46
1360 47
1513 48
1503 49
1586 50
1609 51
1693 52
1732 53
1823 54
1864 55
1870 56
1982 57
1958 58
1980 59
2153 60
2113 61
2167 62
2231 63
2153 64
2299 65
2979 66
2434 67
2280 68
2356 69
2430 70
2450 71
2341 72
2420 73
2813 74
2494 75
2360 76
2349 77
2374 78
2334 79
2354 80
2333 81
2333 82
2296 83
2448 84
2392 85
2230 86
2264 87
2319 88
2153 89
2187 90
2385 91
2341 92
2260 93
2383 94
2395 95
2320 96
2395 97
2545 98
2442 99
2260 100
2374 101
2233 102
2260 103
2364 104
2254 105
2189 106
2154 107
2208 108
2128 109
2257 110
2191 111
2135 112
2129 113
2229 114
2215 115
2199 116
2250 117
2040 118
2120 119
2105 120
2093 121
2163 122
2136 123
2136 124
2120 125
2116 126
2227 127
2154 128
2252 129
2156 130
2153 131
2187 132
2222 133
2160 134
2190 135
2116 136
2137 137
2079 138
2086 139
2035 140
2029 141
2134 142
2151 143
2064 144
2021 145
2046 146
1994 147
2114 148
1953 149
1933 150
2021 151
2114 152
2016 153
1986 154
1941 155
2049 156
1999 157
1955 158
2059 159
1972 160
1983 161
1944 162
2017 163
1943 164
1962 165
1906 166
1912 167
1930 168
1920 169
2017 170
1918 171
1986 172
1809 173
1888 174
1984 175
1897 176
1900 177
1878 178
2040 179
1895 180
1826 181
1844 182
1820 183
1797 184
1912 185
1839 186
1928 187
1855 188
1856 189
1819 190
1726 191
1759 192
1866 193
1741 194
1817 195
1742 196
1820 197
1761 198
1879 199
1755 200
1792 201
1781 202
1760 203
1792 204
1753 205
1764 206
1741 207
1740 208
1793 209
1716 210
1748 211
1794 212
1808 213
1728 214
1718 215
1705 216
1805 217
1766 218
1701 219
1752 220
1766 221
1704 222
1710 223
1700 224
1661 225
1705 226
1663 227
1667 228
1690 229
1696 230
1602 231
1641 232
1640 233
1567 234
1713 235
1682 236
1583 237
1692 238
1733 239
1619 240
1603 241
1560 242
1641 243
1618 244
1593 245
1591 246
1613 247
1681 248
1660 249
1730 250
1585 251
1624 252
1606 253
1637 254
1618 255
1605 256
1574 257
1643 258
1545 259
1644 260
1572 261
1636 262
1593 263
1703 264
1618 265
1584 266
1556 267
1578 268
1585 269
1576 270
1641 271
1490 272
1597 273
1584 274
1540 275
1622 276
1530 277
1564 278
1583 279
1500 280
1556 281
1626 282
1560 283
1553 284
1543 285
1556 286
1527 287
1550 288
1499 289
1540 290
1526 291
1563 292
1515 293
1580 294
1538 295
1493 296
1531 297
1610 298
1555 299
1620 300
1447 301
1460 302
1537 303
1624 304
1508 305
1546 306
1574 307
1512 308
1432 309
1569 310
1569 311
1546 312
1488 313
1525 314
1441 315
1512 316
1407 317
1479 318
1470 319
1543 320
1525 321
1462 322
1475 323
1414 324
1458 325
1426 326
1577 327
1538 328
1462 329
1460 330
1428 331
1461 332
1443 333
1480 334
1447 335
1465 336
1399 337
1430 338
1383 339
1451 340
1501 341
1448 342
1459 343
1431 344
1421 345
1420 346
1436 347
1483 348
1440 349
1469 350
1432 351
1427 352
1441 353
1503 354
1452 355
1461 356
1402 357
1381 358
1320 359
1397 360
1417 361
1440 362
1458 363
1354 364
1440 365
1457 366
1432 367
1339 368
1361 369
1366 370
1379 371
1441 372
1378 373
1366 374
1486 375
1357 376
1437 377
1421 378
1321 379
1421 380
1341 381
1397 382
1446 383
1422 384
1429 385
1379 386
1402 387
1358 388
1430 389
1381 390
1348 391
1361 392
1322 393
1367 394
1361 395
1331 396
1407 397
1356 398
1380 399
1370 400
1353 401
1273 402
1391 403
1309 404
1330 405
1391 406
1264 407
1296 408
1305 409
1277 410
1320 411
1332 412
1298 413
1244 414
1301 415
1311 416
1342 417
1267 418
1341 419
1360 420
1297 421
1325 422
1296 423
1308 424
1319 425
1286 426
1335 427
1349 428
1290 429
1277 430
1235 431
1248 432
1318 433
1297 434
1284 435
1273 436
1234 437
1313 438
1202 439
1237 440
1328 441
1286 442
1177 443
1261 444
1263 445
1265 446
1372 447
1262 448
1263 449
1275 450
1264 451
1295 452
1306 453
1203 454
1181 455
1213 456
1240 457
1192 458
1245 459
1329 460
1216 461
1203 462
1197 463
1266 464
1185 465
1254 466
1179 467
1232 468
1229 469
1267 470
1173 471
1269 472
1193 473
1207 474
1198 475
1191 476
1198 477
1160 478
1243 479
1129 480
1203 481
1282 482
1226 483
1190 484
1193 485
1183 486
1204 487
1186 488
1136 489
1164 490
1194 491
1191 492
1184 493
1188 494
1207 495
1143 496
1150 497
1194 498
1184 499
1200 500
1152 501
1207 502
1122 503
1132 504
1152 505
1122 506
1161 507
1151 508
1086 509
1143 510
1131 511
1151 512
1129 513
1143 514
1156 515
1205 516
1105 517
1085 518
1144 519
1111 520
1038 521
1175 522
1098 523
1058 524
1068 525
1145 526
1113 527
1151 528
1144 529
1103 530
1125 531
1089 532
1062 533
1180 534
1099 535
1097 536
1123 537
1090 538
1065 539
1036 540
1069 541
1075 542
1149 543
1080 544
1040 545
1106 546
1135 547
1092 548
1141 549
1032 550
1045 551
1078 552
1031 553
1094 554
1087 555
1053 556
1084 557
1064 558
1028 559
1027 560
1091 561
1063 562
1048 563
1023 564
1073 565
1018 566
1062 567
1008 568
1055 569
1005 570
1035 571
1045 572
 969 573
1045 574
1035 575
1067 576
1012 577
 998 578
 980 579
1072 580
1002 581
 993 582
1040 583
1011 584
 955 585
1020 586
1027 587
 993 588
1044 589
 957 590
 991 591
1032 592
 967 593
 970 594
 990 595
 987 596
 950 597
 972 598
 916 599
 971 600
1007 601
 976 602
 983 603
 990 604
1013 605
 932 606
 920 607
 980 608
 992 609
 953 610
 948 611
 987 612
 944 613
1024 614
 989 615
 939 616
 986 617
 968 618
 899 619
 993 620
 973 621
 937 622
 915 623
 999 624
 974 625
 956 626
 906 627
 972 628
 956 629
 920 630
 940 631
 949 632
 931 633
 982 634
 963 635
 947 636
 958 637
 965 638
 927 639
 951 640
 907 641
 996 642
 954 643
 931 644
 942 645
 920 646
 918 647
 912 648
 908 649
 967 650
 912 651
 916 652
 903 653
 893 654
 882 655
 926 656
 894 657
 851 658
 920 659
 853 660
 800 661
 849 662
 886 663
 854 664
 896 665
 897 666
 832 667
 895 668
 869 669
 847 670
 897 671
 892 672
 857 673
 856 674
 882 675
 900 676
 839 677
 832 678
 844 679
 872 680
 888 681
 827 682
 937 683
 834 684
 890 685
 827 686
 828 687
 819 688
 817 689
 858 690
 837 691
 800 692
 781 693
 869 694
 845 695
 835 696
 835 697
 832 698
 855 699
 834 700
 868 701
 826 702
 810 703
 797 704
 816 705
 874 706
 861 707
 828 708
 885 709
 848 710
 840 711
 808 712
 805 713
 793 714
 821 715
 821 716
 796 717
 832 718
 748 719
 836 720
 821 721
 810 722
 777 723
 791 724
 789 725
 790 726
 794 727
 792 728
 730 729
 798 730
 767 731
 836 732
 817 733
 799 734
 770 735
 758 736
 768 737
 796 738
 801 739
 787 740
 790 741
 770 742
 815 743
 792 744
 802 745
 781 746
 762 747
 769 748
 758 749
 712 750
 746 751
 734 752
 760 753
 743 754
 781 755
 771 756
 693 757
 804 758
 741 759
 752 760
 749 761
 743 762
 727 763
 782 764
 762 765
 772 766
 777 767
 809 768
 811 769
 749 770
 766 771
 777 772
 779 773
 767 774
 702 775
 729 776
 728 777
 691 778
 757 779
 709 780
 706 781
 708 782
 764 783
 729 784
 705 785
 769 786
 728 787
 742 788
 708 789
 689 790
 732 791
 711 792
 724 793
 754 794
 722 795
 757 796
 733 797
 741 798
 720 799
 689 800
 750 801
 746 802
 692 803
 670 804
 643 805
 683 806
 683 807
 668 808
 712 809
 709 810
 716 811
 714 812
 739 813
 657 814
 710 815
 681 816
 686 817
 649 818
 668 819
 639 820
 672 821
 677 822
 653 823
 680 824
 702 825
 716 826
 688 827
 653 828
 700 829
 674 830
 656 831
 691 832
 706 833
 715 834
 655 835
 652 836
 627 837
 651 838
 679 839
 668 840
 658 841
 655 842
 637 843
 607 844
 658 845
 703 846
 629 847
 607 848
 723 849
 656 850
 655 851
 620 852
 622 853
 676 854
 644 855
 663 856
 629 857
 619 858
 641 859
 684 860
 631 861
 671 862
 637 863
 611 864
 605 865
 601 866
 591 867
 643 868
 638 869
 615 870
 646 871
 643 872
 550 873
 620 874
 618 875
 651 876
 624 877
 632 878
 639 879
 605 880
 636 881
 591 882
 584 883
 651 884
 595 885
 623 886
 608 887
 580 888
 637 889
 623 890
 582 891
 585 892
 650 893
 605 894
 600 895
 622 896
 575 897
 615 898
 586 899
 588 900
 593 901
 574 902
 595 903
 585 904
 572 905
 602 906
 547 907
 574 908
 581 909
 571 910
 562 911
 602 912
 570 913
 608 914
 603 915
 576 916
 549 917
 576 918
 575 919
 575 920
 560 921
 529 922
 586 923
 604 924
 560 925
 574 926
 619 927
 571 928
 550 929
 548 930
 569 931
 591 932
 557 933
 574 934
 553 935
 580 936
 611 937
 558 938
 543 939
 519 940
 538 941
 540 942
 564 943
 483 944
 528 945
 562 946
 527 947
 566 948
 581 949
 511 950
 567 951
 557 952
 548 953
 568 954
 565 955
 503 956
 544 957
 531 958
 546 959
 529 960
 512 961
 523 962
 570 963
 491 964
 541 965
 521 966
 559 967
 531 968
 574 969
 519 970
 594 971
 512 972
 504 973
 557 974
 488 975
 510 976
 521 977
 563 978
 528 979
 501 980
 499 981
 536 982
 512 983
 524 984
 563 985
 486 986
 488 987
 515 988
 526 989
 524 990
 502 991
 567 992
 470 993
 484 994
 472 995
 517 996
 504 997
 544 998
 463 999
 534 1000
 450 1001
 530 1002
 525 1003
 494 1004
 495 1005
 460 1006
 448 1007
 513 1008
 480 1009
 494 1010
 484 1011
 515 1012
 464 1013
 496 1014
 490 1015
 474 1016
 508 1017
 493 1018
 529 1019
 478 1020
 443 1021
 467 1022
 514 1023
 480 1024
 508 1025
 471 1026
 471 1027
 460 1028
 457 1029
 484 1030
 475 1031
 520 1032
 494 1033
 454 1034
 480 1035
 459 1036
 457 1037
 464 1038
 485 1039
 485 1040
 457 1041
 435 1042
 447 1043
 501 1044
 487 1045
 449 1046
 438 1047
 425 1048
 461 1049
 453 1050
 416 1051
 507 1052
 537 1053
 467 1054
 455 1055
 468 1056
 469 1057
 472 1058
 434 1059
 441 1060
 476 1061
 467 1062
 460 1063
 474 1064
 480 1065
 446 1066
 419 1067
 410 1068
 459 1069
 440 1070
 458 1071
 490 1072
 425 1073
 444 1074
 406 1075
 454 1076
 467 1077
 457 1078
 461 1079
 432 1080
 455 1081
 452 1082
 422 1083
 433 1084
 398 1085
 419 1086
 410 1087
 419 1088
 490 1089
 439 1090
 400 1091
 436 1092
 425 1093
 450 1094
 448 1095
 410 1096
 437 1097
 410 1098
 434 1099
 444 1100
 391 1101
 402 1102
 415 1103
 402 1104
 388 1105
 440 1106
 438 1107
 395 1108
 416 1109
 416 1110
 442 1111
 408 1112
 425 1113
 420 1114
 417 1115
 406 1116
 443 1117
 407 1118
 416 1119
 415 1120
 418 1121
 421 1122
 422 1123
 449 1124
 406 1125
 400 1126
 418 1127
 386 1128
 390 1129
 399 1130
 406 1131
 388 1132
 383 1133
 406 1134
 416 1135
 399 1136
 379 1137
 409 1138
 396 1139
 391 1140
 419 1141
 366 1142
 360 1143
 411 1144
 379 1145
 385 1146
 359 1147
 373 1148
 412 1149
 402 1150
 380 1151
 418 1152
 392 1153
 390 1154
 398 1155
 380 1156
 406 1157
 406 1158
 364 1159
 372 1160
 387 1161
 389 1162
 374 1163
 383 1164
 370 1165
 364 1166
 335 1167
 376 1168
 381 1169
 364 1170
 365 1171
 424 1172
 396 1173
 369 1174
 379 1175
 346 1176
 382 1177
 373 1178
 360 1179
 381 1180
 365 1181
 361 1182
 388 1183
 386 1184
 364 1185
 367 1186
 376 1187
 344 1188
 347 1189
 355 1190
 317 1191
 347 1192
 372 1193
 347 1194
 381 1195
 362 1196
 345 1197
 330 1198
 375 1199
 379 1200
 350 1201
 356 1202
 376 1203
 353 1204
 386 1205
 346 1206
 338 1207
 356 1208
 346 1209
 356 1210
 354 1211
 405 1212
 353 1213
 363 1214
 353 1215
 396 1216
 363 1217
 366 1218
 335 1219
 332 1220
 350 1221
 326 1222
 336 1223
 325 1224
 368 1225
 362 1226
 351 1227
 370 1228
 366 1229
 339 1230
 316 1231
 323 1232
 335 1233
 344 1234
 324 1235
 340 1236
 331 1237
 326 1238
 317 1239
 314 1240
 320 1241
 311 1242
 333 1243
 352 1244
 371 1245
 327 1246
 333 1247
 343 1248
 328 1249
 305 1250
 331 1251
 312 1252
 334 1253
 337 1254
 323 1255
 336 1256
 313 1257
 330 1258
 327 1259
 361 1260
 305 1261
 300 1262
 318 1263
 321 1264
 296 1265
 286 1266
 323 1267
 303 1268
 322 1269
 286 1270
 347 1271
 298 1272
 327 1273
 324 1274
 306 1275
 306 1276
 301 1277
 305 1278
 333 1279
 297 1280
 331 1281
 278 1282
 322 1283
 302 1284
 308 1285
 322 1286
 296 1287
 331 1288
 322 1289
 303 1290
 287 1291
 276 1292
 318 1293
 303 1294
 296 1295
 322 1296
 281 1297
 317 1298
 290 1299
 296 1300
 298 1301
 278 1302
 295 1303
 299 1304
 309 1305
 320 1306
 300 1307
 301 1308
 291 1309
 277 1310
 273 1311
 320 1312
 327 1313
 299 1314
 279 1315
 282 1316
 270 1317
 288 1318
 309 1319
 291 1320
 312 1321
 311 1322
 293 1323
 313 1324
 278 1325
 293 1326
 268 1327
 256 1328
 279 1329
 301 1330
 302 1331
 283 1332
 308 1333
 282 1334
 290 1335
 277 1336
 308 1337
 298 1338
 290 1339
 287 1340
 280 1341
 288 1342
 276 1343
 264 1344
 273 1345
 312 1346
 283 1347
 293 1348
 276 1349
 285 1350
 249 1351
 298 1352
 300 1353
 278 1354
 253 1355
 266 1356
 274 1357
 251 1358
 333 1359
 276 1360
 291 1361
 250 1362
 253 1363
 280 1364
 258 1365
 248 1366
 272 1367
 273 1368
 281 1369
 302 1370
 262 1371
 267 1372
 273 1373
 272 1374
 247 1375
 265 1376
 245 1377
 265 1378
 266 1379
 243 1380
 285 1381
 281 1382
 294 1383
 282 1384
 237 1385
 277 1386
 273 1387
 211 1388
 285 1389
 247 1390
 277 1391
 262 1392
 246 1393
 231 1394
 269 1395
 253 1396
 266 1397
 232 1398
 257 1399
 243 1400
 251 1401
 260 1402
 253 1403
 245 1404
 222 1405
 259 1406
 265 1407
 236 1408
 280 1409
 227 1410
 236 1411
 247 1412
 257 1413
 260 1414
 258 1415
 239 1416
 254 1417
 213 1418
 210 1419
 240 1420
 244 1421
 271 1422
 250 1423
 226 1424
 229 1425
 224 1426
 251 1427
 268 1428
 248 1429
 250 1430
 255 1431
 232 1432
 231 1433
 269 1434
 240 1435
 226 1436
 220 1437
 242 1438
 245 1439
 233 1440
 240 1441
 256 1442
 235 1443
 234 1444
 237 1445
 256 1446
 235 1447
 211 1448
 212 1449
 214 1450
 223 1451
 254 1452
 254 1453
 256 1454
 233 1455
 228 1456
 239 1457
 225 1458
 226 1459
 219 1460
 256 1461
 230 1462
 219 1463
 230 1464
 219 1465
 258 1466
 239 1467
 232 1468
 206 1469
 235 1470
 228 1471
 257 1472
 242 1473
 217 1474
 240 1475
 219 1476
 226 1477
 216 1478
 264 1479
 225 1480
 219 1481
 208 1482
 228 1483
 231 1484
 218 1485
 179 1486
 224 1487
 186 1488
 205 1489
 210 1490
 220 1491
 204 1492
 211 1493
 227 1494
 218 1495
 194 1496
 212 1497
 219 1498
 216 1499
 224 1500
 218 1501
 210 1502
 218 1503
 195 1504
 231 1505
 230 1506
 215 1507
 198 1508
 216 1509
 215 1510
 216 1511
 224 1512
 195 1513
 205 1514
 234 1515
 202 1516
 216 1517
 214 1518
 178 1519
 218 1520
 189 1521
 217 1522
 211 1523
 199 1524
 209 1525
 190 1526
 218 1527
 206 1528
 206 1529
 186 1530
 191 1531
 212 1532
 224 1533
 224 1534
 199 1535
 202 1536
 201 1537
 209 1538
 209 1539
 206 1540
 218 1541
 195 1542
 217 1543
 182 1544
 202 1545
 185 1546
 194 1547
 186 1548
 177 1549
 205 1550
 193 1551
 201 1552
 190 1553
 209 1554
 200 1555
 210 1556
 176 1557
 202 1558
 182 1559
 204 1560
 216 1561
 188 1562
 208 1563
 201 1564
 185 1565
 197 1566
 234 1567
 182 1568
 192 1569
 203 1570
 202 1571
 171 1572
 183 1573
 179 1574
 188 1575
 219 1576
 190 1577
 184 1578
 186 1579
 200 1580
 180 1581
 186 1582
 141 1583
 186 1584
 182 1585
 176 1586
 186 1587
 174 1588
 195 1589
 178 1590
 180 1591
 202 1592
 189 1593
 201 1594
 172 1595
 178 1596
 190 1597
 172 1598
 176 1599
 197 1600
 174 1601
 144 1602
 204 1603
 182 1604
 187 1605
 178 1606
 195 1607
 164 1608
 174 1609
 180 1610
 194 1611
 197 1612
 178 1613
 197 1614
 164 1615
 150 1616
 170 1617
 179 1618
 161 1619
 157 1620
 161 1621
 158 1622
 192 1623
 165 1624
 172 1625
 169 1626
 179 1627
 171 1628
 177 1629
 177 1630
 177 1631
 178 1632
 179 1633
 169 1634
 155 1635
 171 1636
 182 1637
 181 1638
 185 1639
 188 1640
 177 1641
 168 1642
 177 1643
 171 1644
 170 1645
 190 1646
 172 1647
 171 1648
 159 1649
 164 1650
 163 1651
 180 1652
 169 1653
 172 1654
 171 1655
 182 1656
 164 1657
 153 1658
 164 1659
 174 1660
 167 1661
 176 1662
 160 1663
 169 1664
 162 1665
 183 1666
 184 1667
 173 1668
 153 1669
 159 1670
 145 1671
 161 1672
 172 1673
 172 1674
 154 1675
 161 1676
 144 1677
 146 1678
 174 1679
 142 1680
 144 1681
 143 1682
 157 1683
 144 1684
 163 1685
 161 1686
 154 1687
 140 1688
 161 1689
 164 1690
 178 1691
 135 1692
 179 1693
 139 1694
 178 1695
 160 1696
 144 1697
 144 1698
 159 1699
 162 1700
 163 1701
 167 1702
 162 1703
 126 1704
 150 1705
 152 1706
 163 1707
 162 1708
 147 1709
 161 1710
 141 1711
 130 1712
 156 1713
 148 1714
 157 1715
 144 1716
 147 1717
 153 1718
 151 1719
 135 1720
 156 1721
 162 1722
 128 1723
 148 1724
 177 1725
 149 1726
 154 1727
 161 1728
 161 1729
 167 1730
 132 1731
 151 1732
 158 1733
 144 1734
 156 1735
 149 1736
 150 1737
 159 1738
 119 1739
 146 1740
 150 1741
 153 1742
 140 1743
 128 1744
 133 1745
 147 1746
 135 1747
 137 1748
 160 1749
 136 1750
 130 1751
 138 1752
 148 1753
 150 1754
 143 1755
 141 1756
 132 1757
 130 1758
 142 1759
 149 1760
 140 1761
 129 1762
 134 1763
 131 1764
 137 1765
 149 1766
 136 1767
 125 1768
 132 1769
 116 1770
 120 1771
 126 1772
 121 1773
 136 1774
 138 1775
 139 1776
 129 1777
 137 1778
 139 1779
 124 1780
 129 1781
 113 1782
 123 1783
 138 1784
 133 1785
 134 1786
 133 1787
 133 1788
 123 1789
 132 1790
 136 1791
 154 1792
 145 1793
 153 1794
 128 1795
 118 1796
 166 1797
 118 1798
 147 1799
 154 1800
 128 1801
 126 1802
 124 1803
 113 1804
 126 1805
 141 1806
 118 1807
 115 1808
 144 1809
 121 1810
 134 1811
 141 1812
 134 1813
 137 1814
 126 1815
 139 1816
 123 1817
 114 1818
 146 1819
 132 1820
 138 1821
 146 1822
 125 1823
 107 1824
 117 1825
 143 1826
 127 1827
 109 1828
 125 1829
 109 1830
 132 1831
 140 1832
 122 1833
 135 1834
 125 1835
 125 1836
 145 1837
 121 1838
 123 1839
 108 1840
 107 1841
 119 1842
 116 1843
 124 1844
 119 1845
 133 1846
  98 1847
 123 1848
 132 1849
 125 1850
 133 1851
  99 1852
  98 1853
 125 1854
 103 1855
 123 1856
 109 1857
 105 1858
 124 1859
 154 1860
 143 1861
 103 1862
 112 1863
 134 1864
 132 1865
 133 1866
 119 1867
 136 1868
 111 1869
 117 1870
 115 1871
 104 1872
 118 1873
 117 1874
 134 1875
 104 1876
 118 1877
 100 1878
 111 1879
 112 1880
 115 1881
 109 1882
 138 1883
  87 1884
  92 1885
 127 1886
 120 1887
 123 1888
 114 1889
 103 1890
 105 1891
 107 1892
 105 1893
 114 1894
 118 1895
 101 1896
 104 1897
 119 1898
 102 1899
 110 1900
 114 1901
 115 1902
 102 1903
 118 1904
 127 1905
 115 1906
 134 1907
 110 1908
 123 1909
 121 1910
  98 1911
 113 1912
 114 1913
  93 1914
 125 1915
 121 1916
 112 1917
  98 1918
 112 1919
 124 1920
  99 1921
  90 1922
 100 1923
 102 1924
 104 1925
 107 1926
 109 1927
 121 1928
 112 1929
  97 1930
 113 1931
 101 1932
 107 1933
 113 1934
 105 1935
  96 1936
  93 1937
 107 1938
  92 1939
  99 1940
 107 1941
 110 1942
 118 1943
 104 1944
 105 1945
  99 1946
 112 1947
 104 1948
 106 1949
 103 1950
 105 1951
  93 1952
 112 1953
 105 1954
 116 1955
  92 1956
 103 1957
  91 1958
  85 1959
  94 1960
  90 1961
 103 1962
 101 1963
  95 1964
 100 1965
  92 1966
  93 1967
 101 1968
 111 1969
  88 1970
  79 1971
 102 1972
 114 1973
  93 1974
  87 1975
 106 1976
  97 1977
  79 1978
  96 1979
  91 1980
  96 1981
  69 1982
 100 1983
  97 1984
 104 1985
  89 1986
 110 1987
 102 1988
  90 1989
  97 1990
  99 1991
  81 1992
 115 1993
 100 1994
 103 1995
  95 1996
 102 1997
  96 1998
  81 1999
  88 2000
  83 2001
 102 2002
  79 2003
  86 2004
 107 2005
  88 2006
  91 2007
  90 2008
 101 2009
  87 2010
  97 2011
  91 2012
  71 2013
  83 2014
 106 2015
  96 2016
  77 2017
  81 2018
  95 2019
  82 2020
  99 2021
  97 2022
  85 2023
 106 2024
 105 2025
  88 2026
  87 2027
  95 2028
  77 2029
  77 2030
  94 2031
  74 2032
  99 2033
  85 2034
  97 2035
  79 2036
  73 2037
  94 2038
  83 2039
  93 2040
  93 2041
  94 2042
  79 2043
  96 2044
  99 2045
  77 2046
  79 2047
  93 2048
  98 2049
  83 2050
  93 2051
  86 2052
 103 2053
  92 2054
  89 2055
  98 2056
  87 2057
  88 2058
 102 2059
  87 2060
 100 2061
  88 2062
  87 2063
  81 2064
  91 2065
  92 2066
  92 2067
  71 2068
  84 2069
  74 2070
  87 2071
  82 2072
  56 2073
  93 2074
  83 2075
  86 2076
  81 2077
  81 2078
  73 2079
  77 2080
  80 2081
  84 2082
  85 2083
  84 2084
  93 2085
  87 2086
  82 2087
  73 2088
  83 2089
  83 2090
  72 2091
  89 2092
  80 2093
  93 2094
  81 2095
 107 2096
  73 2097
  82 2098
  74 2099
  78 2100
  74 2101
  69 2102
  86 2103
  83 2104
  70 2105
  83 2106
  77 2107
  71 2108
  88 2109
  86 2110
  59 2111
  87 2112
  71 2113
  81 2114
  78 2115
  96 2116
  64 2117
  89 2118
  78 2119
  87 2120
  80 2121
  90 2122
  81 2123
  70 2124
  70 2125
  85 2126
  74 2127
  67 2128
  73 2129
  82 2130
  70 2131
  82 2132
  63 2133
  71 2134
  61 2135
  74 2136
  79 2137
  73 2138
  81 2139
  61 2140
  91 2141
  70 2142
  78 2143
  84 2144
  61 2145
  64 2146
  90 2147
  74 2148
  73 2149
  85 2150
  93 2151
  75 2152
  62 2153
  82 2154
  68 2155
  84 2156
  77 2157
  70 2158
  68 2159
  85 2160
  65 2161
  81 2162
  86 2163
  61 2164
  76 2165
  85 2166
  73 2167
  65 2168
  57 2169
  59 2170
  63 2171
  82 2172
  68 2173
  61 2174
  58 2175
  68 2176
  84 2177
  73 2178
  60 2179
  65 2180
  71 2181
  69 2182
  71 2183
  73 2184
  71 2185
  78 2186
  67 2187
  84 2188
  90 2189
  72 2190
  69 2191
  65 2192
  69 2193
  82 2194
  77 2195
  66 2196
  78 2197
  74 2198
  73 2199
  63 2200
  72 2201
  67 2202
  75 2203
  70 2204
  62 2205
  65 2206
  74 2207
  68 2208
  63 2209
  54 2210
  68 2211
  76 2212
  57 2213
  59 2214
  75 2215
  58 2216
  75 2217
  55 2218
  80 2219
  84 2220
  64 2221
  59 2222
  82 2223
  67 2224
  70 2225
  68 2226
  68 2227
  75 2228
  68 2229
  60 2230
  68 2231
  64 2232
  66 2233
  63 2234
  62 2235
  67 2236
  66 2237
  64 2238
  80 2239
  72 2240
  47 2241
  54 2242
  67 2243
  77 2244
  60 2245
  61 2246
  57 2247
  61 2248
  56 2249
  73 2250
  54 2251
  69 2252
  49 2253
  60 2254
  71 2255
  62 2256
  62 2257
  69 2258
  58 2259
  64 2260
  56 2261
  70 2262
  53 2263
  54 2264
  65 2265
  66 2266
  69 2267
  55 2268
  49 2269
  58 2270
  52 2271
  51 2272
  61 2273
  59 2274
  73 2275
  47 2276
  71 2277
  69 2278
  57 2279
  58 2280
  61 2281
  73 2282
  72 2283
  62 2284
  63 2285
  55 2286
  70 2287
  60 2288
  54 2289
  45 2290
  52 2291
  53 2292
  64 2293
  61 2294
  72 2295
  61 2296
  63 2297
  56 2298
  56 2299
  57 2300
  68 2301
  62 2302
  58 2303
  70 2304
  59 2305
  73 2306
  46 2307
  54 2308
  56 2309
  59 2310
  48 2311
  59 2312
  52 2313
  66 2314
  61 2315
  54 2316
  51 2317
  62 2318
  52 2319
  37 2320
  65 2321
  62 2322
  59 2323
  51 2324
  60 2325
  68 2326
  54 2327
  46 2328
  61 2329
  46 2330
  53 2331
  60 2332
  56 2333
  62 2334
  55 2335
  50 2336
  65 2337
  52 2338
  54 2339
  49 2340
  46 2341
  47 2342
  50 2343
  58 2344
  59 2345
  41 2346
  48 2347
  42 2348
  54 2349
  74 2350
  38 2351
  65 2352
  58 2353
  47 2354
  53 2355
  44 2356
  50 2357
  63 2358
  48 2359
  46 2360
  44 2361
  65 2362
  61 2363
  58 2364
  51 2365
  65 2366
  61 2367
  56 2368
  37 2369
  47 2370
  55 2371
  55 2372
  58 2373
  53 2374
  51 2375
  57 2376
  52 2377
  60 2378
  55 2379
  61 2380
  67 2381
  59 2382
  48 2383
  53 2384
  55 2385
  60 2386
  51 2387
  53 2388
  53 2389
  42 2390
  47 2391
  30 2392
  49 2393
  50 2394
  58 2395
  75 2396
  38 2397
  42 2398
  51 2399
  51 2400
  48 2401
  53 2402
  47 2403
  33 2404
  65 2405
  61 2406
  35 2407
  51 2408
  57 2409
  40 2410
  52 2411
  59 2412
  49 2413
  52 2414
  42 2415
  51 2416
  47 2417
  46 2418
  41 2419
  61 2420
  37 2421
  68 2422
  39 2423
  50 2424
  53 2425
  33 2426
  41 2427
  41 2428
  48 2429
  41 2430
  59 2431
  63 2432
  44 2433
  43 2434
  52 2435
  52 2436
  49 2437
  42 2438
  53 2439
  52 2440
  39 2441
  38 2442
  50 2443
  51 2444
  48 2445
  60 2446
  52 2447
  49 2448
  56 2449
  47 2450
  48 2451
  47 2452
  36 2453
  39 2454
  42 2455
  54 2456
  51 2457
  45 2458
  53 2459
  61 2460
  51 2461
  43 2462
  48 2463
  37 2464
  54 2465
  46 2466
  44 2467
  46 2468
  54 2469
  39 2470
  51 2471
  47 2472
  42 2473
  38 2474
  42 2475
  36 2476
  57 2477
  32 2478
  49 2479
  67 2480
  47 2481
  39 2482
  36 2483
  39 2484
  38 2485
  38 2486
  54 2487
  38 2488
  48 2489
  43 2490
  47 2491
  50 2492
  48 2493
  41 2494
  40 2495
  44 2496
  53 2497
  64 2498
  42 2499
  40 2500
  50 2501
  45 2502
  46 2503
  42 2504
  48 2505
  50 2506
  49 2507
  45 2508
  34 2509
  45 2510
  41 2511
  45 2512
  30 2513
  49 2514
  57 2515
  32 2516
  45 2517
  36 2518
  38 2519
  37 2520
  40 2521
  42 2522
  37 2523
  43 2524
  42 2525
  35 2526
  49 2527
  39 2528
  44 2529
  48 2530
  47 2531
  44 2532
  37 2533
  48 2534
  40 2535
  36 2536
  34 2537
  38 2538
  47 2539
  44 2540
  43 2541
  39 2542
  37 2543
  41 2544
  44 2545
  41 2546
  37 2547
  39 2548
  47 2549
  35 2550
  36 2551
  40 2552
  43 2553
  43 2554
  30 2555
  37 2556
  37 2557
  38 2558
  45 2559
  35 2560
  39 2561
  40 2562
  40 2563
  42 2564
  36 2565
  46 2566
  41 2567
  32 2568
  49 2569
  34 2570
  34 2571
  35 2572
  51 2573
  37 2574
  41 2575
  41 2576
  47 2577
  44 2578
  34 2579
  35 2580
  47 2581
  45 2582
  50 2583
  37 2584
  38 2585
  40 2586
  35 2587
  37 2588
  42 2589
  29 2590
  33 2591
  42 2592
  39 2593
  29 2594
  50 2595
  44 2596
  41 2597
  38 2598
  32 2599
  27 2600
  45 2601
  39 2602
  46 2603
  29 2604
  27 2605
  33 2606
  32 2607
  33 2608
  31 2609
  33 2610
  33 2611
  34 2612
  35 2613
  47 2614
  47 2615
  37 2616
  43 2617
  27 2618
  41 2619
  44 2620
  28 2621
  33 2622
  27 2623
  35 2624
  31 2625
  36 2626
  32 2627
  40 2628
  35 2629
  39 2630
  39 2631
  43 2632
  47 2633
  32 2634
  38 2635
  43 2636
  45 2637
  42 2638
  36 2639
  51 2640
  24 2641
  33 2642
  37 2643
  29 2644
  35 2645
  40 2646
  36 2647
  53 2648
  38 2649
  32 2650
  30 2651
  28 2652
  35 2653
  38 2654
  36 2655
  40 2656
  32 2657
  30 2658
  35 2659
  30 2660
  42 2661
  22 2662
  29 2663
  33 2664
  39 2665
  31 2666
  44 2667
  42 2668
  49 2669
  26 2670
  43 2671
  26 2672
  38 2673
  37 2674
  30 2675
  28 2676
  21 2677
  31 2678
  33 2679
  31 2680
  33 2681
  40 2682
  33 2683
  50 2684
  43 2685
  34 2686
  34 2687
  33 2688
  39 2689
  28 2690
  33 2691
  46 2692
  35 2693
  35 2694
  20 2695
  38 2696
  40 2697
  34 2698
  35 2699
  23 2700
  46 2701
  30 2702
  32 2703
  38 2704
  45 2705
  35 2706
  21 2707
  41 2708
  31 2709
  36 2710
  47 2711
  35 2712
  30 2713
  30 2714
  35 2715
  31 2716
  33 2717
  28 2718
  31 2719
  41 2720
  36 2721
  35 2722
  32 2723
  36 2724
  36 2725
  28 2726
  34 2727
  40 2728
  28 2729
  40 2730
  30 2731
  36 2732
  33 2733
  42 2734
  29 2735
  25 2736
  37 2737
  36 2738
  24 2739
  30 2740
  30 2741
  29 2742
  40 2743
  28 2744
  29 2745
  24 2746
  31 2747
  30 2748
  30 2749
  26 2750
  31 2751
  38 2752
  26 2753
  37 2754
  27 2755
  35 2756
  22 2757
  26 2758
  21 2759
  24 2760
  35 2761
  39 2762
  33 2763
  36 2764
  20 2765
  36 2766
  30 2767
  39 2768
  32 2769
  32 2770
  30 2771
  37 2772
  26 2773
  39 2774
  26 2775
  27 2776
  32 2777
  35 2778
  30 2779
  44 2780
  30 2781
  28 2782
  30 2783
  29 2784
  35 2785
  24 2786
  27 2787
  28 2788
  25 2789
  35 2790
  31 2791
  31 2792
  32 2793
  24 2794
  41 2795
  40 2796
  38 2797
  28 2798
  29 2799
  26 2800
  34 2801
  27 2802
  32 2803
  25 2804
  34 2805
  31 2806
  22 2807
  36 2808
  37 2809
  23 2810
  24 2811
  37 2812
  25 2813
  29 2814
  39 2815
  25 2816
  31 2817
  30 2818
  31 2819
  31 2820
  24 2821
  28 2822
  28 2823
  25 2824
  40 2825
  30 2826
  32 2827
  33 2828
  22 2829
  29 2830
  36 2831
  20 2832
  29 2833
  31 2834
  31 2835
  22 2836
  28 2837
  25 2838
  27 2839
  35 2840
  32 2841
  29 2842
  32 2843
  31 2844
  32 2845
  20 2846
  23 2847
  26 2848
  24 2849
  26 2850
  21 2851
  23 2852
  23 2853
  24 2854
  24 2855
  23 2856
  22 2857
  30 2858
  32 2859
  36 2860
  32 2861
  21 2862
  19 2863
  21 2864
  16 2865
  26 2866
  18 2867
  22 2868
  31 2869
  28 2870
  37 2871
  22 2872
  34 2873
  31 2874
  27 2875
  26 2876
  21 2877
  19 2878
  32 2879
  35 2880
  18 2881
  22 2882
  31 2883
  22 2884
  19 2885
  34 2886
  29 2887
  27 2888
  31 2889
  25 2890
  28 2891
  24 2892
  23 2893
  19 2894
  15 2895
  31 2896
  27 2897
  18 2898
  24 2899
  18 2900
  23 2901
  20 2902
  24 2903
  29 2904
  25 2905
  21 2906
  23 2907
  37 2908
  19 2909
  29 2910
  26 2911
  19 2912
  29 2913
  26 2914
  26 2915
  24 2916
  36 2917
  27 2918
  26 2919
  21 2920
  23 2921
  26 2922
  23 2923
  20 2924
  23 2925
  28 2926
  23 2927
  26 2928
  19 2929
  24 2930
  21 2931
  21 2932
  27 2933
  22 2934
  22 2935
  22 2936
  16 2937
  20 2938
  30 2939
  19 2940
  22 2941
  17 2942
  16 2943
  18 2944
  22 2945
  30 2946
  34 2947
  34 2948
  25 2949
  25 2950
  18 2951
  24 2952
  30 2953
  17 2954
  20 2955
  23 2956
  19 2957
  26 2958
  21 2959
  16 2960
  26 2961
  20 2962
  17 2963
  25 2964
  23 2965
  22 2966
  18 2967
  23 2968
  28 2969
  29 2970
  26 2971
  27 2972
  19 2973
  21 2974
  18 2975
  23 2976
  23 2977
  23 2978
  26 2979
  18 2980
  15 2981
  27 2982
  15 2983
  26 2984
  26 2985
  29 2986
  20 2987
  17 2988
  16 2989
  15 2990
  18 2991
  30 2992
  27 2993
  23 2994
  21 2995
  27 2996
  23 2997
  24 2998
  31 2999
  14 3000
  24 3001
  27 3002
  16 3003
  19 3004
  24 3005
  24 3006
  24 3007
  25 3008
  23 3009
  21 3010
  24 3011
  22 3012
  23 3013
  15 3014
  26 3015
  20 3016
  17 3017
  21 3018
  28 3019
  21 3020
  24 3021
  28 3022
  26 3023
  17 3024
  24 3025
  26 3026
  25 3027
  21 3028
  26 3029
  15 3030
  14 3031
  23 3032
  15 3033
  23 3034
  19 3035
  29 3036
  18 3037
  19 3038
  30 3039
  26 3040
  15 3041
  11 3042
  20 3043
  16 3044
  28 3045
  22 3046
  17 3047
  26 3048
  11 3049
  29 3050
  23 3051
  23 3052
  22 3053
  13 3054
  24 3055
  21 3056
  21 3057
  35 3058
  21 3059
  16 3060
  27 3061
  19 3062
  23 3063
  20 3064
  17 3065
  22 3066
  15 3067
  26 3068
  20 3069
  20 3070
  16 3071
  17 3072
  24 3073
  15 3074
  23 3075
  12 3076
  15 3077
  14 3078
  15 3079
  24 3080
  16 3081
  18 3082
  17 3083
  21 3084
  15 3085
  22 3086
  19 3087
  19 3088
  27 3089
  23 3090
  26 3091
  20 3092
  21 3093
  23 3094
  18 3095
  16 3096
  20 3097
  18 3098
  15 3099
  17 3100
  24 3101
  15 3102
  19 3103
  20 3104
  20 3105
  23 3106
  22 3107
  21 3108
  25 3109
  18 3110
  24 3111
  16 3112
  16 3113
  13 3114
  16 3115
  19 3116
  18 3117
  19 3118
  23 3119
  19 3120
  16 3121
  23 3122
  26 3123
  12 3124
  13 3125
  18 3126
  21 3127
  19 3128
  15 3129
  13 3130
  16 3131
  22 3132
  22 3133
  15 3134
  18 3135
  20 3136
  13 3137
  14 3138
  15 3139
  11 3140
  17 3141
  16 3142
  15 3143
  26 3144
  18 3145
  18 3146
  12 3147
  11 3148
  28 3149
  23 3150
  22 3151
  20 3152
  16 3153
  13 3154
  22 3155
  21 3156
  14 3157
  24 3158
  11 3159
  15 3160
  21 3161
  19 3162
  22 3163
  25 3164
  15 3165
  18 3166
  20 3167
  20 3168
  24 3169
  11 3170
  14 3171
  18 3172
  13 3173
  21 3174
  17 3175
  12 3176
  14 3177
  19 3178
  16 3179
  24 3180
   7 3181
  20 3182
  21 3183
  18 3184
  16 3185
  17 3186
  10 3187
  18 3188
  21 3189
  15 3190
  23 3191
  22 3192
  20 3193
  19 3194
  10 3195
  16 3196
  16 3197
  17 3198
  17 3199
  18 3200
  14 3201
  15 3202
  14 3203
  15 3204
  17 3205
  17 3206
  14 3207
  16 3208
  13 3209
  19 3210
  28 3211
  17 3212
  15 3213
  20 3214
  20 3215
  18 3216
  16 3217
  22 3218
  17 3219
  13 3220
  19 3221
  22 3222
  18 3223
  16 3224
  15 3225
  24 3226
  16 3227
  20 3228
  12 3229
  21 3230
  17 3231
  11 3232
  19 3233
  24 3234
  12 3235
  15 3236
  12 3237
  17 3238
  18 3239
  19 3240
  14 3241
  18 3242
  16 3243
  24 3244
  23 3245
  16 3246
  11 3247
   6 3248
  23 3249
  14 3250
  11 3251
  26 3252
  12 3253
  18 3254
  21 3255
  13 3256
  19 3257
  15 3258
  20 3259
  18 3260
  12 3261
  18 3262
  14 3263
  12 3264
  20 3265
  16 3266
  12 3267
  14 3268
  18 3269
  13 3270
  20 3271
  15 3272
  20 3273
  12 3274
  16 3275
  13 3276
  17 3277
  12 3278
  19 3279
  17 3280
  12 3281
   9 3282
  16 3283
  14 3284
  13 3285
  22 3286
  19 3287
  13 3288
  18 3289
  10 3290
  20 3291
  11 3292
  15 3293
  22 3294
  11 3295
  23 3296
  16 3297
  24 3298
  11 3299
  12 3300
  14 3301
  16 3302
  15 3303
  17 3304
  17 3305
  14 3306
  15 3307
  17 3308
  12 3309
  15 3310
  14 3311
  12 3312
  17 3313
  15 3314
  20 3315
  11 3316
  15 3317
  13 3318
  15 3319
  14 3320
  16 3321
  14 3322
  19 3323
  10 3324
  12 3325
  19 3326
  12 3327
  16 3328
  18 3329
  15 3330
  16 3331
   8 3332
  26 3333
  13 3334
  25 3335
  14 3336
  16 3337
  14 3338
  20 3339
  21 3340
  17 3341
  11 3342
  19 3343
  15 3344
  12 3345
  13 3346
  16 3347
  16 3348
  10 3349
  15 3350
  16 3351
  12 3352
  11 3353
   9 3354
   9 3355
  15 3356
  13 3357
  10 3358
   7 3359
  16 3360
  13 3361
  18 3362
  15 3363
  13 3364
  12 3365
  14 3366
  20 3367
  15 3368
  15 3369
  10 3370
  18 3371
  17 3372
  22 3373
  18 3374
  24 3375
  13 3376
  13 3377
  15 3378
  21 3379
  13 3380
  16 3381
  19 3382
  15 3383
  11 3384
  12 3385
  15 3386
  17 3387
   9 3388
  14 3389
  13 3390
  11 3391
  10 3392
  14 3393
  21 3394
  12 3395
  17 3396
  18 3397
   9 3398
  17 3399
  15 3400
  12 3401
  14 3402
   9 3403
  12 3404
  10 3405
  10 3406
  13 3407
  12 3408
  17 3409
  18 3410
   9 3411
  15 3412
  15 3413
  18 3414
  14 3415
  12 3416
  11 3417
  12 3418
  10 3419
  10 3420
  12 3421
  17 3422
  10 3423
  13 3424
  14 3425
  21 3426
  14 3427
  14 3428
  11 3429
   8 3430
  11 3431
  12 3432
  12 3433
  14 3434
  18 3435
  14 3436
  14 3437
  16 3438
  20 3439
  10 3440
  14 3441
  10 3442
  11 3443
  15 3444
  13 3445
  13 3446
  12 3447
  12 3448
  10 3449
  10 3450
  13 3451
  12 3452
  14 3453
  14 3454
   7 3455
   8 3456
  12 3457
  13 3458
  10 3459
  10 3460
   8 3461
  13 3462
  14 3463
  11 3464
   4 3465
  12 3466
  11 3467
  14 3468
  10 3469
  20 3470
   8 3471
  11 3472
   9 3473
  10 3474
  13 3475
  17 3476
   3 3477
  14 3478
  15 3479
   5 3480
  14 3481
  14 3482
   9 3483
  14 3484
  10 3485
  11 3486
  11 3487
   7 3488
  10 3489
  13 3490
  11 3491
  15 3492
  13 3493
  13 3494
  17 3495
   4 3496
   7 3497
  11 3498
  14 3499
   9 3500
  13 3501
  10 3502
  12 3503
  12 3504
  11 3505
   8 3506
  17 3507
  11 3508
  10 3509
  12 3510
  16 3511
  10 3512
  12 3513
  10 3514
   8 3515
  10 3516
  12 3517
   8 3518
  16 3519
  11 3520
  10 3521
  16 3522
  14 3523
  13 3524
  12 3525
  10 3526
  14 3527
  14 3528
  12 3529
   6 3530
  17 3531
  11 3532
   9 3533
  14 3534
  16 3535
  16 3536
  10 3537
  16 3538
  11 3539
   5 3540
  16 3541
   8 3542
   8 3543
  12 3544
   2 3545
  15 3546
  16 3547
  17 3548
   7 3549
  10 3550
  10 3551
   7 3552
  15 3553
   9 3554
  13 3555
   8 3556
   8 3557
   9 3558
  17 3559
  10 3560
  14 3561
  11 3562
   9 3563
  10 3564
   9 3565
  14 3566
  10 3567
  11 3568
   9 3569
  12 3570
   6 3571
   9 3572
  10 3573
  14 3574
  14 3575
  10 3576
  12 3577
  17 3578
  13 3579
  11 3580
  11 3581
   8 3582
  11 3583
  12 3584
   8 3585
   8 3586
   4 3587
   9 3588
   8 3589
  13 3590
   7 3591
  15 3592
   6 3593
   4 3594
   6 3595
  11 3596
  11 3597
   7 3598
   6 3599
  10 3600
  12 3601
  11 3602
   9 3603
  12 3604
   8 3605
   6 3606
  13 3607
   7 3608
  12 3609
   8 3610
  10 3611
   3 3612
   5 3613
   6 3614
  16 3615
  15 3616
  11 3617
  10 3618
  14 3619
   4 3620
  11 3621
  11 3622
  12 3623
   6 3624
   4 3625
   9 3626
   9 3627
   8 3628
  11 3629
  10 3630
   8 3631
  11 3632
   8 3633
  11 3634
   6 3635
   6 3636
  11 3637
   8 3638
  10 3639
  17 3640
  12 3641
  11 3642
  12 3643
  13 3644
   5 3645
   5 3646
  10 3647
  11 3648
   4 3649
   6 3650
  10 3651
   8 3652
   8 3653
  13 3654
   8 3655
  14 3656
  12 3657
  15 3658
   5 3659
   9 3660
   8 3661
   9 3662
   5 3663
   6 3664
   8 3665
  14 3666
  12 3667
   3 3668
  12 3669
   4 3670
   5 3671
  11 3672
   7 3673
   6 3674
   6 3675
  11 3676
  12 3677
   9 3678
  11 3679
  10 3680
  18 3681
  11 3682
   8 3683
  10 3684
  14 3685
  11 3686
   9 3687
   8 3688
   6 3689
   6 3690
   8 3691
   8 3692
   8 3693
  14 3694
  11 3695
  12 3696
  11 3697
  11 3698
   6 3699
  10 3700
  13 3701
   7 3702
  10 3703
   9 3704
  13 3705
  14 3706
  15 3707
   6 3708
   8 3709
  14 3710
  10 3711
   9 3712
   4 3713
   8 3714
  12 3715
   9 3716
   8 3717
  10 3718
  17 3719
   8 3720
   7 3721
  12 3722
   4 3723
   6 3724
   6 3725
  10 3726
   7 3727
   5 3728
   9 3729
  11 3730
   9 3731
   5 3732
  10 3733
   7 3734
  15 3735
   8 3736
   8 3737
   9 3738
  11 3739
   8 3740
   6 3741
  13 3742
   8 3743
   9 3744
  11 3745
  10 3746
  18 3747
   8 3748
   7 3749
   6 3750
   5 3751
  12 3752
   7 3753
   5 3754
  11 3755
  10 3756
  10 3757
  16 3758
   5 3759
   8 3760
   8 3761
   8 3762
  14 3763
   8 3764
  10 3765
   5 3766
   7 3767
   7 3768
  10 3769
  10 3770
  10 3771
  11 3772
   8 3773
  13 3774
   9 3775
  11 3776
   9 3777
   5 3778
  10 3779
   5 3780
   6 3781
   3 3782
  10 3783
  10 3784
  10 3785
  13 3786
   5 3787
   9 3788
   8 3789
   9 3790
   7 3791
  11 3792
  12 3793
   7 3794
  11 3795
   6 3796
   5 3797
  10 3798
   9 3799
  12 3800
   6 3801
  10 3802
  13 3803
  11 3804
  10 3805
  10 3806
  15 3807
   7 3808
  11 3809
   8 3810
   4 3811
   9 3812
   7 3813
  10 3814
   9 3815
  11 3816
   9 3817
   9 3818
  10 3819
  13 3820
   8 3821
  11 3822
  17 3823
   7 3824
  16 3825
  13 3826
   4 3827
   4 3828
   4 3829
   5 3830
  11 3831
  11 3832
   7 3833
   6 3834
   9 3835
   9 3836
   6 3837
   7 3838
   6 3839
   8 3840
   4 3841
   8 3842
   4 3843
  15 3844
   9 3845
  10 3846
   6 3847
   6 3848
  14 3849
   8 3850
   4 3851
   3 3852
   5 3853
   8 3854
   8 3855
   4 3856
   3 3857
   9 3858
   8 3859
   4 3860
   6 3861
  14 3862
   7 3863
  14 3864
  13 3865
   8 3866
   2 3867
   5 3868
   6 3869
  13 3870
   5 3871
   5 3872
   7 3873
   7 3874
   6 3875
   4 3876
  16 3877
   8 3878
   6 3879
   9 3880
   5 3881
   8 3882
   5 3883
   8 3884
   9 3885
   8 3886
   6 3887
   9 3888
  11 3889
   9 3890
   9 3891
  14 3892
   8 3893
   5 3894
   6 3895
   7 3896
   7 3897
   4 3898
   7 3899
  12 3900
  12 3901
  11 3902
   6 3903
   9 3904
   6 3905
   6 3906
  10 3907
  10 3908
   7 3909
   6 3910
  12 3911
   5 3912
   9 3913
   6 3914
   7 3915
   5 3916
   5 3917
   6 3918
  14 3919
  10 3920
   4 3921
   4 3922
   4 3923
   7 3924
   9 3925
  12 3926
  10 3927
   4 3928
   5 3929
   6 3930
   7 3931
   2 3932
   5 3933
   7 3934
  10 3935
  10 3936
   8 3937
   5 3938
   5 3939
   8 3940
   6 3941
   9 3942
   8 3943
   5 3944
   5 3945
   9 3946
   5 3947
   3 3948
  14 3949
   2 3950
  11 3951
   7 3952
   5 3953
   8 3954
   7 3955
   4 3956
   7 3957
  10 3958
  11 3959
   4 3960
   1 3961
   1 3962
   8 3963
   6 3964
  11 3965
   7 3966
   6 3967
   6 3968
   9 3969
   6 3970
   6 3971
  11 3972
   5 3973
   8 3974
  10 3975
   5 3976
   9 3977
   5 3978
   4 3979
   4 3980
   9 3981
   9 3982
  11 3983
   8 3984
   8 3985
   5 3986
   6 3987
   6 3988
   5 3989
   9 3990
   7 3991
   6 3992
  10 3993
   9 3994
   8 3995
  10 3996
  11 3997
   6 3998
  13 3999
   6 4000
   7 4001
  10 4002
   5 4003
   5 4004
   5 4005
   8 4006
   9 4007
   6 4008
   8 4009
   5 4010
   7 4011
  11 4012
   5 4013
   6 4014
   6 4015
   5 4016
   8 4017
   6 4018
   3 4019
   7 4020
   5 4021
   3 4022
   3 4023
   9 4024
   7 4025
   6 4026
   4 4027
   4 4028
   8 4029
   7 4030
   4 4031
   8 4032
  10 4033
   5 4034
   5 4035
   9 4036
   5 4037
   6 4038
   4 4039
   5 4040
   7 4041
   7 4042
   1 4043
   4 4044
   8 4045
   4 4046
   6 4047
   8 4048
   5 4049
   8 4050
   7 4051
   5 4052
   6 4053
   5 4054
   4 4055
  11 4056
   7 4057
  11 4058
   7 4059
   6 4060
   6 4061
   9 4062
   8 4063
   4 4064
   4 4065
   9 4066
  12 4067
   6 4068
  12 4069
   4 4070
   5 4071
   8 4072
   8 4073
   7 4074
  10 4075
   3 4076
   8 4077
   1 4078
   2 4079
   3 4080
   8 4081
  11 4082
  11 4083
   5 4084
   3 4085
   8 4086
   4 4087
   4 4088
   7 4089
   2 4090
   4 4091
  10 4092
   7 4093
   7 4094
   6 4095
   2 4096
   6 4097
   9 4098
   3 4099
   6 4100
   6 4101
   5 4102
   8 4103
   7 4104
   6 4105
   3 4106
   9 4107
   4 4108
   4 4109
   7 4110
   6 4111
   6 4112
   4 4113
   5 4114
   5 4115
   6 4116
   7 4117
   5 4118
   7 4119
   5 4120
   3 4121
   5 4122
   3 4123
   4 4124
   6 4125
  18 4126
   5 4127
   3 4128
   4 4130
   8 4131
   5 4132
   6 4133
   5 4134
   8 4135
   3 4136
   6 4137
   3 4138
   3 4139
   3 4140
   7 4141
   2 4142
   5 4143
   7 4144
   6 4146
  11 4147
   5 4148
   4 4149
   3 4150
   9 4151
   3 4152
   8 4153
   6 4154
   3 4155
  12 4156
   4 4157
   8 4158
   7 4159
   4 4160
   8 4161
   4 4162
   5 4163
   6 4164
   3 4165
   7 4166
  14 4167
   5 4168
   2 4169
   2 4170
   5 4171
   7 4172
   5 4173
   4 4174
   6 4175
   4 4176
   5 4177
   3 4178
   4 4179
   6 4180
   4 4181
   6 4182
   3 4183
  10 4184
   8 4185
   7 4186
   9 4187
   1 4188
   5 4189
   7 4190
   5 4191
   2 4192
   4 4193
   2 4194
   5 4195
   8 4196
   4 4197
   6 4198
   7 4199
   4 4200
   9 4201
   5 4202
   4 4203
   5 4204
   5 4205
  12 4206
   6 4207
  11 4208
   4 4209
   6 4210
   5 4211
   2 4212
   4 4213
   8 4214
   7 4215
   8 4216
   4 4217
   5 4218
   3 4219
   6 4220
   8 4221
   4 4222
   5 4223
   4 4224
   6 4225
   3 4226
   3 4227
   5 4228
   3 4229
   4 4230
   2 4231
   5 4232
   4 4233
   5 4234
   3 4235
   4 4236
   2 4237
   7 4238
   4 4239
   6 4240
   6 4241
   3 4242
   7 4243
   7 4244
   4 4245
   6 4246
   6 4247
   7 4248
   6 4249
   2 4250
   1 4251
   3 4252
   5 4253
   2 4254
   9 4255
   7 4256
   6 4257
   5 4258
   4 4259
   8 4260
   5 4261
   6 4262
   7 4263
   5 4264
   1 4265
   4 4266
   6 4267
   7 4268
   2 4269
   7 4270
   5 4271
   2 4272
   9 4273
   4 4274
   6 4275
   5 4276
   3 4277
   7 4278
   3 4279
   9 4280
   3 4281
   8 4282
   8 4283
   7 4284
   5 4285
   5 4286
   8 4287
   4 4288
   7 4289
   3 4290
   6 4291
   5 4292
   4 4293
   1 4294
   2 4295
   4 4296
   5 4297
   5 4298
   6 4299
   3 4300
   3 4301
   4 4302
   7 4303
   5 4304
   5 4305
  10 4306
   4 4307
   4 4308
   3 4309
   3 4310
   7 4311
   4 4312
   7 4313
   5 4314
   5 4315
   2 4316
   1 4317
   2 4318
   4 4319
   3 4320
   7 4321
   3 4322
   5 4323
   2 4324
   6 4325
   2 4326
   6 4327
   8 4328
   5 4329
   3 4330
   4 4331
   7 4332
   5 4333
   6 4334
   6 4335
   4 4336
   7 4337
   3 4338
   7 4339
   1 4340
   1 4341
   8 4342
   5 4343
   2 4344
   1 4345
   3 4346
   2 4347
   4 4348
   6 4349
   9 4350
   6 4351
  11 4352
   5 4353
   1 4354
   1 4355
   2 4356
   6 4357
   4 4358
   3 4359
   5 4360
   6 4361
   4 4362
   4 4363
   4 4364
   2 4365
   6 4366
   6 4367
   3 4368
   3 4369
   5 4370
   6 4371
   7 4372
   8 4373
   5 4374
   5 4375
   3 4376
   5 4377
   2 4378
   1 4379
  13 4380
   5 4381
   7 4382
   3 4383
   4 4384
   2 4385
   4 4387
   2 4388
   5 4389
   6 4390
   2 4391
   2 4392
   3 4393
   3 4394
   8 4395
   7 4396
   1 4397
   5 4398
   5 4399
   6 4400
   5 4401
   3 4402
   2 4403
   4 4404
   4 4405
  10 4406
   3 4407
   7 4408
   3 4409
   6 4410
   8 4411
   2 4412
   4 4413
   2 4414
   7 4415
   3 4416
   2 4417
   5 4418
   8 4419
   2 4420
   2 4421
   5 4422
   5 4423
   6 4424
   1 4425
   3 4426
   5 4427
   2 4428
   5 4429
   5 4430
   4 4431
   2 4432
   1 4433
   8 4434
   5 4435
   6 4436
   9 4437
   6 4438
   4 4439
   7 4440
   5 4441
   4 4442
   6 4443
   4 4444
   4 4445
   5 4446
   6 4447
   3 4448
   7 4449
   2 4450
   7 4451
   5 4452
   1 4453
   1 4454
   6 4456
   5 4457
   2 4458
   6 4459
   2 4460
   3 4461
   6 4462
   6 4463
   6 4464
   7 4465
   4 4466
   5 4467
   3 4468
   2 4469
   6 4470
   4 4471
   5 4472
   3 4473
   3 4474
   3 4475
   4 4476
   3 4477
   3 4478
   3 4479
   3 4481
   1 4482
   3 4483
   2 4484
   4 4485
   4 4486
   3 4487
   1 4488
   9 4489
   6 4490
   1 4491
   1 4492
   4 4493
   7 4494
   6 4495
   6 4496
   3 4497
   4 4498
   2 4499
   6 4500
   4 4501
   3 4502
   5 4503
   1 4504
   5 4505
   4 4506
   3 4507
   2 4508
   4 4509
   5 4510
   5 4511
   2 4512
   8 4513
   5 4514
   4 4515
   8 4516
   2 4517
   3 4518
   3 4519
   6 4520
   6 4521
   4 4522
   4 4523
   3 4524
   4 4525
   7 4526
   6 4527
   3 4528
   4 4529
   7 4530
   4 4531
   1 4532
   4 4533
   4 4534
   4 4535
   2 4536
   4 4537
   6 4538
   1 4539
   5 4540
   6 4541
   5 4542
   3 4543
   2 4544
   6 4545
   3 4546
   6 4547
   5 4548
   2 4549
   1 4550
   4 4551
   6 4552
   3 4553
   8 4554
   5 4555
   2 4556
   3 4557
   6 4558
   5 4559
   5 4560
   6 4561
   6 4562
   4 4563
   4 4564
   6 4565
   7 4566
   4 4567
   4 4568
   8 4569
   4 4570
   3 4571
   2 4572
   8 4573
   5 4574
   5 4575
   4 4576
   5 4577
   2 4578
   6 4579
   5 4580
   4 4581
   3 4582
   4 4583
   6 4584
   3 4585
   5 4586
   4 4587
   3 4588
   6 4589
   5 4590
   6 4591
   3 4592
   3 4593
   6 4594
   5 4595
   4 4596
   7 4597
   7 4598
   3 4599
   3 4600
   4 4601
   7 4602
   1 4603
   3 4604
   5 4605
   2 4606
   6 4607
   5 4608
   4 4609
   4 4610
   4 4611
   4 4612
   3 4613
   7 4614
   2 4615
   2 4616
   7 4617
   6 4618
   7 4619
   3 4620
   4 4621
   1 4622
   4 4623
   4 4624
   3 4625
   7 4626
   4 4627
   3 4628
   1 4629
   4 4630
   7 4631
   4 4632
   5 4633
   3 4634
   6 4635
   3 4636
   8 4637
   5 4638
   4 4639
   1 4640
   3 4641
   2 4642
   3 4643
   4 4644
   2 4645
   6 4646
   8 4647
   5 4648
   7 4649
   3 4650
   3 4651
   4 4652
   3 4653
   3 4654
   6 4655
   5 4656
  11 4657
   6 4658
   5 4659
   2 4660
   4 4661
   5 4662
   7 4663
   8 4664
   6 4665
   4 4666
   5 4667
   5 4668
   8 4669
   6 4670
   5 4671
   6 4672
   7 4673
   2 4674
   7 4675
   5 4676
   3 4677
   5 4678
   5 4679
   2 4680
   5 4681
   5 4682
   8 4683
   6 4684
   1 4685
   7 4686
   4 4687
   4 4688
   5 4689
   5 4690
   5 4691
   4 4692
   3 4693
   4 4694
   4 4695
   3 4696
   1 4697
   4 4699
   8 4700
   4 4701
   3 4702
   4 4703
   2 4704
   4 4705
   5 4706
   3 4707
   3 4708
   3 4709
   5 4710
   3 4711
   3 4712
   4 4713
   1 4714
   2 4715
   3 4716
   4 4717
   3 4718
   2 4719
   3 4720
   1 4721
   1 4722
   3 4723
   7 4724
   5 4725
   6 4726
   3 4727
   5 4728
   7 4729
   2 4730
   2 4731
   5 4732
   5 4734
   3 4735
   5 4736
   3 4737
   2 4738
   4 4739
   3 4740
   3 4741
   9 4742
   1 4743
   1 4744
   6 4745
   5 4746
   3 4747
   6 4748
   2 4749
   5 4751
   7 4752
   3 4753
   4 4754
   4 4755
   2 4756
   3 4757
   3 4758
   7 4759
   5 4760
   6 4761
   5 4762
   4 4763
   3 4764
   3 4765
   5 4766
   3 4767
   1 4768
   7 4769
   1 4770
   4 4771
   2 4772
   1 4774
   1 4775
   4 4776
   3 4777
   4 4778
   4 4779
   2 4780
   2 4781
   4 4782
   4 4783
  10 4784
   3 4785
   5 4786
   7 4787
   4 4788
   2 4789
   7 4790
   3 4791
   5 4792
   3 4793
   5 4794
   3 4795
   1 4796
   2 4797
   4 4798
   3 4800
   2 4801
   4 4802
   5 4803
   3 4804
   5 4805
   6 4806
   3 4807
   3 4808
   1 4809
   3 4810
   3 4811
   2 4812
   5 4813
   3 4814
   4 4815
   4 4816
   5 4817
   2 4818
   2 4819
   3 4820
   2 4821
   3 4822
   5 4825
   4 4827
   4 4828
   2 4829
   2 4830
   4 4833
   3 4834
   2 4835
   5 4836
   2 4837
   5 4838
   3 4839
   3 4840
   2 4841
   2 4842
   3 4843
   6 4844
   3 4845
   3 4846
   3 4847
   2 4848
   5 4849
   1 4850
   4 4851
   4 4852
   5 4853
   4 4854
   4 4855
   4 4856
   1 4857
   4 4858
   2 4860
   1 4861
   4 4862
   3 4863
   2 4864
   1 4865
   5 4866
   3 4867
   2 4868
   6 4869
   3 4870
   3 4871
   2 4872
   5 4873
   3 4874
   2 4875
   2 4876
   3 4877
   3 4878
   4 4880
   3 4881
   3 4882
   2 4883
   3 4884
   1 4885
   5 4886
   1 4887
   5 4888
   4 4889
   1 4890
   2 4891
   5 4892
   1 4893
   2 4894
   4 4895
   3 4897
   2 4898
   3 4899
   1 4900
   3 4901
   4 4902
   4 4904
   7 4905
   3 4906
   1 4907
   5 4908
   5 4909
   2 4910
   5 4911
   4 4912
   3 4913
   1 4914
   3 4915
   6 4917
   3 4918
   2 4919
   2 4920
   2 4921
   1 4922
   6 4923
   1 4924
   2 4925
   3 4927
   3 4928
   4 4930
   2 4931
   3 4932
   2 4933
   2 4934
   3 4936
   1 4937
   3 4938
   1 4939
   2 4940
   3 4941
   7 4942
   1 4943
   2 4944
   1 4945
   1 4946
   1 4947
   1 4948
   2 4949
   2 4950
   6 4951
   1 4952
   3 4953
   1 4954
   4 4955
   1 4956
   3 4957
   1 4958
   1 4959
   1 4960
   1 4961
   1 4962
   2 4964
   3 4965
   3 4966
   3 4967
   3 4968
   5 4969
   7 4970
   2 4971
   2 4972
   6 4973
   2 4974
   2 4975
   2 4976
   3 4977
   2 4978
   2 4979
   3 4980
   3 4981
   1 4982
   3 4983
   2 4984
   2 4986
   1 4987
   3 4988
   3 4989
   4 4990
   4 4992
   3 4993
   2 4995
   3 4996
   5 4997
   2 4998
   2 5000
   1 5002
   1 5003
   1 5004
   1 5005
   1 5006
   1 5007
   3 5008
   1 5009
   1 5010
   2 5011
   4 5012
   2 5013
   2 5014
   2 5015
   2 5016
   1 5017
   1 5018
   1 5019
   4 5020
   3 5021
   3 5022
   1 5023
   2 5024
   4 5025
   1 5026
   3 5027
   3 5028
   4 5029
   2 5030
   2 5031
   3 5032
   1 5033
   3 5034
   2 5035
   1 5036
   1 5037
   1 5038
   1 5039
   1 5041
   1 5042
   2 5043
   5 5044
   1 5045
   4 5046
   3 5047
   3 5049
   2 5050
   5 5051
   3 5052
   4 5053
   3 5054
   4 5055
   2 5056
   4 5057
   4 5058
   3 5059
   2 5062
   2 5063
   1 5064
   1 5065
   4 5066
   2 5067
   1 5068
   4 5069
   3 5070
   2 5071
   1 5072
   2 5074
   4 5075
   2 5076
   1 5077
   1 5079
   2 5080
   1 5081
   3 5082
   2 5083
   3 5084
   2 5085
   3 5086
   3 5087
   4 5088
   2 5089
   1 5090
   1 5091
   1 5092
   2 5093
   1 5094
   2 5095
   1 5096
   3 5097
   1 5098
   1 5100
   2 5101
   2 5102
   1 5104
   1 5105
   2 5106
   2 5107
   1 5108
   2 5109
   1 5111
   2 5112
   2 5113
   2 5114
   4 5115
   4 5116
   2 5117
   1 5118
   5 5120
   1 5121
   2 5123
   1 5124
   2 5125
   1 5126
   1 5127
   1 5128
   1 5129
   5 5130
   2 5131
   1 5132
   1 5133
   1 5134
   4 5135
   1 5136
   1 5137
   1 5138
   1 5139
   2 5140
   3 5141
   3 5142
   1 5143
   1 5144
   3 5145
   2 5146
   3 5147
   4 5148
   1 5149
   1 5150
   1 5152
   1 5153
   2 5154
   2 5155
   2 5157
   2 5158
   5 5159
   2 5160
   1 5161
   1 5162
   2 5163
   2 5164
   3 5165
   3 5166
   3 5167
   4 5168
   1 5169
   4 5170
   6 5171
   1 5172
   1 5174
   2 5175
   2 5176
   4 5177
   1 5178
   2 5180
   4 5181
   2 5182
   2 5183
   3 5184
   2 5185
   2 5187
   1 5188
   3 5189
   1 5190
   3 5191
   3 5192
   1 5193
   3 5194
   1 5196
   2 5197
   4 5198
   3 5199
   1 5201
   1 5202
   2 5203
   2 5204
   2 5205
   3 5206
   4 5207
   1 5208
   1 5210
   2 5211
   1 5212
   1 5213
   2 5214
   2 5215
   2 5216
   5 5219
   4 5221
   1 5223
   3 5224
   2 5226
   2 5228
   1 5230
   3 5231
   2 5233
   2 5234
   1 5235
   3 5236
   5 5237
   3 5238
   2 5239
   4 5240
   1 5242
   2 5243
   2 5244
   4 5245
   1 5246
   2 5247
   2 5248
   2 5249
   2 5250
   2 5251
   3 5252
   2 5253
   1 5254
   4 5255
   3 5256
   1 5258
   1 5259
   2 5261
   4 5262
   1 5263
   2 5264
   1 5265
   3 5266
   2 5267
   2 5268
   2 5269
   1 5270
   2 5271
   2 5272
   1 5273
   4 5274
   3 5275
   1 5276
   2 5277
   2 5278
   3 5279
   1 5280
   1 5281
   3 5282
   4 5283
   1 5284
   3 5285
   1 5286
   1 5287
   2 5288
   2 5289
   2 5290
   2 5291
   1 5293
   1 5294
   2 5295
   3 5297
   1 5298
   2 5299
   1 5300
   1 5301
   2 5302
   2 5303
   2 5304
   2 5305
   1 5306
   3 5307
   2 5308
   1 5309
   2 5310
   3 5311
   2 5312
   1 5313
   1 5315
   2 5316
   3 5317
   3 5318
   1 5319
   1 5320
   1 5321
   5 5322
   3 5323
   3 5324
   3 5325
   2 5326
   2 5327
   1 5328
   2 5329
   1 5330
   2 5331
   2 5332
   2 5333
   2 5335
   1 5336
   6 5337
   2 5338
   3 5339
   1 5340
   1 5341
   1 5342
   5 5343
   2 5344
   3 5345
   1 5346
   2 5347
   1 5348
   2 5349
   1 5352
   1 5354
   3 5355
   1 5356
   2 5357
   1 5358
   2 5360
   1 5361
   1 5362
   3 5363
   1 5364
   1 5366
   4 5367
   2 5368
   1 5369
   1 5371
   2 5373
   1 5375
   2 5377
   1 5379
   2 5380
   4 5382
   3 5383
   2 5384
   1 5385
   2 5387
   3 5388
   3 5389
   1 5390
   1 5391
   1 5392
   1 5393
   1 5394
   1 5395
   1 5397
   4 5398
   1 5399
   2 5400
   1 5401
   2 5402
   4 5403
   2 5404
   1 5405
   1 5406
   1 5409
   4 5410
   1 5411
   1 5412
   1 5413
   1 5414
   1 5415
   1 5416
   1 5417
   3 5418
   1 5419
   4 5420
   2 5421
   1 5422
   3 5423
   1 5424
   1 5425
   3 5426
   5 5427
   2 5428
   1 5430
   1 5431
   2 5432
   3 5434
   5 5435
   2 5436
   1 5437
   2 5438
   1 5439
   6 5442
   2 5443
   3 5444
   3 5445
   3 5446
   2 5448
   2 5449
   1 5450
   2 5452
   2 5453
   2 5454
   1 5455
   2 5456
   2 5457
   2 5458
   2 5460
   4 5461
   2 5462
   1 5463
   2 5464
   1 5466
   3 5468
   3 5469
   1 5470
   2 5471
   4 5473
   2 5474
   2 5475
   3 5476
   2 5477
   1 5478
   1 5479
   1 5480
   1 5482
   1 5483
   1 5484
   2 5486
   1 5487
   3 5488
   3 5489
   3 5490
   2 5491
   2 5492
   1 5493
   2 5495
   1 5497
   4 5500
   1 5502
   1 5504
   1 5505
   3 5506
   2 5507
   1 5508
   2 5509
   1 5510
   3 5512
   3 5513
   1 5514
   1 5515
   2 5516
   2 5517
   2 5518
   2 5520
   2 5521
   1 5522
   1 5523
   1 5525
   5 5526
   1 5528
   2 5529
   2 5530
   2 5532
   3 5533
   2 5534
   1 5535
   1 5537
   3 5538
   1 5539
   1 5541
   2 5542
   1 5543
   1 5544
   1 5545
   2 5546
   3 5547
   2 5548
   2 5549
   1 5551
   1 5552
   2 5553
   1 5555
   4 5556
   1 5557
   2 5559
   1 5562
   1 5563
   4 5567
   1 5568
   2 5569
   1 5570
   2 5572
   1 5573
   1 5574
   2 5575
   2 5576
   1 5580
   3 5581
   2 5582
   1 5583
   2 5584
   2 5585
   1 5586
   2 5587
   1 5589
   1 5590
   2 5591
   1 5592
   1 5594
   1 5598
   2 5601
   4 5603
   1 5604
   1 5605
   2 5606
   2 5608
   4 5609
   4 5610
   1 5611
   4 5614
   1 5615
   2 5616
   4 5617
   2 5618
   1 5623
   1 5624
   2 5625
   2 5626
   2 5627
   2 5628
   1 5629
   1 5630
   1 5631
   1 5632
   1 5633
   2 5634
   1 5635
   2 5636
   1 5639
   1 5640
   1 5641
   1 5644
   3 5645
   1 5646
   3 5647
   1 5649
   2 5650
   1 5652
   4 5653
   5 5654
   1 5656
   1 5657
   1 5658
   1 5659
   2 5660
   1 5661
   2 5662
   2 5664
   1 5665
   1 5666
   2 5667
   1 5669
   2 5670
   1 5671
   1 5672
   1 5674
   1 5677
   3 5679
   1 5680
   1 5682
   1 5683
   1 5684
   1 5685
   1 5686
   1 5689
   1 5690
   3 5691
   1 5692
   3 5694
   2 5696
   3 5697
   1 5698
   2 5699
   2 5700
   2 5702
   1 5703
   1 5704
   2 5705
   3 5709
   1 5710
   3 5712
   1 5713
   1 5715
   1 5718
   1 5720
   2 5721
   1 5722
   1 5723
   2 5724
   2 5725
   1 5728
   2 5730
   2 5733
   1 5734
   2 5737
   1 5738
   1 5740
   1 5741
   1 5742
   1 5743
   1 5745
   3 5746
   1 5747
   4 5748
   3 5749
   3 5750
   1 5751
   2 5756
   1 5758
   3 5759
   1 5760
   2 5762
   1 5763
   1 5765
   2 5766
   3 5769
   1 5770
   2 5771
   4 5772
   1 5773
   1 5774
   2 5775
   3 5776
   1 5778
   1 5779
   3 5780
   1 5782
   2 5783
   1 5786
   3 5787
   1 5788
   1 5790
   1 5791
   2 5793
   1 5794
   2 5795
   1 5796
   1 5798
   1 5799
   1 5800
   2 5801
   1 5802
   5 5803
   3 5804
   2 5805
   3 5806
   1 5807
   1 5808
   2 5810
   2 5812
   1 5813
   2 5814
   1 5815
   1 5816
   3 5817
   3 5818
   2 5819
   1 5820
   1 5821
   2 5823
   2 5824
   1 5825
   1 5826
   2 5827
   1 5828
   1 5829
   1 5831
   1 5832
   1 5833
   1 5834
   1 5837
   1 5839
   1 5840
   1 5842
   2 5843
   3 5845
   2 5846
   1 5847
   1 5849
   2 5853
   2 5855
   1 5856
   2 5857
   2 5858
   2 5861
   1 5862
   2 5864
   1 5865
   1 5867
   1 5869
   1 5870
   1 5871
   2 5873
   2 5876
   1 5877
   1 5878
   1 5879
   3 5882
   2 5885
   2 5886
   1 5887
   1 5889
   1 5890
   2 5893
   1 5895
   1 5898
   1 5899
   2 5902
   3 5905
   1 5908
   3 5909
   1 5911
   1 5912
   2 5914
   1 5915
   3 5917
   5 5920
   2 5921
   3 5922
   2 5923
   1 5924
   2 5925
   2 5927
   1 5928
   2 5929
   1 5932
   1 5934
   1 5935
   1 5938
   1 5939
   1 5940
   1 5941
   3 5943
   1 5945
   1 5946
   1 5947
   1 5948
   1 5949
   1 5952
   2 5953
   1 5955
   3 5956
   3 5957
   2 5959
   1 5960
   1 5961
   2 5962
   1 5963
   2 5964
   2 5966
   1 5968
   3 5969
   1 5971
   1 5972
   1 5974
   1 5976
   1 5977
   1 5978
   1 5979
   2 5980
   2 5981
   1 5987
   1 5991
   2 5992
   3 5993
   2 5994
   1 5995
   1 5996
   1 5997
   1 5998
   1 5999
   1 6000
   1 6002
   1 6003
   4 6004
   1 6006
   1 6007
   2 6008
   2 6009
   2 6010
   2 6011
   1 6012
   1 6013
   6 6015
   1 6018
   1 6019
   1 6023
   2 6024
   1 6025
   1 6026
   2 6027
   1 6029
   1 6030
   1 6031
   2 6034
   1 6037
   1 6040
   3 6042
   1 6043
   1 6044
   2 6045
   2 6048
   1 6049
   1 6050
   1 6051
   1 6054
   1 6055
   1 6057
   1 6058
   3 6062
   1 6064
   1 6066
   2 6067
   1 6068
   1 6069
   1 6071
   1 6072
   1 6074
   3 6079
   1 6081
   1 6084
   1 6085
   1 6089
   3 6090
   1 6093
   1 6094
   1 6095
   2 6096
   1 6097
   2 6098
   3 6101
   3 6102
   1 6104
   1 6105
   3 6107
   1 6108
   1 6110
   1 6113
   1 6115
   1 6116
   2 6117
   4 6118
   1 6121
   2 6122
   1 6125
   1 6126
   3 6127
   1 6130
   1 6132
   4 6134
   1 6135
   1 6136
   1 6137
   2 6138
   1 6139
   1 6140
   1 6143
   1 6144
   2 6146
   1 6148
   1 6150
   4 6151
   2 6153
   1 6154
   2 6157
   1 6158
   1 6159
   1 6163
   1 6164
   2 6165
   1 6166
   1 6173
   1 6174
   2 6175
   1 6176
   3 6178
   1 6179
   1 6180
   1 6184
   1 6185
   2 6188
   2 6189
   1 6191
   4 6192
   1 6193
   1 6195
   1 6196
   1 6197
   1 6198
   1 6200
   1 6204
   2 6205
   1 6206
   1 6208
   2 6211
   1 6212
   1 6213
   1 6214
   1 6218
   1 6219
   1 6223
   2 6224
   1 6225
   1 6227
   1 6228
   2 6231
   1 6232
   1 6235
   1 6236
   1 6237
   1 6242
   1 6243
   1 6244
   2 6245
   1 6248
   1 6252
   1 6253
   1 6254
   1 6260
   1 6261
   1 6262
   2 6264
   1 6265
   1 6266
   1 6269
   2 6271
   2 6273
   1 6275
   4 6276
   1 6277
   1 6278
   2 6282
   1 6283
   1 6285
   1 6287
   1 6290
   2 6291
   1 6292
   2 6295
   3 6296
   1 6297
   1 6298
   1 6299
   3 6304
   2 6305
   1 6307
   1 6309
   1 6310
   1 6313
   1 6316
   2 6318
   2 6319
   1 6320
   1 6321
   1 6324
   1 6327
   1 6328
   1 6329
   2 6330
   1 6335
   2 6337
   2 6340
   2 6342
   3 6345
   2 6346
   1 6347
   1 6348
   1 6350
   2 6355
   1 6356
   1 6357
   1 6359
   1 6360
   1 6368
   2 6370
   1 6372
   1 6373
   2 6374
   1 6377
   1 6378
   1 6379
   1 6380
   3 6382
   1 6383
   1 6384
   1 6388
   1 6391
   1 6392
   1 6393
   1 6394
   1 6395
   1 6397
   2 6398
   1 6401
   1 6402
   1 6404
   1 6406
   1 6407
   1 6409
   1 6412
   1 6414
   1 6416
   1 6418
   1 6419
   1 6420
   1 6421
   2 6422
   1 6423
   1 6424
   2 6426
   1 6427
   1 6428
   1 6429
   1 6430
   1 6433
   1 6435
   4 6436
   2 6440
   3 6444
   2 6445
   1 6446
   1 6448
   2 6451
   2 6455
   1 6456
   1 6458
   1 6461
   1 6462
   1 6463
   1 6469
   2 6471
   2 6473
   1 6474
   5 6477
   2 6478
   1 6479
   1 6480
   1 6481
   1 6483
   1 6484
   1 6487
   2 6488
   1 6490
   1 6492
   1 6494
   1 6496
   1 6499
   3 6500
   1 6501
   1 6504
   2 6505
   1 6508
   2 6512
   1 6513
   1 6516
   3 6518
   1 6519
   1 6520
   1 6522
   1 6523
   1 6525
   2 6526
   1 6528
   1 6533
   2 6536
   1 6538
   1 6539
   1 6540
   1 6542
   1 6543
   1 6545
   3 6548
   1 6549
   1 6550
   1 6551
   1 6556
   3 6557
   1 6558
   1 6560
   1 6564
   1 6567
   1 6568
   2 6571
   2 6574
   5 6575
   3 6577
   1 6578
   2 6579
   2 6581
   2 6582
   1 6583
   1 6585
   4 6588
   2 6591
   1 6592
   1 6594
   1 6600
   1 6601
   1 6605
   1 6606
   1 6608
   2 6609
   1 6610
   2 6611
   2 6616
   2 6619
   1 6622
   2 6625
   1 6629
   2 6631
   3 6633
   1 6635
   1 6636
   1 6638
   3 6639
   1 6640
   2 6643
   1 6651
   2 6652
   1 6653
   1 6654
   1 6658
   2 6659
   1 6660
   1 6663
   2 6664
   2 6665
   1 6674
   1 6677
   4 6678
   1 6680
   3 6681
   1 6682
   1 6690
   2 6691
   1 6692
   1 6693
   1 6694
   1 6695
   3 6698
   1 6700
   1 6702
   1 6703
   1 6707
   1 6712
   2 6713
   1 6715
   1 6716
   1 6718
   1 6721
   1 6722
   1 6728
   1 6729
   1 6730
   2 6731
   2 6733
   1 6736
   1 6737
   1 6742
   1 6743
   1 6745
   1 6746
   1 6747
   1 6748
   1 6752
   1 6754
   1 6755
   2 6756
   1 6757
   1 6759
   1 6762
   1 6763
   1 6765
   1 6767
   1 6769
   1 6776
   2 6778
   1 6779
   1 6781
   2 6783
   1 6785
   2 6788
   1 6794
   1 6795
   2 6796
   1 6797
   1 6799
   1 6800
   1 6801
   1 6803
   2 6804
   1 6806
   1 6807
   1 6812
   1 6813
   1 6814
   1 6817
   1 6818
   1 6819
   1 6821
   2 6822
   1 6823
   1 6829
   1 6831
   1 6832
   1 6833
   1 6834
   1 6836
   2 6838
   3 6839
   1 6841
   1 6845
   1 6848
   1 6851
   2 6857
   1 6859
   1 6860
   1 6861
   1 6864
   1 6866
   2 6867
   1 6872
   2 6873
   1 6874
   1 6876
   1 6878
   1 6881
   1 6882
   1 6883
   2 6884
   1 6886
   1 6890
   1 6894
   1 6896
   2 6900
   1 6903
   1 6905
   2 6906
   1 6909
   1 6910
   2 6911
   1 6912
   1 6913
   1 6920
   1 6924
   2 6925
   1 6926
   2 6929
   2 6931
   1 6937
   1 6943
   1 6945
   1 6948
   1 6949
   1 6950
   1 6951
   1 6953
   1 6954
   1 6958
   1 6960
   1 6963
   1 6965
   2 6966
   2 6972
   2 6975
   3 6976
   2 6981
   1 6983
   1 6984
   2 6985
   2 6989
   1 6990
   1 6992
   1 7004
   2 7007
   2 7008
   1 7014
   1 7017
   1 7019
   1 7022
   1 7038
   1 7039
   1 7043
   1 7045
   1 7046
   1 7053
   3 7054
   1 7057
   1 7058
   1 7061
   1 7065
   1 7067
   1 7068
   1 7072
   1 7074
   1 7076
   1 7077
   1 7078
   4 7081
   2 7083
   1 7087
   1 7089
   1 7096
   1 7097
   1 7099
   2 7100
   1 7101
   1 7103
   2 7104
   1 7105
   1 7106
   1 7107
   1 7110
   1 7112
   2 7113
   3 7118
   1 7124
   2 7125
   1 7131
   1 7135
   1 7142
   2 7149
   2 7152
   3 7154
   1 7155
   2 7158
   1 7161
   2 7164
   1 7166
   1 7172
   3 7173
   1 7176
   1 7178
   1 7179
   2 7181
   1 7185
   1 7186
   2 7188
   1 7190
   1 7197
   1 7200
   1 7203
   1 7206
   2 7208
   1 7209
   1 7210
   1 7213
   1 7214
   1 7220
   1 7222
   2 7224
   1 7227
   1 7228
   1 7234
   2 7236
   1 7237
   2 7239
   1 7256
   1 7259
   2 7260
   2 7261
   1 7263
   1 7264
   1 7268
   1 7269
   1 7280
   2 7289
   1 7290
   2 7294
   1 7312
   1 7317
   1 7324
   1 7331
   2 7337
   1 7339
   1 7340
   1 7342
   1 7345
   1 7346
   1 7347
   1 7351
   1 7354
   1 7355
   1 7356
   1 7357
   1 7360
   1 7366
   1 7372
   1 7374
   1 7377
   1 7378
   1 7381
   2 7395
   1 7396
   1 7416
   1 7419
   1 7423
   1 7424
   1 7430
   1 7432
   1 7435
   1 7437
   1 7438
   1 7439
   1 7440
   1 7441
   1 7442
   1 7444
   1 7445
   1 7457
   1 7458
   1 7467
   1 7468
   1 7470
   3 7472
   1 7474
   1 7484
   1 7491
   1 7493
   1 7499
   1 7500
   1 7509
   1 7514
   2 7518
   1 7520
   1 7522
   1 7525
   1 7529
   1 7534
   1 7536
   2 7538
   1 7539
   1 7544
   1 7553
   1 7555
   1 7558
   1 7562
   1 7570
   1 7573
   1 7575
   1 7579
   1 7580
   1 7591
   1 7598
   1 7600
   1 7606
   1 7607
   1 7618
   1 7619
   1 7622
   1 7623
   1 7625
   1 7626
   1 7627
   1 7640
   1 7641
   1 7643
   1 7644
   1 7647
   1 7652
   1 7654
   2 7656
   2 7658
   1 7659
   1 7660
   1 7674
   1 7682
   1 7685
   1 7686
   1 7689
   1 7690
   1 7694
   1 7698
   1 7701
   2 7712
   1 7718
   2 7724
   1 7727
   2 7731
   1 7733
   1 7734
   1 7750
   1 7761
   1 7778
   1 7786
   2 7805
   1 7806
   1 7807
   1 7811
   1 7814
   1 7820
   2 7822
   1 7824
   1 7825
   2 7830
   2 7836
   1 7837
   1 7841
   1 7849
   1 7850
   1 7855
   1 7862
   1 7863
   1 7865
   1 7878
   1 7882
   1 7889
   1 7890
   1 7892
   1 7896
   1 7925
   1 7929
   1 7930
   2 7934
   1 7944
   2 7950
   1 7954
   2 7959
   1 7965
   1 7967
   1 7968
   1 7976
   1 7998
   1 8023
   2 8041
   1 8043
   1 8055
   1 8057
   1 8076
   1 8084
   1 8085
   1 8091
   1 8092
   1 8093
   2 8097
   1 8112
   1 8113
   1 8119
   1 8124
   1 8131
   1 8139
   2 8140
   1 8147
   1 8149
   1 8163
   1 8167
   1 8172
   1 8176
   1 8179
   1 8180
   1 8182
   1 8192
   1 8208
   1 8212
   2 8219
   1 8221
   1 8228
   1 8256
   1 8280
   1 8286
   1 8287
   1 8292
   1 8293
   1 8299
   1 8307
   1 8310
   1 8315
   1 8318
   1 8319
   1 8322
   1 8345
   1 8346
   2 8350
   1 8367
   1 8375
   1 8379
   2 8383
   1 8384
   1 8396
   1 8402
   1 8404
   2 8405
   3 8427
   1 8434
   1 8442
   1 8446
   2 8461
   1 8466
   1 8468
   1 8471
   1 8476
   1 8477
   1 8479
   1 8481
   1 8482
   1 8485
   1 8495
   1 8500
   1 8502
   1 8505
   1 8507
   1 8511
   1 8517
   1 8519
   1 8524
   1 8530
   1 8532
   1 8538
   1 8546
   1 8557
   1 8565
   1 8566
   2 8567
   1 8588
   1 8601
   1 8626
   1 8630
   1 8633
   1 8638
   1 8645
   1 8649
   1 8650
   1 8655
   1 8662
   1 8667
   1 8672
   1 8673
   1 8685
   1 8701
   1 8707
   1 8713
   1 8730
   1 8741
   2 8747
   1 8750
   1 8758
   1 8760
   1 8763
   1 8769
   1 8770
   1 8814
   1 8821
   1 8825
   1 8827
   1 8831
   1 8852
   1 8878
   1 8883
   1 8916
   1 8928
   1 8931
   1 8941
   1 8946
   1 8948
   1 8965
   1 8967
   1 8970
   1 8973
   1 8983
   1 8994
   1 9000
   1 9007
   1 9017
   1 9043
   1 9044
   1 9051
   1 9054
   1 9055
   1 9064
   1 9080
   1 9088
   1 9101
   1 9110
   2 9118
   1 9127
   1 9131
   1 9132
   1 9136
   1 9137
   1 9151
   1 9174
   1 9182
   1 9191
   1 9214
   1 9215
   1 9224
   1 9228
   1 9229
   1 9231
   1 9238
   1 9252
   2 9285
   1 9288
   1 9296
   1 9359
   1 9360
   1 9372
   1 9406
   1 9407
   1 9411
   1 9413
   1 9426
   1 9446
   1 9470
   1 9501
   1 9520
   1 9527
   1 9528
   1 9530
   1 9531
   1 9560
   1 9565
   1 9587
   1 9604
   2 9628
   1 9632
   1 9640
   1 9645
   1 9646
   1 9665
   1 9670
   1 9684
   1 9708
   1 9716
   1 9731
   1 9745
   1 9774
   1 9787
   1 9793
   1 9805
   1 9812
   1 9813
   1 9848
   1 9885
   1 9890
   1 9899
   1 9915
   1 9934
   1 9948
   1 9966
   1 9968
   1 9975
   1 9993
   1 10021
   1 10033
   1 10036
   1 10054
   1 10077
   1 10149
   1 10156
   1 10168
   1 10223
   1 10251
   1 10284
   1 10300
   1 10312
   1 10315
   1 10381
   1 10444
   1 10449
   1 10456
   1 10473
   1 10517
   1 10557
   1 10572
   1 10583
   1 10592
   1 10607
   1 10615
   1 10620
   1 10626
   1 10693
   1 10747
   1 10757
   1 10781
   1 10783
   1 10834
   1 10840
   1 10852
   1 10859
   1 10860
   1 10873
   1 10884
   1 10889
   1 10955
   1 10992
   1 11003
   1 11019
   1 11020
   1 11032
   1 11045
   1 11049
   1 11054
   1 11073
   1 11255
   1 11259
   1 11300
   1 11308
   1 11321
   2 11330
   1 11347
   1 11352
   1 11359
   1 11422
   1 11550
   1 11581
   1 11629
   1 11644
   1 11716
   1 11735
   1 11739
   1 11840
   1 11903
   1 11919
   1 11924
   1 11947
   1 11951
   1 11962
   1 11978
   1 12036
   1 12060
   1 12061
   1 12106
   1 12121
   1 12135
   1 12271
   1 12330
   1 12447
   1 12557
   1 12564
   1 12754
   1 12813
   1 12865
   1 12885
   1 13010
   1 13089
   1 13270
   1 13399
   1 13482
   1 13523
   1 13637
   1 13749
   1 14043
   1 14059
   1 14088
   1 14108
   1 14212
   1 14385
   1 14532
   1 14790
   1 14877
   1 15406
   1 15752
   1 15908
   1 16441
   1 17663
   1 17920
   1 18963
   1 19011
   1 19149
   1 20388
   1 20539
   1 20843
   1 21346
   1 23432
   1 29002
