 113 1
 124 2
 631 3
1806 4
2848 5
3427 6
3732 7
3725 8
3545 9
3090 10
2876 11
2548 12
2267 13
2084 14
1892 15
1778 16
1563 17
1421 18
1389 19
1338 20
1218 21
1226 22
1192 23
1148 24
1145 25
1227 26
1243 27
1191 28
1210 29
1317 30
1333 31
1369 32
1374 33
1422 34
1469 35
1440 36
1524 37
1557 38
1597 39
1664 40
1687 41
1661 42
1782 43
1762 44
1779 45
1758 46
1813 47
1875 48
1905 49
1881 50
1881 51
1894 52
1911 53
1962 54
1962 55
2037 56
1951 57
1930 58
2057 59
1940 60
2043 61
2015 62
1988 63
1959 64
2058 65
1991 66
1997 67
2011 68
1980 69
2120 70
1961 71
1993 72
2008 73
2030 74
2003 75
1955 76
2010 77
2014 78
2069 79
2081 80
2089 81
2017 82
1978 83
2053 84
2071 85
2054 86
2092 87
2028 88
2133 89
2061 90
2062 91
2033 92
2062 93
2096 94
2137 95
2089 96
2029 97
2119 98
2098 99
2078 100
2150 101
2179 102
2018 103
2011 104
2084 105
2062 106
2066 107
2078 108
2072 109
2118 110
2002 111
2009 112
2072 113
2037 114
1957 115
2045 116
1988 117
2066 118
2064 119
1999 120
2030 121
1956 122
2045 123
2014 124
2011 125
1965 126
1972 127
2113 128
1970 129
1977 130
1967 131
2040 132
2005 133
2036 134
1949 135
1997 136
2121 137
1892 138
1998 139
2007 140
2016 141
1998 142
2019 143
1976 144
2009 145
1944 146
1942 147
1989 148
2036 149
2036 150
1977 151
2008 152
1944 153
1937 154
2009 155
1948 156
2046 157
1944 158
1940 159
1984 160
1895 161
1820 162
1967 163
1953 164
1861 165
1910 166
1838 167
1876 168
1945 169
1962 170
1922 171
1930 172
1839 173
1884 174
1881 175
1858 176
1908 177
1815 178
1801 179
1872 180
1823 181
1758 182
1892 183
1855 184
1804 185
1811 186
1782 187
1792 188
1787 189
1777 190
1809 191
1775 192
1822 193
1904 194
1768 195
1715 196
1812 197
1800 198
1782 199
1800 200
1818 201
1767 202
1725 203
1735 204
1761 205
1770 206
1754 207
1698 208
1747 209
1732 210
1772 211
1744 212
1756 213
1708 214
1719 215
1667 216
1722 217
1729 218
1733 219
1745 220
1717 221
1762 222
1683 223
1710 224
1679 225
1653 226
1710 227
1767 228
1719 229
1647 230
1664 231
1713 232
1718 233
1618 234
1769 235
1640 236
1665 237
1646 238
1671 239
1616 240
1556 241
1642 242
1729 243
1613 244
1684 245
1661 246
1667 247
1651 248
1635 249
1567 250
1653 251
1607 252
1708 253
1599 254
1539 255
1600 256
1595 257
1597 258
1654 259
1592 260
1583 261
1592 262
1612 263
1662 264
1595 265
1660 266
1622 267
1641 268
1541 269
1562 270
1574 271
1574 272
1608 273
1578 274
1521 275
1498 276
1559 277
1607 278
1547 279
1599 280
1521 281
1512 282
1541 283
1540 284
1591 285
1548 286
1538 287
1541 288
1477 289
1531 290
1561 291
1510 292
1553 293
1486 294
1551 295
1539 296
1614 297
1547 298
1487 299
1582 300
1492 301
1526 302
1424 303
1505 304
1494 305
1513 306
1562 307
1502 308
1491 309
1469 310
1543 311
1520 312
1510 313
1498 314
1566 315
1507 316
1507 317
1518 318
1475 319
1492 320
1428 321
1535 322
1455 323
1478 324
1492 325
1493 326
1436 327
1499 328
1431 329
1471 330
1455 331
1479 332
1442 333
1425 334
1514 335
1447 336
1415 337
1467 338
1461 339
1397 340
1409 341
1443 342
1437 343
1458 344
1434 345
1363 346
1404 347
1418 348
1423 349
1377 350
1381 351
1377 352
1373 353
1403 354
1370 355
1346 356
1428 357
1444 358
1372 359
1309 360
1404 361
1419 362
1364 363
1490 364
1381 365
1392 366
1413 367
1379 368
1296 369
1298 370
1401 371
1329 372
1377 373
1344 374
1395 375
1350 376
1336 377
1382 378
1341 379
1342 380
1364 381
1361 382
1370 383
1319 384
1323 385
1328 386
1367 387
1376 388
1343 389
1254 390
1241 391
1396 392
1358 393
1312 394
1348 395
1338 396
1349 397
1298 398
1296 399
1373 400
1321 401
1348 402
1237 403
1362 404
1245 405
1271 406
1333 407
1341 408
1307 409
1330 410
1280 411
1304 412
1306 413
1232 414
1286 415
1274 416
1308 417
1367 418
1355 419
1359 420
1340 421
1301 422
1350 423
1294 424
1283 425
1298 426
1267 427
1348 428
1220 429
1225 430
1322 431
1248 432
1286 433
1285 434
1225 435
1274 436
1177 437
1189 438
1219 439
1243 440
1251 441
1232 442
1312 443
1281 444
1262 445
1247 446
1276 447
1247 448
1265 449
1226 450
1227 451
1260 452
1229 453
1229 454
1152 455
1279 456
1263 457
1256 458
1202 459
1291 460
1144 461
1205 462
1249 463
1256 464
1200 465
1186 466
1239 467
1142 468
1251 469
1219 470
1218 471
1244 472
1271 473
1210 474
1157 475
1182 476
1181 477
1170 478
1122 479
1194 480
1235 481
1149 482
1196 483
1160 484
1109 485
1117 486
1108 487
1167 488
1208 489
1138 490
1173 491
1134 492
1149 493
1050 494
1133 495
1138 496
1129 497
1162 498
1131 499
1161 500
1138 501
1177 502
1137 503
1089 504
1094 505
1132 506
1190 507
1157 508
1169 509
1196 510
1226 511
1124 512
1065 513
1081 514
1114 515
1131 516
1098 517
1155 518
1092 519
1142 520
1136 521
1098 522
1106 523
1092 524
1108 525
1138 526
1111 527
1092 528
1102 529
1049 530
1115 531
1099 532
1110 533
1140 534
1017 535
1092 536
1035 537
1102 538
1043 539
1132 540
1054 541
1084 542
1038 543
1033 544
1039 545
1058 546
 970 547
1002 548
1025 549
1051 550
1095 551
1031 552
1047 553
1046 554
1080 555
1054 556
1077 557
1060 558
1036 559
1098 560
1104 561
1015 562
 985 563
1055 564
1048 565
 961 566
1012 567
1013 568
1028 569
1027 570
1003 571
 989 572
1015 573
 998 574
1010 575
 952 576
1019 577
 997 578
1015 579
 983 580
1025 581
1012 582
1017 583
1003 584
 995 585
 975 586
 981 587
1043 588
 993 589
 941 590
 968 591
 991 592
 997 593
 965 594
 985 595
 957 596
 976 597
 944 598
 968 599
 958 600
 909 601
 926 602
1035 603
 916 604
 969 605
1000 606
 956 607
 950 608
 967 609
 966 610
 959 611
 927 612
 961 613
1037 614
 905 615
 935 616
 940 617
 962 618
 925 619
 901 620
 926 621
 873 622
 976 623
 953 624
 962 625
 916 626
 930 627
 923 628
 929 629
 910 630
 937 631
 874 632
 978 633
 899 634
 914 635
 881 636
 976 637
 836 638
 909 639
 954 640
 926 641
 862 642
 865 643
 906 644
 864 645
 900 646
 987 647
 904 648
 909 649
 868 650
 882 651
 979 652
 893 653
 863 654
 910 655
 907 656
 880 657
 869 658
 911 659
 850 660
 892 661
 845 662
 869 663
 881 664
 876 665
 854 666
 868 667
 864 668
 846 669
 886 670
 848 671
 889 672
 843 673
 868 674
 811 675
 838 676
 847 677
 846 678
 884 679
 803 680
 831 681
 873 682
 854 683
 840 684
 848 685
 832 686
 872 687
 824 688
 840 689
 869 690
 867 691
 847 692
 762 693
 771 694
 837 695
 791 696
 831 697
 829 698
 826 699
 866 700
 775 701
 816 702
 775 703
 777 704
 809 705
 823 706
 832 707
 840 708
 810 709
 802 710
 792 711
 825 712
 818 713
 816 714
 819 715
 830 716
 772 717
 761 718
 796 719
 832 720
 797 721
 781 722
 767 723
 780 724
 752 725
 827 726
 792 727
 826 728
 790 729
 797 730
 773 731
 736 732
 806 733
 808 734
 754 735
 793 736
 769 737
 753 738
 793 739
 779 740
 774 741
 717 742
 791 743
 751 744
 812 745
 739 746
 755 747
 765 748
 770 749
 804 750
 806 751
 728 752
 730 753
 757 754
 759 755
 749 756
 711 757
 752 758
 787 759
 751 760
 775 761
 732 762
 766 763
 735 764
 738 765
 767 766
 734 767
 732 768
 729 769
 711 770
 731 771
 724 772
 717 773
 746 774
 742 775
 732 776
 671 777
 730 778
 736 779
 726 780
 695 781
 695 782
 723 783
 719 784
 725 785
 686 786
 737 787
 746 788
 697 789
 699 790
 707 791
 673 792
 696 793
 723 794
 687 795
 688 796
 685 797
 677 798
 715 799
 659 800
 655 801
 651 802
 687 803
 657 804
 710 805
 701 806
 683 807
 689 808
 690 809
 689 810
 616 811
 681 812
 667 813
 678 814
 656 815
 648 816
 661 817
 651 818
 633 819
 658 820
 661 821
 642 822
 665 823
 669 824
 594 825
 668 826
 673 827
 705 828
 644 829
 690 830
 603 831
 601 832
 647 833
 665 834
 618 835
 643 836
 665 837
 591 838
 616 839
 667 840
 646 841
 640 842
 616 843
 664 844
 587 845
 671 846
 655 847
 624 848
 611 849
 619 850
 618 851
 647 852
 612 853
 655 854
 683 855
 610 856
 594 857
 574 858
 619 859
 561 860
 626 861
 591 862
 634 863
 601 864
 611 865
 621 866
 669 867
 594 868
 623 869
 610 870
 629 871
 633 872
 606 873
 643 874
 574 875
 626 876
 604 877
 603 878
 604 879
 572 880
 554 881
 601 882
 643 883
 595 884
 598 885
 587 886
 591 887
 533 888
 617 889
 606 890
 584 891
 573 892
 598 893
 571 894
 616 895
 599 896
 583 897
 646 898
 581 899
 567 900
 556 901
 596 902
 580 903
 602 904
 533 905
 569 906
 590 907
 576 908
 551 909
 593 910
 551 911
 553 912
 528 913
 560 914
 570 915
 560 916
 560 917
 564 918
 561 919
 506 920
 572 921
 580 922
 538 923
 572 924
 592 925
 594 926
 572 927
 539 928
 522 929
 549 930
 567 931
 541 932
 544 933
 552 934
 560 935
 538 936
 557 937
 575 938
 573 939
 537 940
 525 941
 536 942
 562 943
 547 944
 528 945
 519 946
 578 947
 560 948
 552 949
 529 950
 503 951
 531 952
 495 953
 526 954
 510 955
 568 956
 543 957
 483 958
 524 959
 519 960
 505 961
 532 962
 507 963
 496 964
 542 965
 539 966
 541 967
 520 968
 488 969
 517 970
 502 971
 501 972
 519 973
 529 974
 497 975
 500 976
 509 977
 494 978
 526 979
 488 980
 500 981
 506 982
 484 983
 512 984
 483 985
 529 986
 514 987
 508 988
 495 989
 473 990
 532 991
 494 992
 533 993
 506 994
 492 995
 481 996
 507 997
 463 998
 455 999
 489 1000
 492 1001
 501 1002
 493 1003
 450 1004
 517 1005
 489 1006
 476 1007
 480 1008
 480 1009
 495 1010
 467 1011
 470 1012
 521 1013
 467 1014
 471 1015
 499 1016
 498 1017
 455 1018
 443 1019
 453 1020
 461 1021
 440 1022
 457 1023
 460 1024
 479 1025
 464 1026
 480 1027
 498 1028
 439 1029
 446 1030
 424 1031
 443 1032
 436 1033
 428 1034
 482 1035
 485 1036
 452 1037
 450 1038
 479 1039
 485 1040
 441 1041
 452 1042
 473 1043
 438 1044
 461 1045
 450 1046
 449 1047
 455 1048
 444 1049
 406 1050
 441 1051
 466 1052
 433 1053
 447 1054
 429 1055
 426 1056
 462 1057
 427 1058
 458 1059
 429 1060
 462 1061
 425 1062
 423 1063
 448 1064
 462 1065
 470 1066
 425 1067
 445 1068
 458 1069
 435 1070
 441 1071
 398 1072
 431 1073
 397 1074
 431 1075
 434 1076
 397 1077
 413 1078
 457 1079
 408 1080
 418 1081
 389 1082
 424 1083
 397 1084
 420 1085
 408 1086
 375 1087
 390 1088
 416 1089
 411 1090
 402 1091
 383 1092
 374 1093
 448 1094
 391 1095
 420 1096
 436 1097
 399 1098
 412 1099
 390 1100
 451 1101
 417 1102
 417 1103
 429 1104
 377 1105
 382 1106
 413 1107
 392 1108
 389 1109
 392 1110
 368 1111
 468 1112
 404 1113
 401 1114
 381 1115
 394 1116
 423 1117
 416 1118
 344 1119
 409 1120
 401 1121
 359 1122
 349 1123
 411 1124
 384 1125
 382 1126
 390 1127
 406 1128
 394 1129
 368 1130
 382 1131
 374 1132
 378 1133
 402 1134
 364 1135
 375 1136
 392 1137
 355 1138
 364 1139
 395 1140
 370 1141
 404 1142
 396 1143
 353 1144
 388 1145
 376 1146
 333 1147
 331 1148
 349 1149
 369 1150
 376 1151
 368 1152
 362 1153
 401 1154
 345 1155
 368 1156
 354 1157
 352 1158
 365 1159
 371 1160
 349 1161
 389 1162
 363 1163
 344 1164
 373 1165
 348 1166
 362 1167
 375 1168
 352 1169
 359 1170
 337 1171
 371 1172
 378 1173
 386 1174
 349 1175
 360 1176
 346 1177
 369 1178
 371 1179
 362 1180
 355 1181
 349 1182
 363 1183
 363 1184
 338 1185
 333 1186
 334 1187
 368 1188
 359 1189
 374 1190
 334 1191
 348 1192
 341 1193
 336 1194
 378 1195
 355 1196
 349 1197
 314 1198
 336 1199
 338 1200
 328 1201
 359 1202
 351 1203
 305 1204
 313 1205
 348 1206
 314 1207
 291 1208
 343 1209
 324 1210
 337 1211
 323 1212
 314 1213
 315 1214
 337 1215
 353 1216
 315 1217
 325 1218
 335 1219
 292 1220
 290 1221
 299 1222
 324 1223
 298 1224
 305 1225
 300 1226
 271 1227
 330 1228
 304 1229
 302 1230
 345 1231
 305 1232
 316 1233
 311 1234
 296 1235
 331 1236
 302 1237
 329 1238
 295 1239
 311 1240
 311 1241
 341 1242
 309 1243
 324 1244
 301 1245
 288 1246
 317 1247
 289 1248
 318 1249
 336 1250
 321 1251
 292 1252
 338 1253
 308 1254
 312 1255
 294 1256
 277 1257
 303 1258
 290 1259
 313 1260
 287 1261
 335 1262
 281 1263
 304 1264
 304 1265
 317 1266
 274 1267
 286 1268
 338 1269
 309 1270
 286 1271
 315 1272
 318 1273
 300 1274
 291 1275
 316 1276
 311 1277
 286 1278
 311 1279
 305 1280
 304 1281
 305 1282
 297 1283
 291 1284
 279 1285
 266 1286
 285 1287
 279 1288
 266 1289
 270 1290
 271 1291
 298 1292
 276 1293
 269 1294
 295 1295
 285 1296
 267 1297
 303 1298
 274 1299
 282 1300
 280 1301
 261 1302
 287 1303
 271 1304
 338 1305
 301 1306
 246 1307
 323 1308
 263 1309
 291 1310
 270 1311
 268 1312
 275 1313
 277 1314
 265 1315
 277 1316
 277 1317
 270 1318
 291 1319
 291 1320
 262 1321
 277 1322
 266 1323
 290 1324
 264 1325
 274 1326
 240 1327
 267 1328
 275 1329
 263 1330
 261 1331
 252 1332
 278 1333
 258 1334
 276 1335
 255 1336
 245 1337
 259 1338
 259 1339
 256 1340
 282 1341
 261 1342
 270 1343
 269 1344
 267 1345
 248 1346
 267 1347
 260 1348
 224 1349
 253 1350
 250 1351
 267 1352
 248 1353
 276 1354
 261 1355
 225 1356
 262 1357
 233 1358
 232 1359
 245 1360
 244 1361
 270 1362
 253 1363
 236 1364
 251 1365
 251 1366
 232 1367
 256 1368
 278 1369
 236 1370
 262 1371
 237 1372
 249 1373
 220 1374
 250 1375
 263 1376
 261 1377
 251 1378
 241 1379
 238 1380
 236 1381
 243 1382
 225 1383
 213 1384
 259 1385
 200 1386
 234 1387
 236 1388
 243 1389
 239 1390
 243 1391
 221 1392
 260 1393
 230 1394
 225 1395
 224 1396
 222 1397
 244 1398
 231 1399
 227 1400
 248 1401
 233 1402
 210 1403
 243 1404
 247 1405
 220 1406
 234 1407
 229 1408
 236 1409
 251 1410
 255 1411
 201 1412
 232 1413
 234 1414
 218 1415
 236 1416
 246 1417
 220 1418
 207 1419
 199 1420
 222 1421
 246 1422
 250 1423
 254 1424
 231 1425
 206 1426
 230 1427
 265 1428
 243 1429
 215 1430
 217 1431
 206 1432
 221 1433
 196 1434
 227 1435
 214 1436
 233 1437
 234 1438
 238 1439
 191 1440
 235 1441
 221 1442
 236 1443
 208 1444
 227 1445
 239 1446
 230 1447
 225 1448
 205 1449
 210 1450
 232 1451
 209 1452
 220 1453
 228 1454
 214 1455
 207 1456
 204 1457
 210 1458
 183 1459
 207 1460
 212 1461
 220 1462
 181 1463
 194 1464
 201 1465
 211 1466
 219 1467
 197 1468
 182 1469
 199 1470
 176 1471
 215 1472
 200 1473
 215 1474
 195 1475
 194 1476
 189 1477
 221 1478
 213 1479
 229 1480
 203 1481
 217 1482
 224 1483
 205 1484
 205 1485
 208 1486
 205 1487
 202 1488
 199 1489
 192 1490
 207 1491
 215 1492
 205 1493
 199 1494
 205 1495
 163 1496
 205 1497
 188 1498
 209 1499
 217 1500
 195 1501
 193 1502
 190 1503
 222 1504
 191 1505
 198 1506
 178 1507
 182 1508
 174 1509
 195 1510
 222 1511
 223 1512
 175 1513
 191 1514
 189 1515
 200 1516
 164 1517
 197 1518
 175 1519
 193 1520
 166 1521
 211 1522
 175 1523
 166 1524
 178 1525
 154 1526
 193 1527
 174 1528
 215 1529
 192 1530
 197 1531
 192 1532
 201 1533
 186 1534
 198 1535
 177 1536
 159 1537
 204 1538
 163 1539
 186 1540
 188 1541
 208 1542
 189 1543
 171 1544
 197 1545
 170 1546
 173 1547
 172 1548
 168 1549
 172 1550
 209 1551
 188 1552
 179 1553
 160 1554
 168 1555
 171 1556
 159 1557
 162 1558
 200 1559
 174 1560
 154 1561
 186 1562
 170 1563
 182 1564
 177 1565
 165 1566
 161 1567
 169 1568
 177 1569
 172 1570
 180 1571
 173 1572
 184 1573
 149 1574
 161 1575
 194 1576
 169 1577
 178 1578
 194 1579
 173 1580
 167 1581
 178 1582
 161 1583
 168 1584
 164 1585
 148 1586
 189 1587
 169 1588
 189 1589
 174 1590
 180 1591
 162 1592
 158 1593
 181 1594
 195 1595
 161 1596
 178 1597
 178 1598
 190 1599
 163 1600
 157 1601
 129 1602
 186 1603
 150 1604
 139 1605
 148 1606
 163 1607
 162 1608
 166 1609
 192 1610
 159 1611
 149 1612
 154 1613
 158 1614
 171 1615
 147 1616
 164 1617
 173 1618
 154 1619
 154 1620
 152 1621
 163 1622
 137 1623
 175 1624
 158 1625
 167 1626
 158 1627
 153 1628
 130 1629
 163 1630
 145 1631
 162 1632
 145 1633
 151 1634
 147 1635
 155 1636
 164 1637
 176 1638
 143 1639
 182 1640
 129 1641
 144 1642
 151 1643
 165 1644
 146 1645
 165 1646
 165 1647
 138 1648
 135 1649
 140 1650
 156 1651
 157 1652
 138 1653
 158 1654
 126 1655
 159 1656
 140 1657
 145 1658
 149 1659
 149 1660
 144 1661
 150 1662
 143 1663
 130 1664
 146 1665
 138 1666
 143 1667
 154 1668
 162 1669
 141 1670
 146 1671
 161 1672
 158 1673
 141 1674
 155 1675
 149 1676
 136 1677
 140 1678
 140 1679
 141 1680
 144 1681
 145 1682
 158 1683
 163 1684
 144 1685
 120 1686
 149 1687
 153 1688
 151 1689
 147 1690
 147 1691
 144 1692
 128 1693
 162 1694
 152 1695
 139 1696
 129 1697
 144 1698
 135 1699
 137 1700
 143 1701
 157 1702
 122 1703
 116 1704
 136 1705
 162 1706
 136 1707
 136 1708
 144 1709
 127 1710
 139 1711
 132 1712
 169 1713
 134 1714
 136 1715
 121 1716
 131 1717
 129 1718
 120 1719
 117 1720
 148 1721
 147 1722
 158 1723
 142 1724
 156 1725
 108 1726
 142 1727
 139 1728
 111 1729
 128 1730
 140 1731
 123 1732
 125 1733
 152 1734
 124 1735
 127 1736
 127 1737
 117 1738
 137 1739
 104 1740
 134 1741
 140 1742
 132 1743
 113 1744
 124 1745
 113 1746
 128 1747
 142 1748
 136 1749
 147 1750
 117 1751
 122 1752
 119 1753
 137 1754
 124 1755
 112 1756
 132 1757
 125 1758
 139 1759
 136 1760
  99 1761
 133 1762
 138 1763
 133 1764
 134 1765
 121 1766
 130 1767
 124 1768
 126 1769
 107 1770
 116 1771
 133 1772
 119 1773
 121 1774
 109 1775
 130 1776
 125 1777
 114 1778
 122 1779
 118 1780
 130 1781
 122 1782
 121 1783
 122 1784
 108 1785
 128 1786
 116 1787
 100 1788
 126 1789
 137 1790
 128 1791
 112 1792
 128 1793
 122 1794
 112 1795
 126 1796
 109 1797
 126 1798
 132 1799
 140 1800
 115 1801
 116 1802
 110 1803
 122 1804
 139 1805
  95 1806
 128 1807
 107 1808
 127 1809
 115 1810
 104 1811
 120 1812
 108 1813
 104 1814
 103 1815
 107 1816
 122 1817
 128 1818
 116 1819
 120 1820
 115 1821
 110 1822
 109 1823
 100 1824
 113 1825
 116 1826
 109 1827
 113 1828
 112 1829
 114 1830
 107 1831
 114 1832
 114 1833
 109 1834
 104 1835
  92 1836
 109 1837
 106 1838
 107 1839
 116 1840
 109 1841
 129 1842
 106 1843
 102 1844
 106 1845
 111 1846
  97 1847
 109 1848
 105 1849
 101 1850
 128 1851
 102 1852
 121 1853
  98 1854
 102 1855
 106 1856
  94 1857
 108 1858
 125 1859
 108 1860
 106 1861
 110 1862
 123 1863
 131 1864
 109 1865
 112 1866
  83 1867
 107 1868
 120 1869
  84 1870
 103 1871
 106 1872
 105 1873
 109 1874
 105 1875
 104 1876
 100 1877
 106 1878
 109 1879
  88 1880
  78 1881
  90 1882
 103 1883
  99 1884
  93 1885
 102 1886
 110 1887
  98 1888
 107 1889
 118 1890
  96 1891
 107 1892
 104 1893
 115 1894
 130 1895
  81 1896
  91 1897
 108 1898
 102 1899
 103 1900
  95 1901
  80 1902
 108 1903
 110 1904
  87 1905
  94 1906
  89 1907
 111 1908
  98 1909
  91 1910
  83 1911
  86 1912
  90 1913
 112 1914
 101 1915
  96 1916
 116 1917
  86 1918
  98 1919
  94 1920
  96 1921
 105 1922
 100 1923
  87 1924
 107 1925
 107 1926
  82 1927
 101 1928
  98 1929
  96 1930
 103 1931
  90 1932
  94 1933
  99 1934
  92 1935
 102 1936
  98 1937
  90 1938
  95 1939
  85 1940
  98 1941
  95 1942
  94 1943
  96 1944
  72 1945
  89 1946
 108 1947
  95 1948
  97 1949
  99 1950
  94 1951
  80 1952
  97 1953
  98 1954
  96 1955
  68 1956
  94 1957
  97 1958
 106 1959
  86 1960
  91 1961
  94 1962
  80 1963
  91 1964
  88 1965
  96 1966
  86 1967
  97 1968
  71 1969
  81 1970
  82 1971
  97 1972
  82 1973
  85 1974
  79 1975
  95 1976
  90 1977
  83 1978
  92 1979
  87 1980
  90 1981
  81 1982
  81 1983
  89 1984
  94 1985
  95 1986
  75 1987
  83 1988
  97 1989
  69 1990
  87 1991
  87 1992
  76 1993
  81 1994
  90 1995
  81 1996
  88 1997
  88 1998
  82 1999
  88 2000
  87 2001
  77 2002
 103 2003
  67 2004
  79 2005
  82 2006
  71 2007
  88 2008
  86 2009
  75 2010
  81 2011
  81 2012
  76 2013
  85 2014
  82 2015
  88 2016
  77 2017
  94 2018
 105 2019
  95 2020
  79 2021
  99 2022
  79 2023
  97 2024
  94 2025
  86 2026
  83 2027
  81 2028
  72 2029
  81 2030
  76 2031
  68 2032
  82 2033
  85 2034
  91 2035
  82 2036
  90 2037
  94 2038
  62 2039
  63 2040
  78 2041
  71 2042
  65 2043
  83 2044
  79 2045
  88 2046
  78 2047
  69 2048
  86 2049
  71 2050
  79 2051
  68 2052
  68 2053
  70 2054
  66 2055
  69 2056
  76 2057
  80 2058
  77 2059
  81 2060
  81 2061
  85 2062
  79 2063
  72 2064
  82 2065
  73 2066
  66 2067
  60 2068
  89 2069
  89 2070
  77 2071
  76 2072
  83 2073
  66 2074
  71 2075
  83 2076
  71 2077
  71 2078
  81 2079
  72 2080
  67 2081
  71 2082
  73 2083
  67 2084
  81 2085
  96 2086
  73 2087
  69 2088
  67 2089
  82 2090
  63 2091
  79 2092
  70 2093
  81 2094
  68 2095
  78 2096
  65 2097
  54 2098
  71 2099
  55 2100
  71 2101
  83 2102
  71 2103
  70 2104
  78 2105
  67 2106
  79 2107
  76 2108
  77 2109
  70 2110
  58 2111
  78 2112
  67 2113
  79 2114
  68 2115
  60 2116
  49 2117
  65 2118
  70 2119
  61 2120
  64 2121
  73 2122
  68 2123
  79 2124
  63 2125
  70 2126
  81 2127
  75 2128
  81 2129
  73 2130
  66 2131
  58 2132
  68 2133
  81 2134
  64 2135
  57 2136
  66 2137
  59 2138
  76 2139
  75 2140
  79 2141
  73 2142
  82 2143
  74 2144
  64 2145
  63 2146
  67 2147
  75 2148
  60 2149
  90 2150
  46 2151
  64 2152
  64 2153
  73 2154
  64 2155
  50 2156
  65 2157
  57 2158
  63 2159
  75 2160
  63 2161
  71 2162
  67 2163
  59 2164
  77 2165
  68 2166
  59 2167
  73 2168
  70 2169
  59 2170
  81 2171
  55 2172
  66 2173
  65 2174
  57 2175
  53 2176
  68 2177
  62 2178
  55 2179
  60 2180
  52 2181
  54 2182
  46 2183
  68 2184
  59 2185
  61 2186
  68 2187
  57 2188
  60 2189
  68 2190
  53 2191
  64 2192
  79 2193
  56 2194
  52 2195
  61 2196
  65 2197
  70 2198
  71 2199
  62 2200
  57 2201
  61 2202
  62 2203
  54 2204
  72 2205
  65 2206
  67 2207
  73 2208
  61 2209
  63 2210
  57 2211
  64 2212
  51 2213
  61 2214
  58 2215
  73 2216
  64 2217
  60 2218
  51 2219
  62 2220
  43 2221
  53 2222
  60 2223
  57 2224
  73 2225
  69 2226
  61 2227
  56 2228
  55 2229
  42 2230
  57 2231
  63 2232
  58 2233
  62 2234
  53 2235
  60 2236
  47 2237
  64 2238
  50 2239
  45 2240
  54 2241
  70 2242
  50 2243
  72 2244
  46 2245
  57 2246
  52 2247
  56 2248
  49 2249
  53 2250
  51 2251
  55 2252
  46 2253
  47 2254
  52 2255
  48 2256
  49 2257
  46 2258
  56 2259
  53 2260
  63 2261
  41 2262
  58 2263
  54 2264
  58 2265
  61 2266
  58 2267
  54 2268
  58 2269
  48 2270
  58 2271
  53 2272
  42 2273
  57 2274
  53 2275
  60 2276
  51 2277
  59 2278
  51 2279
  64 2280
  55 2281
  51 2282
  56 2283
  55 2284
  54 2285
  60 2286
  51 2287
  60 2288
  43 2289
  60 2290
  41 2291
  44 2292
  53 2293
  58 2294
  59 2295
  48 2296
  49 2297
  56 2298
  48 2299
  51 2300
  50 2301
  61 2302
  48 2303
  58 2304
  50 2305
  51 2306
  63 2307
  46 2308
  47 2309
  52 2310
  54 2311
  41 2312
  56 2313
  49 2314
  49 2315
  42 2316
  62 2317
  52 2318
  47 2319
  49 2320
  35 2321
  64 2322
  55 2323
  40 2324
  48 2325
  51 2326
  64 2327
  52 2328
  60 2329
  44 2330
  51 2331
  40 2332
  51 2333
  42 2334
  45 2335
  44 2336
  58 2337
  39 2338
  42 2339
  37 2340
  59 2341
  51 2342
  45 2343
  38 2344
  38 2345
  42 2346
  54 2347
  49 2348
  42 2349
  45 2350
  42 2351
  38 2352
  38 2353
  48 2354
  52 2355
  47 2356
  45 2357
  58 2358
  55 2359
  45 2360
  49 2361
  30 2362
  44 2363
  54 2364
  52 2365
  51 2366
  51 2367
  39 2368
  43 2369
  43 2370
  51 2371
  47 2372
  54 2373
  37 2374
  42 2375
  48 2376
  51 2377
  44 2378
  54 2379
  37 2380
  33 2381
  50 2382
  45 2383
  33 2384
  49 2385
  43 2386
  48 2387
  40 2388
  32 2389
  57 2390
  43 2391
  44 2392
  29 2393
  42 2394
  41 2395
  42 2396
  48 2397
  49 2398
  44 2399
  44 2400
  50 2401
  38 2402
  35 2403
  55 2404
  47 2405
  55 2406
  57 2407
  47 2408
  33 2409
  45 2410
  36 2411
  50 2412
  31 2413
  45 2414
  46 2415
  49 2416
  48 2417
  54 2418
  45 2419
  53 2420
  41 2421
  52 2422
  35 2423
  55 2424
  41 2425
  37 2426
  40 2427
  45 2428
  37 2429
  61 2430
  34 2431
  34 2432
  38 2433
  47 2434
  39 2435
  40 2436
  35 2437
  47 2438
  42 2439
  47 2440
  44 2441
  46 2442
  42 2443
  35 2444
  52 2445
  53 2446
  36 2447
  54 2448
  45 2449
  41 2450
  53 2451
  31 2452
  35 2453
  56 2454
  51 2455
  45 2456
  41 2457
  31 2458
  51 2459
  46 2460
  44 2461
  40 2462
  49 2463
  28 2464
  50 2465
  44 2466
  38 2467
  30 2468
  35 2469
  43 2470
  34 2471
  39 2472
  32 2473
  45 2474
  46 2475
  41 2476
  30 2477
  34 2478
  37 2479
  32 2480
  32 2481
  40 2482
  31 2483
  39 2484
  35 2485
  38 2486
  40 2487
  35 2488
  38 2489
  36 2490
  40 2491
  39 2492
  42 2493
  41 2494
  38 2495
  41 2496
  34 2497
  37 2498
  33 2499
  41 2500
  32 2501
  30 2502
  36 2503
  30 2504
  43 2505
  38 2506
  28 2507
  48 2508
  36 2509
  37 2510
  29 2511
  39 2512
  45 2513
  35 2514
  35 2515
  38 2516
  34 2517
  27 2518
  36 2519
  50 2520
  31 2521
  38 2522
  43 2523
  44 2524
  42 2525
  35 2526
  31 2527
  36 2528
  35 2529
  50 2530
  28 2531
  38 2532
  34 2533
  32 2534
  35 2535
  45 2536
  30 2537
  33 2538
  32 2539
  33 2540
  31 2541
  34 2542
  36 2543
  22 2544
  39 2545
  31 2546
  32 2547
  32 2548
  43 2549
  46 2550
  30 2551
  37 2552
  32 2553
  36 2554
  28 2555
  46 2556
  39 2557
  30 2558
  43 2559
  41 2560
  34 2561
  31 2562
  29 2563
  35 2564
  42 2565
  32 2566
  33 2567
  37 2568
  34 2569
  29 2570
  43 2571
  31 2572
  33 2573
  25 2574
  45 2575
  39 2576
  17 2577
  28 2578
  31 2579
  32 2580
  47 2581
  31 2582
  33 2583
  38 2584
  34 2585
  33 2586
  34 2587
  32 2588
  41 2589
  26 2590
  38 2591
  25 2592
  22 2593
  41 2594
  35 2595
  31 2596
  25 2597
  31 2598
  39 2599
  25 2600
  20 2601
  33 2602
  35 2603
  31 2604
  23 2605
  26 2606
  28 2607
  30 2608
  26 2609
  32 2610
  39 2611
  37 2612
  37 2613
  31 2614
  26 2615
  30 2616
  27 2617
  34 2618
  41 2619
  29 2620
  28 2621
  38 2622
  24 2623
  26 2624
  23 2625
  31 2626
  34 2627
  33 2628
  38 2629
  32 2630
  29 2631
  36 2632
  26 2633
  39 2634
  30 2635
  27 2636
  24 2637
  31 2638
  30 2639
  31 2640
  27 2641
  36 2642
  26 2643
  30 2644
  30 2645
  28 2646
  27 2647
  27 2648
  37 2649
  34 2650
  35 2651
  30 2652
  24 2653
  36 2654
  43 2655
  28 2656
  29 2657
  30 2658
  35 2659
  41 2660
  31 2661
  27 2662
  35 2663
  32 2664
  31 2665
  41 2666
  25 2667
  23 2668
  23 2669
  39 2670
  31 2671
  35 2672
  29 2673
  21 2674
  24 2675
  34 2676
  25 2677
  32 2678
  19 2679
  24 2680
  28 2681
  34 2682
  25 2683
  31 2684
  35 2685
  29 2686
  36 2687
  29 2688
  31 2689
  21 2690
  29 2691
  31 2692
  31 2693
  33 2694
  27 2695
  27 2696
  38 2697
  27 2698
  25 2699
  20 2700
  22 2701
  34 2702
  34 2703
  28 2704
  27 2705
  33 2706
  27 2707
  32 2708
  27 2709
  31 2710
  29 2711
  24 2712
  29 2713
  24 2714
  26 2715
  27 2716
  27 2717
  27 2718
  29 2719
  32 2720
  39 2721
  27 2722
  28 2723
  33 2724
  30 2725
  33 2726
  22 2727
  22 2728
  22 2729
  25 2730
  30 2731
  23 2732
  33 2733
  27 2734
  14 2735
  34 2736
  29 2737
  24 2738
  28 2739
  22 2740
  35 2741
  27 2742
  28 2743
  20 2744
  29 2745
  34 2746
  26 2747
  33 2748
  31 2749
  24 2750
  33 2751
  24 2752
  23 2753
  23 2754
  27 2755
  30 2756
  21 2757
  25 2758
  28 2759
  24 2760
  27 2761
  20 2762
  31 2763
  26 2764
  27 2765
  22 2766
  28 2767
  28 2768
  28 2769
  32 2770
  28 2771
  28 2772
  26 2773
  28 2774
  34 2775
  25 2776
  30 2777
  26 2778
  35 2779
  22 2780
  25 2781
  19 2782
  24 2783
  29 2784
  17 2785
  16 2786
  25 2787
  26 2788
  27 2789
  21 2790
  23 2791
  33 2792
  30 2793
  19 2794
  24 2795
  21 2796
  23 2797
  29 2798
  22 2799
  26 2800
  22 2801
  19 2802
  32 2803
  25 2804
  24 2805
  23 2806
  28 2807
  22 2808
  36 2809
  20 2810
  27 2811
  30 2812
  14 2813
  15 2814
  24 2815
  10 2816
  18 2817
  17 2818
  23 2819
  25 2820
  29 2821
  29 2822
  24 2823
  18 2824
  20 2825
  23 2826
  22 2827
  27 2828
  20 2829
  34 2830
  33 2831
  24 2832
  22 2833
  25 2834
  19 2835
  17 2836
  25 2837
  20 2838
  23 2839
  26 2840
  29 2841
  22 2842
  18 2843
  17 2844
  23 2845
  24 2846
  23 2847
  28 2848
  24 2849
  20 2850
  20 2851
  22 2852
  28 2853
  27 2854
  29 2855
  18 2856
  22 2857
  21 2858
  18 2859
  29 2860
  29 2861
  25 2862
  16 2863
  23 2864
  26 2865
  27 2866
  17 2867
  26 2868
  21 2869
  21 2870
  26 2871
  28 2872
  28 2873
  22 2874
  22 2875
  14 2876
  17 2877
  24 2878
  23 2879
  18 2880
  17 2881
  24 2882
  14 2883
  28 2884
  23 2885
  20 2886
  22 2887
  19 2888
  21 2889
  16 2890
  27 2891
  14 2892
  19 2893
  24 2894
  16 2895
  18 2896
  27 2897
  20 2898
  19 2899
  21 2900
  19 2901
  25 2902
  16 2903
  32 2904
  16 2905
  23 2906
  26 2907
  22 2908
  18 2909
  23 2910
  20 2911
  19 2912
  17 2913
  20 2914
  25 2915
  19 2916
  23 2917
  21 2918
  13 2919
  26 2920
  17 2921
  16 2922
  22 2923
  21 2924
  18 2925
  19 2926
  11 2927
  15 2928
  17 2929
  10 2930
  18 2931
  22 2932
  19 2933
  12 2934
  12 2935
  23 2936
  27 2937
  23 2938
  27 2939
  15 2940
  34 2941
  14 2942
  20 2943
  20 2944
  14 2945
  20 2946
  21 2947
  13 2948
  26 2949
  16 2950
  18 2951
  18 2952
  26 2953
  17 2954
  20 2955
  22 2956
  20 2957
  19 2958
  22 2959
  18 2960
  17 2961
  27 2962
  20 2963
  13 2964
  27 2965
  26 2966
  15 2967
  15 2968
  23 2969
  18 2970
  20 2971
  18 2972
  16 2973
  16 2974
  15 2975
  16 2976
  22 2977
  14 2978
  20 2979
  16 2980
  13 2981
  16 2982
  17 2983
  15 2984
  17 2985
  20 2986
  18 2987
  19 2988
  12 2989
  21 2990
  15 2991
  23 2992
  18 2993
  32 2994
  21 2995
  16 2996
  21 2997
  17 2998
  19 2999
  19 3000
  13 3001
  17 3002
  13 3003
  17 3004
  18 3005
  17 3006
  22 3007
  17 3008
  19 3009
  19 3010
  10 3011
  20 3012
  12 3013
  20 3014
  17 3015
  18 3016
  16 3017
  22 3018
  24 3019
  35 3020
  16 3021
  23 3022
  20 3023
  12 3024
  15 3025
  21 3026
  17 3027
  19 3028
  21 3029
  14 3030
  20 3031
  21 3032
  19 3033
  14 3034
  14 3035
  10 3036
  15 3037
  17 3038
  16 3039
  18 3040
  26 3041
   9 3042
  12 3043
  15 3044
  16 3045
  22 3046
  20 3047
  22 3048
  19 3049
  14 3050
  20 3051
  17 3052
  18 3053
  19 3054
  19 3055
  10 3056
  16 3057
  21 3058
  16 3059
  13 3060
  21 3061
  18 3062
  18 3063
  12 3064
  22 3065
  13 3066
  16 3067
  18 3068
  15 3069
  17 3070
  16 3071
  14 3072
  12 3073
  12 3074
  23 3075
  19 3076
  18 3077
  13 3078
  15 3079
  31 3080
  17 3081
  12 3082
  17 3083
  18 3084
  13 3085
  14 3086
  22 3087
  18 3088
  14 3089
  10 3090
  19 3091
  18 3092
  14 3093
  13 3094
  11 3095
  13 3096
  10 3097
  20 3098
  14 3099
  18 3100
  14 3101
  16 3102
  14 3103
  16 3104
  16 3105
  16 3106
  10 3107
   8 3108
  10 3109
  11 3110
  18 3111
  14 3112
  13 3113
  24 3114
  16 3115
  10 3116
  22 3117
  16 3118
  10 3119
  12 3120
  21 3121
  17 3122
  17 3123
  17 3124
  21 3125
  17 3126
  10 3127
  22 3128
  19 3129
  18 3130
  14 3131
  13 3132
  24 3133
  21 3134
  13 3135
  12 3136
  13 3137
  17 3138
  12 3139
  19 3140
  15 3141
  21 3142
  15 3143
  14 3144
  10 3145
  17 3146
  14 3147
  26 3148
  16 3149
  16 3150
  21 3151
  12 3152
  18 3153
  14 3154
  20 3155
  16 3156
  19 3157
  14 3158
  15 3159
  12 3160
  15 3161
  17 3162
  11 3163
  13 3164
  12 3165
  14 3166
   6 3167
  20 3168
  16 3169
  17 3170
   8 3171
  11 3172
  19 3173
   7 3174
  19 3175
  15 3176
  11 3177
  19 3178
  21 3179
  10 3180
  22 3181
   9 3182
  14 3183
   7 3184
  15 3185
  16 3186
  15 3187
  17 3188
  11 3189
  17 3190
  21 3191
  18 3192
  17 3193
  12 3194
  11 3195
  19 3196
  15 3197
   8 3198
  21 3199
  16 3200
  16 3201
  14 3202
  14 3203
  12 3204
  18 3205
   9 3206
  14 3207
  11 3208
  21 3209
  15 3210
  16 3211
  11 3212
  11 3213
  13 3214
  11 3215
  15 3216
  17 3217
  20 3218
  12 3219
  12 3220
  14 3221
   7 3222
  19 3223
   9 3224
  11 3225
   8 3226
  16 3227
  14 3228
   8 3229
  14 3230
   9 3231
  11 3232
   5 3233
  11 3234
  13 3235
  15 3236
  10 3237
  10 3238
  13 3239
  13 3240
  11 3241
   8 3242
   5 3243
  10 3244
  14 3245
  15 3246
  11 3247
  15 3248
  17 3249
  13 3250
  13 3251
  13 3252
  14 3253
  13 3254
  15 3255
   9 3256
  13 3257
  17 3258
  14 3259
  10 3260
  14 3261
  12 3262
  17 3263
  11 3264
  15 3265
  17 3266
  20 3267
  12 3268
  18 3269
   9 3270
  19 3271
  15 3272
  12 3273
  10 3274
  12 3275
  12 3276
  13 3277
  12 3278
  15 3279
  15 3280
  14 3281
  17 3282
  16 3283
  11 3284
  10 3285
  10 3286
  17 3287
  13 3288
  11 3289
   5 3290
   8 3291
  22 3292
  14 3293
  15 3294
  18 3295
  16 3296
  10 3297
  14 3298
  12 3299
   9 3300
  12 3301
  10 3302
   8 3303
  18 3304
  11 3305
  12 3306
   5 3307
  14 3308
  10 3309
  13 3310
  13 3311
  16 3312
  10 3313
   5 3314
  12 3315
  12 3316
   6 3317
  10 3318
  15 3319
  14 3320
  15 3321
  18 3322
  10 3323
  10 3324
  14 3325
  14 3326
   5 3327
  13 3328
  11 3329
   8 3330
  15 3331
  10 3332
   5 3333
  14 3334
   8 3335
  10 3336
   8 3337
   9 3338
  12 3339
  11 3340
   4 3341
  11 3342
   9 3343
  13 3344
  14 3345
  13 3346
  16 3347
  11 3348
   7 3349
   9 3350
   9 3351
  13 3352
   9 3353
   6 3354
  12 3355
  13 3356
  18 3357
  18 3358
  14 3359
  16 3360
  14 3361
  11 3362
  11 3363
   5 3364
  13 3365
  17 3366
  17 3367
  13 3368
   7 3369
   7 3370
  13 3371
  15 3372
   9 3373
  16 3374
  15 3375
   8 3376
  12 3377
  13 3378
  13 3379
   9 3380
   9 3381
   8 3382
  10 3383
   9 3384
   5 3385
  13 3386
  16 3387
  13 3388
  18 3389
   9 3390
  12 3391
  13 3392
  11 3393
  10 3394
  13 3395
  10 3396
  13 3397
  11 3398
   6 3399
  14 3400
  11 3401
  10 3402
  10 3403
   8 3404
  10 3405
  14 3406
   3 3407
   9 3408
  18 3409
   4 3410
  10 3411
  10 3412
  16 3413
  11 3414
  15 3415
   9 3416
  15 3417
  12 3418
   5 3419
   9 3420
   9 3421
  12 3422
  10 3423
   9 3424
  11 3425
  14 3426
   9 3427
   4 3428
  12 3429
  10 3430
  10 3431
  10 3432
  11 3433
   5 3434
   5 3435
  14 3436
   5 3437
   9 3438
   9 3439
  11 3440
  14 3441
   9 3442
  13 3443
   7 3444
   8 3445
   7 3446
  12 3447
   8 3448
   5 3449
  10 3450
  12 3451
  12 3452
  11 3453
   8 3454
   6 3455
  10 3456
   9 3457
  13 3458
   9 3459
  14 3460
  13 3461
  12 3462
  16 3463
   8 3464
  11 3465
   9 3466
  11 3467
   8 3468
   3 3469
   8 3470
   6 3471
   9 3472
  14 3473
  12 3474
  10 3475
   8 3476
  13 3477
   8 3478
   9 3479
  16 3480
  10 3481
  11 3482
   9 3483
  10 3484
   8 3485
   3 3486
   3 3487
  11 3488
  10 3489
  11 3490
  10 3491
  11 3492
   9 3493
  11 3494
   4 3495
  12 3496
  11 3497
   8 3498
  11 3499
  11 3500
  12 3501
  11 3502
   5 3503
   9 3504
   9 3505
   5 3506
   4 3507
  13 3508
  11 3509
  11 3510
  13 3511
  14 3512
   9 3513
   3 3514
  10 3515
  10 3516
  13 3517
   4 3518
   6 3519
   4 3520
  12 3521
   9 3522
   8 3523
   4 3524
   8 3525
   7 3526
   5 3527
   7 3528
   5 3529
  12 3530
  13 3531
  11 3532
   7 3533
   7 3534
   8 3535
  11 3536
   6 3537
   9 3538
   9 3539
   9 3540
   9 3541
   7 3542
  11 3543
  12 3544
   3 3545
  11 3546
   6 3547
  15 3548
  10 3549
  13 3550
   5 3551
   9 3552
   9 3553
   8 3554
   8 3555
   7 3556
   6 3557
  18 3558
   8 3559
   9 3560
   8 3561
   3 3562
   8 3563
  11 3564
  11 3565
   8 3566
   9 3567
   6 3568
  11 3569
   6 3570
   9 3571
  11 3572
   9 3573
  11 3574
   4 3575
   9 3576
  14 3577
  10 3578
  14 3579
   7 3580
  13 3581
   8 3582
   5 3583
   6 3584
   6 3585
  10 3586
   7 3587
   5 3588
   8 3589
  12 3590
   9 3591
   8 3592
  12 3593
   6 3594
   8 3595
   8 3596
  12 3597
   7 3598
   9 3599
   8 3600
  12 3601
  15 3602
   6 3603
  13 3604
  12 3605
   4 3606
   8 3607
   5 3608
   7 3609
   5 3610
   6 3611
   6 3612
   6 3613
   6 3614
   8 3615
   7 3616
   9 3617
   9 3618
   4 3619
   7 3620
   7 3621
   6 3622
   7 3623
   9 3624
  10 3625
   6 3626
   8 3627
   9 3628
   5 3629
  15 3630
  10 3631
  12 3632
   7 3633
  12 3634
   6 3635
   9 3636
   2 3637
   2 3638
   4 3639
  12 3640
   8 3641
  10 3642
  10 3643
  14 3644
   6 3645
  12 3646
  16 3647
   7 3648
   6 3649
   7 3650
   7 3651
   7 3652
  10 3653
   6 3654
   6 3655
   7 3656
   5 3657
   5 3658
  10 3659
   4 3660
   6 3661
   9 3662
  13 3663
   9 3664
   6 3665
   7 3666
   7 3667
   8 3668
   4 3669
  13 3670
   6 3671
   4 3672
  15 3673
   8 3674
   7 3675
   7 3676
   8 3677
   9 3678
   8 3679
   3 3680
   8 3681
   6 3682
   7 3683
   6 3684
  11 3685
  15 3686
   9 3687
   6 3688
  10 3689
   7 3690
   6 3691
   6 3692
   9 3693
   4 3694
  12 3695
   3 3696
  13 3697
   7 3698
  10 3699
   7 3700
   4 3701
  11 3702
   9 3703
   9 3704
   3 3705
   6 3706
   8 3707
   8 3708
   5 3709
   4 3710
  13 3711
   7 3712
  10 3713
   5 3714
   4 3715
   6 3716
   8 3717
   7 3718
   8 3719
   8 3720
   3 3721
   9 3722
   8 3723
  10 3724
  11 3725
   6 3726
   3 3727
  12 3728
   7 3729
   4 3730
  11 3731
   6 3732
   7 3733
   9 3734
   5 3735
  10 3736
   3 3737
   8 3738
   6 3739
  12 3740
  10 3741
  11 3742
   7 3743
   9 3744
   3 3745
   6 3746
   9 3747
   6 3748
   7 3749
   9 3750
  12 3751
   6 3752
   4 3753
   5 3754
   6 3755
   8 3756
   7 3757
   3 3758
   5 3759
   5 3760
   2 3761
   6 3762
   7 3763
   7 3764
   4 3765
   7 3766
  11 3767
   9 3768
   6 3769
  11 3770
   3 3771
   2 3772
   8 3773
   5 3774
   8 3775
   9 3776
   4 3777
   3 3778
   6 3779
   6 3780
   7 3781
   7 3782
  11 3783
   6 3784
   8 3785
   4 3786
   8 3787
   8 3788
   4 3789
   7 3790
   6 3791
   6 3792
   5 3793
   7 3794
   7 3795
   7 3796
   5 3797
   3 3798
   9 3799
   6 3800
   4 3801
   8 3802
   5 3803
  12 3804
   8 3805
   6 3806
   6 3807
  10 3808
   4 3809
   3 3810
   6 3811
  10 3812
   5 3813
  10 3814
  12 3815
   6 3816
   7 3817
   7 3818
   7 3819
   8 3820
   8 3821
   4 3822
   8 3823
   5 3824
   9 3825
   6 3826
   7 3827
   6 3828
   9 3829
   8 3830
   9 3831
   7 3832
  11 3833
   8 3834
   8 3835
   7 3836
   3 3837
   5 3838
   7 3839
   8 3840
   7 3841
   4 3842
   3 3843
   4 3844
   8 3845
   4 3846
   7 3847
   9 3848
   4 3849
   1 3850
   3 3851
   9 3852
   9 3853
   6 3854
   9 3855
  11 3856
   4 3857
   6 3858
   7 3859
   4 3860
   2 3861
   2 3862
   2 3863
   6 3864
   3 3865
   4 3866
   8 3867
   6 3868
  10 3869
   7 3870
   6 3871
   3 3872
  11 3873
   3 3874
  14 3875
   3 3876
   8 3877
   5 3878
   7 3879
   3 3880
   6 3881
   6 3882
   2 3883
   4 3884
   7 3885
   7 3886
   5 3887
   6 3888
   7 3889
  11 3890
   8 3891
   6 3892
   9 3893
   2 3894
   5 3895
   7 3896
   6 3897
   4 3898
  10 3899
   7 3900
   6 3901
   2 3902
   3 3903
   7 3904
   8 3905
   4 3906
   4 3907
   9 3908
   5 3909
   4 3910
   6 3911
   1 3912
  11 3913
   7 3914
   4 3915
   6 3916
   7 3917
   6 3918
   4 3919
   3 3920
   3 3921
   5 3922
   5 3923
   2 3924
   6 3925
   5 3926
   8 3927
   5 3928
   2 3929
   6 3930
  11 3931
   6 3932
   8 3933
   8 3934
   7 3935
   4 3936
   8 3937
   5 3938
   7 3939
   8 3940
   3 3941
   2 3942
   6 3943
   7 3944
   3 3945
   4 3946
   6 3947
   6 3948
   9 3949
   4 3950
   5 3951
   3 3952
   7 3953
   3 3954
   3 3955
   6 3956
   6 3957
   9 3958
   3 3959
   2 3960
   5 3961
   3 3962
   5 3963
   4 3964
   5 3965
   6 3966
   6 3967
   7 3968
   6 3969
   3 3970
   5 3971
   7 3972
   3 3973
   8 3974
   6 3975
   3 3976
   3 3977
  11 3978
   4 3979
   1 3980
   3 3981
   1 3982
   4 3983
   2 3984
   5 3985
   8 3986
   7 3987
   6 3988
   6 3989
   4 3990
   4 3991
   3 3992
   7 3993
   9 3994
   3 3995
   4 3996
   3 3997
   9 3998
   8 3999
   5 4000
   3 4001
   6 4002
   6 4003
   7 4004
   8 4005
  10 4006
   5 4007
   4 4008
   9 4009
   1 4010
   8 4011
   2 4012
   4 4013
   4 4014
   6 4015
   6 4016
   6 4017
   5 4018
   2 4019
   6 4020
   5 4021
   6 4022
   5 4023
   4 4024
   5 4025
   1 4026
   2 4027
   9 4028
   3 4029
   8 4030
   4 4031
   3 4032
  11 4033
   5 4034
   4 4035
   3 4036
   5 4037
   5 4038
   2 4039
   5 4040
   8 4041
   2 4042
   5 4043
   4 4044
   5 4045
   5 4046
   8 4047
   8 4048
   5 4049
   2 4050
   5 4051
   2 4052
   5 4053
   4 4054
   3 4055
   3 4056
   5 4057
   2 4058
   2 4059
   5 4060
   6 4061
   6 4062
   7 4063
   7 4064
   8 4065
   4 4066
   4 4067
   6 4068
   7 4069
   4 4070
   5 4071
   2 4072
   3 4073
   1 4074
   3 4075
   4 4076
   2 4077
   2 4078
   3 4079
   1 4080
   6 4081
   3 4082
   5 4083
   8 4084
   3 4085
   2 4086
   5 4087
   2 4088
   5 4089
   4 4090
   4 4091
   7 4092
   3 4093
   7 4094
   3 4095
   8 4096
   7 4097
   4 4098
   2 4099
   4 4100
   4 4101
   2 4102
   6 4103
   7 4104
   6 4105
   3 4106
   5 4107
   4 4108
   2 4109
   3 4110
   1 4111
   9 4112
   3 4113
   6 4114
   3 4115
   6 4116
   8 4117
   5 4118
   7 4119
   9 4120
   9 4121
   8 4122
   2 4123
   8 4124
   2 4125
   4 4126
   5 4127
   5 4128
   2 4129
   6 4130
   5 4131
   3 4132
   4 4133
   3 4134
   5 4135
   2 4136
   3 4137
   3 4138
   2 4139
   5 4140
   5 4141
   3 4142
   2 4143
   4 4144
   1 4145
   7 4146
   1 4147
   4 4148
   3 4149
   6 4150
   4 4151
   1 4152
   3 4153
   9 4154
   3 4155
   4 4156
   6 4157
   7 4158
   8 4159
   5 4160
   3 4161
   2 4162
   2 4163
   4 4164
   5 4165
   5 4166
   5 4167
   5 4168
   6 4169
   4 4170
   3 4171
   3 4172
   4 4173
   1 4174
   6 4175
   2 4176
   2 4177
   7 4178
   4 4180
   3 4181
   3 4182
   3 4183
   5 4184
   3 4185
   4 4186
   4 4187
   7 4188
   8 4189
   5 4190
   3 4191
   3 4192
   5 4193
   2 4194
   5 4195
   8 4196
   6 4197
   3 4198
   6 4199
   5 4200
   3 4201
   2 4202
   8 4203
   5 4204
   4 4205
   4 4206
   6 4207
   6 4208
   5 4209
   2 4210
   6 4211
   1 4212
   4 4213
   3 4214
   1 4215
   2 4216
   6 4217
   6 4218
   1 4219
   2 4220
   5 4221
   1 4222
   3 4223
   3 4224
   4 4225
   5 4226
   4 4227
   4 4228
   4 4229
   3 4230
   1 4231
   2 4232
   5 4233
   3 4234
   9 4235
   8 4236
   2 4237
   4 4238
   4 4239
   3 4240
   3 4241
   4 4242
   3 4243
   4 4244
   4 4245
   5 4246
   4 4247
   5 4248
   4 4249
   5 4250
   3 4251
   2 4252
   5 4253
   2 4254
   7 4255
   5 4256
   6 4257
   4 4258
   2 4259
   2 4260
   3 4261
   5 4262
   2 4263
   8 4264
   6 4265
   2 4266
   7 4267
   5 4268
   1 4269
   4 4270
   5 4271
   2 4272
   5 4273
   3 4274
   5 4275
   4 4276
   4 4277
   4 4278
   6 4279
   5 4280
   4 4281
   6 4282
   4 4283
   8 4284
   5 4285
   8 4286
   1 4287
   3 4288
   1 4289
  11 4290
   1 4291
   5 4292
   3 4293
   4 4294
   5 4295
   2 4296
   2 4298
   3 4299
   4 4300
   6 4301
   6 4302
   2 4303
   6 4304
   4 4305
   1 4306
   3 4307
   1 4308
   4 4309
   3 4311
   4 4312
   1 4313
   5 4314
   3 4315
   4 4316
   5 4317
   5 4318
   2 4319
   3 4320
   3 4321
   3 4322
   2 4323
   4 4324
   3 4325
   2 4326
   4 4327
   5 4328
   2 4329
   2 4330
   3 4331
   2 4332
   2 4333
   4 4334
   3 4335
   7 4336
   2 4337
   4 4338
   2 4339
   1 4340
   5 4341
   6 4342
   3 4343
   2 4344
   3 4345
   3 4346
   5 4347
   3 4348
   3 4350
   6 4351
   3 4352
   5 4353
   2 4354
   6 4355
   1 4356
   3 4357
   1 4358
   2 4359
   4 4360
   3 4361
   3 4362
   3 4363
   3 4364
   4 4365
   5 4366
   1 4367
   4 4368
   1 4369
   3 4370
   8 4371
   1 4372
   1 4373
   4 4374
   1 4375
   5 4376
   5 4377
   4 4378
   2 4379
   3 4380
   2 4381
   2 4382
   5 4383
   2 4384
   4 4385
   1 4387
   2 4388
   5 4389
   3 4390
   4 4391
   2 4392
   2 4393
   1 4394
   3 4395
   5 4396
   8 4397
   3 4398
   3 4399
   2 4400
   2 4401
   4 4402
   1 4403
   6 4405
   4 4406
   4 4407
   3 4408
   2 4409
   2 4410
   5 4411
   4 4412
   3 4413
   7 4415
   4 4416
   2 4417
   2 4418
   4 4419
   6 4420
   3 4421
   5 4422
   3 4423
   6 4424
   2 4425
   3 4426
   1 4427
   2 4428
   4 4429
   5 4430
   1 4431
   4 4432
   3 4433
   3 4435
   3 4436
   3 4437
   1 4438
   2 4439
   6 4440
   1 4441
   4 4442
   5 4443
   3 4444
   7 4445
   4 4446
   4 4447
   2 4448
   5 4449
   3 4450
   2 4451
   2 4452
   3 4453
   1 4454
   4 4455
   4 4456
   4 4457
   3 4458
   1 4459
   2 4460
   3 4461
   2 4462
   4 4463
   2 4464
   4 4465
   3 4467
   3 4468
   2 4469
   2 4471
   1 4472
   2 4473
   3 4474
   4 4475
   6 4476
   1 4477
   2 4478
   4 4479
   3 4480
   5 4481
   1 4482
   4 4484
   3 4485
   3 4486
   2 4487
   4 4489
   4 4490
   3 4491
   1 4492
   3 4493
   2 4494
   2 4495
   2 4496
   4 4497
   1 4498
   4 4499
   4 4500
   2 4501
   4 4502
   6 4503
   3 4504
   1 4505
   4 4506
   5 4507
   1 4508
   4 4509
   3 4510
   5 4511
   3 4512
   1 4513
   2 4514
   2 4515
   4 4516
   2 4517
   1 4518
   3 4519
   5 4520
   2 4522
   4 4523
   3 4524
   4 4525
   1 4526
   5 4528
   2 4529
   1 4530
   2 4531
   5 4532
   4 4533
   2 4534
   3 4535
   4 4536
   1 4537
   5 4538
   2 4539
   2 4540
   1 4541
   3 4542
   1 4543
   2 4544
   1 4545
   1 4546
   5 4547
   6 4548
   3 4549
   4 4550
   4 4551
   1 4552
   4 4553
   3 4554
   2 4555
   1 4556
   4 4557
   3 4558
   2 4559
   3 4560
   3 4561
   5 4562
   2 4564
   1 4565
   2 4566
   2 4567
   3 4568
   2 4569
   1 4570
   2 4571
   3 4572
   1 4573
   4 4574
   4 4575
   2 4576
   4 4577
   7 4578
   3 4579
   2 4580
   2 4581
   1 4582
   1 4583
   4 4584
   2 4585
   2 4586
   4 4587
   5 4588
   3 4589
   2 4590
   3 4591
   5 4592
   4 4593
   3 4594
   3 4595
   1 4596
   1 4597
   1 4598
   2 4599
   1 4600
   2 4601
   1 4602
   1 4603
   2 4604
   3 4605
   3 4606
   3 4607
   2 4608
   1 4609
   2 4610
   3 4611
   2 4612
   4 4613
   2 4614
   1 4615
   1 4616
   4 4617
   3 4618
   3 4620
   3 4621
   3 4622
   7 4623
   4 4624
   3 4625
   4 4626
   6 4627
   5 4628
   5 4629
   2 4630
   4 4631
   1 4632
   1 4633
   1 4634
   3 4636
   2 4637
   2 4638
   3 4639
   3 4640
   1 4641
   3 4643
   2 4644
   4 4645
   1 4646
   2 4647
   6 4648
   5 4649
   4 4650
   3 4651
   3 4652
   1 4653
   3 4654
   2 4656
   4 4657
   1 4658
   2 4659
   3 4660
   1 4661
   9 4662
   4 4663
   2 4664
   5 4665
   2 4667
   3 4668
   2 4670
   4 4671
   1 4672
   2 4673
   3 4674
   3 4675
   1 4676
   5 4677
   3 4678
   2 4680
   1 4681
   1 4682
   3 4683
   6 4684
   2 4685
   3 4686
   2 4687
   4 4688
   1 4689
   4 4690
   2 4691
   4 4692
   3 4693
   1 4694
   2 4695
   1 4696
   4 4697
   1 4698
   2 4699
   1 4700
   3 4701
   2 4702
   2 4703
   2 4704
   1 4705
   1 4706
   5 4707
   1 4708
   1 4709
   1 4710
   2 4711
   3 4712
   5 4715
   2 4716
   5 4717
   4 4718
   1 4719
   4 4720
   2 4721
   4 4723
   4 4724
   5 4725
   2 4726
   2 4727
   2 4728
   1 4729
   3 4730
   5 4731
   5 4732
   2 4733
   2 4734
   2 4736
   5 4737
   1 4738
   3 4739
   1 4741
   3 4742
   2 4744
   1 4745
   1 4746
   3 4747
   4 4748
   1 4749
   2 4750
   1 4752
   1 4753
   3 4754
   7 4755
   1 4756
   2 4757
   3 4758
   3 4759
   2 4761
   1 4763
   1 4764
   3 4765
   2 4766
   1 4767
   4 4768
   4 4769
   2 4770
   1 4771
   7 4772
   1 4773
   1 4774
   3 4775
   1 4776
   2 4777
   3 4778
   1 4779
   2 4781
   2 4782
   2 4785
   1 4786
   2 4787
   1 4788
   2 4789
   1 4790
   1 4791
   1 4792
   2 4793
   6 4795
   2 4796
   6 4797
   3 4798
   3 4799
   3 4800
   2 4801
   2 4802
   2 4804
   2 4805
   4 4806
   2 4807
   3 4808
   1 4809
   2 4811
   2 4812
   6 4813
   2 4815
   2 4817
   1 4818
   6 4819
   3 4820
   2 4821
   3 4822
   1 4823
   2 4824
   3 4825
   4 4826
   2 4828
   3 4830
   5 4831
   4 4832
   6 4833
   4 4834
   3 4835
   2 4836
   4 4837
   1 4838
   2 4839
   2 4840
   1 4841
   5 4842
   3 4843
   2 4844
   3 4845
   2 4846
   2 4847
   3 4848
   1 4849
   1 4850
   4 4851
   1 4852
   1 4853
   2 4854
   5 4855
   1 4856
   2 4857
   3 4858
   3 4859
   3 4860
   2 4861
   4 4862
   3 4863
   2 4864
   1 4865
   4 4866
   5 4868
   4 4869
   1 4870
   2 4871
   2 4874
   2 4875
   2 4876
   2 4877
   4 4878
   3 4879
   2 4880
   1 4881
   3 4882
   1 4883
   1 4884
   4 4885
   3 4887
   5 4888
   2 4889
   4 4892
   1 4894
   2 4895
   1 4896
   1 4897
   1 4898
   3 4899
   2 4900
   1 4901
   1 4902
   2 4904
   1 4905
   1 4907
   2 4909
   2 4910
   2 4911
   1 4912
   1 4913
   4 4914
   1 4915
   1 4916
   4 4917
   3 4918
   4 4920
   4 4921
   1 4923
   3 4924
   2 4925
   3 4926
   2 4927
   2 4929
   2 4930
   1 4931
   1 4932
   2 4933
   2 4934
   1 4935
   2 4936
   3 4937
   1 4938
   2 4939
   4 4940
   3 4941
   1 4943
   1 4944
   1 4946
   1 4947
   2 4948
   2 4949
   2 4951
   1 4952
   2 4953
   2 4954
   2 4958
   1 4959
   5 4960
   2 4961
   2 4962
   1 4963
   1 4964
   5 4965
   2 4966
   1 4968
   1 4969
   4 4970
   1 4972
   1 4973
   2 4974
   3 4975
   1 4976
   1 4978
   1 4980
   1 4981
   2 4983
   3 4984
   2 4985
   5 4986
   1 4987
   1 4988
   1 4990
   2 4991
   2 4992
   5 4993
   2 4994
   1 4995
   4 4996
   2 4997
   2 4998
   1 4999
   1 5000
   1 5001
   2 5002
   4 5005
   1 5006
   4 5007
   2 5008
   2 5009
   1 5010
   4 5011
   2 5012
   3 5013
   4 5014
   1 5015
   3 5016
   2 5017
   2 5018
   2 5020
   3 5022
   1 5023
   3 5024
   3 5025
   3 5026
   4 5027
   1 5029
   1 5030
   1 5031
   2 5032
   3 5033
   2 5034
   1 5035
   1 5036
   1 5038
   3 5039
   3 5040
   2 5041
   2 5042
   1 5043
   4 5044
   1 5045
   2 5046
   2 5047
   2 5049
   2 5050
   3 5051
   2 5052
   1 5054
   6 5055
   4 5056
   1 5057
   2 5059
   2 5062
   3 5063
   4 5064
   3 5067
   3 5068
   2 5070
   2 5071
   1 5072
   2 5074
   2 5076
   1 5077
   1 5078
   1 5080
   3 5081
   2 5082
   3 5084
   1 5085
   2 5086
   1 5087
   3 5088
   2 5089
   4 5090
   1 5091
   4 5092
   2 5093
   1 5094
   2 5095
   2 5096
   2 5097
   1 5100
   3 5101
   2 5103
   1 5105
   5 5106
   4 5107
   1 5108
   1 5109
   3 5110
   2 5111
   1 5113
   2 5114
   1 5115
   2 5116
   5 5117
   1 5118
   1 5119
   3 5120
   1 5121
   2 5122
   3 5124
   1 5125
   3 5126
   3 5127
   2 5128
   3 5129
   1 5130
   3 5131
   1 5132
   1 5133
   1 5134
   2 5135
   2 5136
   2 5137
   1 5138
   1 5140
   3 5141
   2 5142
   2 5143
   1 5144
   1 5145
   3 5146
   1 5147
   2 5149
   2 5150
   2 5151
   2 5152
   1 5153
   2 5154
   1 5155
   4 5156
   5 5157
   6 5159
   1 5161
   2 5163
   3 5164
   1 5166
   5 5167
   2 5168
   2 5169
   1 5170
   1 5171
   1 5172
   2 5173
   2 5174
   3 5177
   3 5179
   2 5185
   4 5187
   1 5190
   1 5191
   2 5192
   1 5193
   1 5194
   1 5195
   1 5198
   2 5199
   2 5200
   2 5202
   1 5203
   1 5205
   5 5206
   1 5207
   3 5208
   1 5210
   1 5212
   2 5213
   1 5215
   1 5221
   1 5223
   2 5224
   2 5225
   1 5226
   2 5227
   2 5228
   1 5229
   3 5230
   2 5231
   1 5233
   1 5235
   2 5237
   1 5238
   1 5239
   1 5240
   3 5241
   1 5245
   1 5246
   2 5247
   3 5248
   1 5251
   3 5252
   1 5253
   1 5254
   3 5255
   2 5256
   2 5259
   1 5260
   3 5261
   1 5263
   1 5264
   1 5265
   2 5266
   1 5267
   2 5268
   1 5269
   2 5270
   1 5271
   1 5272
   1 5273
   1 5274
   1 5275
   2 5276
   5 5277
   3 5278
   1 5280
   1 5281
   1 5282
   1 5284
   1 5285
   3 5286
   1 5287
   1 5290
   2 5292
   1 5293
   1 5294
   1 5295
   1 5296
   2 5297
   1 5298
   3 5299
   1 5300
   4 5301
   5 5302
   2 5303
   1 5304
   1 5305
   3 5306
   1 5307
   1 5308
   3 5310
   1 5311
   1 5313
   4 5314
   1 5315
   1 5318
   2 5320
   2 5321
   2 5322
   2 5323
   3 5325
   1 5326
   1 5327
   2 5328
   1 5329
   1 5330
   4 5333
   1 5334
   2 5335
   2 5337
   2 5339
   4 5342
   3 5343
   2 5344
   3 5345
   3 5348
   4 5349
   1 5350
   1 5351
   1 5352
   2 5353
   2 5354
   3 5355
   2 5356
   1 5358
   3 5359
   3 5360
   2 5363
   1 5364
   1 5365
   2 5366
   1 5367
   2 5368
   1 5369
   1 5371
   2 5372
   1 5373
   1 5376
   1 5378
   1 5379
   1 5381
   2 5383
   1 5385
   2 5386
   2 5387
   1 5388
   2 5389
   2 5390
   3 5391
   2 5393
   2 5396
   1 5397
   3 5398
   1 5400
   1 5401
   1 5402
   1 5403
   1 5405
   1 5407
   1 5408
   1 5411
   1 5415
   3 5417
   2 5418
   3 5419
   1 5420
   1 5422
   3 5424
   4 5426
   2 5428
   2 5429
   3 5430
   1 5431
   1 5432
   2 5433
   2 5434
   1 5438
   2 5441
   2 5442
   2 5443
   2 5445
   1 5446
   1 5448
   1 5449
   1 5450
   1 5451
   2 5452
   1 5454
   2 5455
   2 5456
   1 5457
   1 5458
   1 5460
   1 5461
   2 5462
   2 5466
   1 5469
   1 5470
   1 5471
   2 5472
   2 5473
   3 5474
   1 5476
   1 5477
   2 5479
   1 5480
   1 5481
   4 5484
   1 5486
   1 5488
   1 5490
   1 5491
   1 5492
   2 5493
   2 5495
   2 5496
   2 5497
   2 5498
   1 5499
   1 5500
   1 5501
   1 5502
   3 5503
   2 5504
   1 5507
   1 5508
   2 5509
   1 5510
   4 5512
   1 5515
   1 5517
   2 5518
   1 5520
   2 5521
   1 5522
   2 5523
   1 5526
   2 5527
   2 5530
   2 5532
   4 5534
   1 5536
   1 5537
   2 5539
   3 5540
   1 5541
   3 5543
   1 5544
   1 5545
   1 5546
   2 5547
   1 5548
   1 5549
   3 5550
   2 5551
   1 5552
   3 5553
   2 5555
   2 5556
   2 5557
   2 5558
   1 5560
   2 5562
   1 5563
   1 5566
   2 5567
   1 5568
   1 5569
   1 5570
   3 5571
   1 5572
   3 5573
   3 5576
   1 5578
   1 5579
   1 5580
   1 5582
   1 5583
   3 5586
   2 5588
   2 5590
   2 5594
   1 5595
   1 5596
   1 5597
   1 5598
   1 5599
   2 5600
   1 5601
   1 5602
   2 5603
   1 5604
   3 5605
   1 5607
   1 5608
   1 5609
   2 5610
   2 5612
   1 5613
   1 5614
   1 5615
   1 5616
   2 5619
   3 5620
   1 5621
   5 5622
   1 5624
   1 5625
   1 5626
   5 5627
   2 5631
   3 5633
   1 5635
   3 5636
   2 5637
   2 5638
   1 5639
   1 5640
   1 5641
   2 5642
   2 5643
   1 5645
   1 5646
   1 5650
   4 5651
   2 5652
   2 5653
   1 5658
   3 5659
   2 5663
   2 5664
   1 5665
   1 5666
   1 5667
   1 5671
   1 5674
   1 5677
   2 5678
   1 5679
   1 5680
   3 5681
   1 5687
   2 5688
   1 5690
   1 5692
   2 5694
   1 5695
   1 5696
   1 5697
   5 5699
   1 5703
   1 5705
   1 5706
   1 5707
   3 5708
   4 5709
   1 5710
   1 5713
   2 5716
   2 5717
   1 5718
   1 5722
   1 5729
   1 5732
   1 5733
   1 5734
   1 5735
   2 5736
   1 5737
   2 5739
   1 5741
   2 5742
   1 5743
   1 5744
   1 5746
   1 5751
   1 5752
   2 5754
   1 5755
   1 5756
   2 5757
   1 5758
   2 5761
   1 5763
   2 5766
   3 5767
   3 5768
   1 5770
   1 5771
   1 5773
   1 5774
   1 5775
   2 5779
   1 5782
   2 5785
   1 5786
   1 5787
   1 5788
   1 5789
   2 5792
   2 5793
   1 5795
   1 5796
   1 5798
   2 5799
   2 5801
   1 5802
   1 5803
   2 5804
   1 5805
   1 5806
   2 5807
   1 5808
   2 5810
   3 5811
   1 5812
   2 5813
   1 5814
   1 5817
   1 5818
   2 5819
   1 5820
   3 5821
   2 5822
   2 5824
   2 5826
   1 5829
   1 5832
   3 5835
   1 5837
   2 5839
   1 5841
   1 5843
   1 5845
   1 5850
   1 5851
   1 5852
   1 5853
   3 5854
   3 5855
   1 5858
   1 5860
   1 5861
   1 5865
   3 5869
   1 5870
   1 5872
   2 5873
   1 5874
   1 5875
   1 5876
   1 5878
   2 5879
   1 5881
   1 5886
   1 5888
   1 5889
   2 5890
   1 5891
   1 5893
   1 5895
   2 5896
   1 5897
   1 5899
   2 5900
   2 5901
   1 5902
   1 5904
   1 5907
   1 5909
   1 5911
   1 5915
   2 5916
   1 5917
   2 5919
   4 5922
   1 5924
   2 5925
   1 5928
   1 5929
   3 5930
   2 5931
   1 5933
   1 5934
   2 5936
   2 5937
   2 5940
   1 5945
   2 5946
   2 5947
   1 5948
   1 5949
   3 5950
   2 5951
   1 5956
   1 5960
   1 5961
   1 5962
   1 5965
   1 5966
   1 5967
   2 5968
   2 5969
   1 5970
   1 5972
   3 5973
   2 5974
   1 5975
   1 5976
   1 5977
   2 5980
   2 5981
   1 5985
   1 5987
   1 5988
   2 5989
   3 5991
   1 5994
   2 5995
   1 5996
   3 5999
   1 6001
   1 6002
   1 6007
   2 6011
   2 6013
   1 6016
   1 6017
   1 6020
   1 6026
   1 6028
   1 6031
   1 6032
   1 6033
   1 6035
   1 6037
   1 6040
   1 6043
   1 6044
   1 6047
   1 6051
   1 6052
   1 6053
   1 6054
   1 6055
   1 6057
   1 6058
   3 6059
   1 6060
   1 6061
   2 6064
   1 6067
   1 6071
   1 6072
   1 6076
   1 6077
   2 6084
   1 6086
   2 6087
   1 6090
   1 6092
   1 6093
   1 6097
   2 6098
   2 6099
   1 6100
   1 6101
   3 6102
   1 6103
   1 6105
   1 6106
   1 6109
   1 6111
   1 6112
   1 6117
   2 6118
   2 6120
   4 6123
   2 6124
   1 6127
   2 6130
   1 6133
   1 6134
   1 6135
   1 6136
   1 6141
   1 6142
   1 6143
   2 6146
   1 6147
   1 6148
   1 6149
   2 6151
   1 6152
   1 6153
   1 6154
   1 6155
   1 6160
   1 6161
   1 6162
   2 6163
   1 6165
   1 6166
   1 6167
   2 6169
   1 6175
   1 6176
   1 6178
   1 6179
   2 6181
   3 6183
   1 6186
   2 6190
   1 6194
   1 6195
   2 6196
   1 6200
   1 6202
   1 6203
   1 6206
   2 6208
   1 6210
   2 6211
   2 6218
   1 6219
   1 6220
   1 6228
   1 6229
   1 6230
   3 6231
   1 6234
   2 6236
   1 6239
   2 6241
   1 6247
   1 6249
   2 6251
   1 6253
   2 6256
   1 6259
   1 6260
   1 6262
   1 6264
   1 6267
   2 6269
   2 6271
   3 6277
   1 6284
   1 6286
   1 6287
   1 6290
   1 6294
   3 6296
   1 6297
   1 6298
   2 6299
   1 6300
   1 6301
   1 6302
   2 6305
   1 6307
   1 6310
   1 6313
   1 6320
   1 6324
   2 6325
   2 6327
   1 6329
   1 6331
   1 6333
   1 6334
   1 6338
   1 6339
   1 6343
   1 6345
   1 6346
   1 6350
   1 6353
   2 6354
   1 6355
   2 6358
   1 6359
   1 6360
   2 6361
   1 6362
   1 6363
   1 6373
   1 6374
   1 6378
   1 6383
   2 6384
   1 6386
   2 6393
   3 6396
   1 6397
   2 6401
   1 6407
   1 6408
   1 6412
   1 6414
   1 6415
   2 6425
   1 6427
   1 6432
   1 6434
   1 6437
   1 6438
   1 6440
   1 6441
   1 6443
   2 6446
   1 6447
   1 6449
   1 6451
   1 6453
   1 6460
   1 6461
   1 6463
   2 6471
   2 6472
   1 6474
   1 6475
   2 6477
   1 6488
   2 6489
   1 6491
   2 6493
   1 6495
   1 6505
   1 6508
   1 6514
   1 6515
   1 6518
   2 6521
   1 6522
   1 6523
   1 6528
   1 6530
   1 6534
   1 6535
   1 6545
   1 6546
   1 6548
   1 6552
   1 6553
   1 6557
   1 6559
   1 6561
   2 6563
   1 6567
   2 6573
   2 6575
   2 6576
   1 6577
   1 6578
   1 6579
   1 6581
   1 6582
   1 6584
   1 6588
   2 6590
   1 6595
   1 6601
   1 6605
   1 6608
   1 6611
   1 6614
   1 6615
   1 6618
   1 6619
   1 6620
   1 6621
   1 6624
   1 6634
   2 6635
   1 6645
   1 6646
   2 6648
   1 6651
   1 6654
   1 6658
   1 6660
   1 6662
   1 6663
   1 6669
   1 6671
   1 6672
   1 6675
   1 6678
   1 6679
   1 6681
   1 6684
   1 6686
   1 6688
   1 6693
   1 6701
   1 6708
   1 6709
   1 6712
   1 6718
   1 6726
   1 6728
   1 6729
   3 6734
   2 6736
   2 6763
   1 6767
   1 6768
   1 6769
   1 6772
   1 6773
   1 6774
   2 6778
   1 6781
   1 6783
   1 6784
   1 6785
   1 6786
   1 6787
   3 6789
   1 6790
   1 6793
   1 6794
   1 6795
   1 6802
   2 6804
   2 6805
   1 6815
   1 6816
   1 6819
   1 6820
   2 6825
   1 6826
   1 6829
   1 6830
   1 6834
   1 6837
   2 6838
   1 6840
   3 6843
   1 6845
   1 6846
   1 6852
   1 6854
   1 6856
   2 6857
   1 6864
   1 6866
   3 6868
   1 6869
   3 6875
   1 6877
   1 6879
   1 6883
   2 6884
   1 6886
   2 6890
   1 6893
   1 6895
   1 6902
   2 6904
   1 6906
   2 6908
   1 6910
   2 6911
   1 6913
   1 6916
   1 6925
   1 6926
   1 6929
   2 6932
   1 6934
   1 6943
   2 6945
   1 6946
   1 6949
   1 6950
   1 6952
   1 6955
   1 6961
   1 6962
   1 6966
   1 6969
   2 6971
   1 6978
   1 6979
   1 6981
   2 6982
   1 6984
   1 6987
   1 6990
   1 6993
   1 6995
   1 6996
   1 6997
   1 6998
   1 7002
   1 7006
   1 7007
   2 7008
   1 7009
   1 7012
   1 7020
   1 7021
   1 7022
   1 7026
   1 7032
   1 7036
   1 7049
   1 7050
   1 7051
   1 7053
   1 7062
   1 7063
   1 7065
   1 7066
   1 7077
   1 7080
   1 7081
   1 7086
   1 7089
   1 7090
   1 7100
   1 7101
   1 7112
   1 7113
   1 7116
   1 7122
   1 7129
   1 7130
   1 7134
   1 7139
   2 7144
   1 7149
   1 7150
   1 7155
   1 7168
   1 7173
   1 7175
   1 7176
   1 7177
   1 7183
   2 7186
   1 7187
   1 7190
   1 7199
   1 7200
   1 7201
   1 7207
   1 7210
   2 7211
   1 7213
   1 7220
   1 7223
   1 7224
   1 7225
   1 7230
   1 7231
   1 7234
   1 7235
   2 7237
   1 7238
   1 7244
   1 7246
   1 7250
   1 7252
   1 7254
   1 7276
   1 7286
   1 7287
   1 7291
   1 7293
   1 7295
   2 7297
   1 7299
   1 7301
   1 7305
   1 7307
   1 7308
   1 7310
   1 7312
   1 7313
   1 7315
   1 7317
   1 7318
   1 7323
   1 7324
   1 7325
   2 7333
   2 7340
   1 7341
   1 7343
   2 7354
   1 7360
   2 7370
   1 7373
   1 7375
   1 7380
   1 7382
   1 7385
   2 7387
   1 7392
   2 7394
   1 7395
   1 7407
   1 7413
   1 7415
   1 7416
   1 7421
   2 7426
   1 7429
   1 7430
   1 7433
   1 7457
   1 7462
   2 7463
   2 7469
   1 7481
   1 7482
   1 7484
   1 7485
   1 7494
   1 7496
   1 7503
   2 7507
   1 7511
   1 7518
   1 7524
   1 7528
   1 7529
   1 7543
   1 7552
   2 7555
   1 7575
   1 7576
   1 7577
   1 7579
   1 7580
   1 7584
   1 7604
   1 7611
   1 7613
   1 7616
   1 7624
   1 7628
   1 7629
   1 7631
   1 7635
   1 7647
   1 7652
   1 7656
   1 7661
   1 7668
   1 7679
   1 7695
   1 7709
   1 7717
   1 7748
   1 7769
   1 7780
   1 7790
   1 7791
   1 7802
   1 7811
   2 7830
   1 7836
   1 7839
   1 7848
   1 7850
   1 7851
   1 7854
   1 7856
   1 7858
   1 7859
   1 7862
   1 7865
   1 7879
   1 7900
   1 7905
   1 7910
   1 7915
   1 7928
   1 7942
   1 7943
   1 7952
   1 7955
   1 7960
   1 7970
   1 7986
   1 7994
   1 8001
   1 8017
   2 8020
   1 8034
   1 8038
   1 8051
   1 8052
   1 8054
   1 8073
   1 8076
   1 8080
   1 8085
   1 8090
   1 8103
   1 8151
   1 8180
   1 8186
   1 8193
   1 8216
   1 8218
   1 8224
   2 8225
   1 8249
   1 8254
   2 8279
   1 8284
   1 8285
   1 8289
   1 8303
   1 8309
   1 8325
   1 8363
   1 8388
   2 8406
   1 8417
   1 8435
   2 8439
   1 8451
   1 8469
   1 8488
   1 8495
   1 8504
   1 8513
   1 8568
   1 8571
   1 8586
   1 8599
   1 8608
   1 8631
   1 8633
   1 8635
   1 8641
   1 8644
   1 8667
   1 8679
   1 8685
   1 8689
   1 8709
   1 8713
   1 8714
   1 8740
   1 8756
   1 8758
   1 8771
   1 8786
   1 8788
   1 8812
   1 8816
   1 8819
   1 8839
   1 8879
   2 8880
   1 8892
   1 8933
   1 8938
   1 8949
   1 8965
   1 9003
   1 9038
   1 9081
   1 9090
   1 9117
   1 9120
   1 9127
   1 9131
   1 9138
   1 9159
   1 9160
   1 9218
   1 9221
   1 9263
   1 9264
   1 9282
   1 9292
   1 9296
   1 9339
   1 9353
   1 9359
   1 9372
   1 9415
   1 9426
   1 9444
   1 9459
   1 9486
   1 9490
   1 9521
   1 9560
   1 9590
   1 9620
   1 9642
   1 9689
   1 9703
   1 9738
   1 9743
   1 9749
   1 9773
   1 9796
   1 9873
   1 9913
   1 9949
   1 10021
   1 10025
   1 10050
   1 10137
   1 10143
   1 10145
   1 10154
   1 10156
   1 10198
   1 10210
   1 10307
   1 10314
   1 10335
   1 10482
   1 10497
   1 10524
   1 10548
   1 10553
   1 10621
   1 10691
   1 10710
   1 10902
   1 10957
   1 10986
   1 11029
   1 11066
   1 11096
   1 11153
   1 11182
   1 11235
   1 11435
   1 11824
   1 12014
   1 12127
   1 12178
   1 12237
   1 12260
   1 12303
   1 12333
   1 12464
   1 13284
   1 13429
   1 13916
   1 14374
   1 14390
   1 15415
   1 16044
   1 16944
   1 31916
